,leiden_1.4
0,2
1,9
2,4
3,3
4,3
5,5
6,6
7,7
8,5
9,8
10,6
11,1
12,3
13,1
14,2
15,1
16,9
17,1
18,1
19,1
20,1
21,5
22,7
23,3
24,0
25,9
26,4
27,4
28,11
29,1
30,7
31,5
32,2
33,3
34,3
35,11
36,7
37,1
38,10
39,1
40,2
41,0
42,2
43,1
44,9
45,7
46,9
47,8
48,0
49,1
50,1
51,2
52,3
53,7
54,2
55,0
56,4
57,2
58,4
59,3
60,3
61,4
62,0
63,2
64,2
65,9
66,1
67,3
68,0
69,2
70,8
71,4
72,0
73,4
74,6
75,10
76,7
77,3
78,2
79,5
80,2
81,4
82,2
83,5
84,2
85,2
86,4
87,1
88,4
89,2
90,4
91,1
92,3
93,9
94,0
95,5
96,3
97,4
98,8
99,7
100,9
101,2
102,5
103,9
104,0
105,6
106,7
107,0
108,1
109,7
110,4
111,9
112,5
113,9
114,5
115,1
116,5
117,0
118,3
119,2
120,6
121,0
122,6
123,3
124,5
125,4
126,9
127,7
128,5
129,0
130,2
131,5
132,7
133,9
134,0
135,2
136,2
137,2
138,2
139,0
140,4
141,3
142,5
143,2
144,4
145,0
146,0
147,7
148,5
149,6
150,1
151,4
152,1
153,4
154,0
155,0
156,1
157,2
158,9
159,0
160,2
161,7
162,2
163,8
164,10
165,3
166,0
167,2
168,3
169,2
170,5
171,0
172,0
173,0
174,8
175,1
176,1
177,6
178,0
179,9
180,1
181,9
182,2
183,1
184,3
185,11
186,0
187,0
188,0
189,2
190,8
191,9
192,1
193,7
194,5
195,7
196,0
197,3
198,8
199,10
200,0
201,1
202,4
203,0
204,5
205,7
206,1
207,8
208,8
209,2
210,2
211,1
212,0
213,4
214,0
215,0
216,11
217,6
218,0
219,4
220,8
221,2
222,1
223,5
224,0
225,5
226,3
227,3
228,5
229,6
230,1
231,4
232,0
233,5
234,2
235,3
236,10
237,0
238,9
239,1
240,9
241,4
242,3
243,5
244,2
245,1
246,1
247,5
248,9
249,3
250,0
251,3
252,5
253,0
254,6
255,1
256,9
257,4
258,5
259,2
260,2
261,4
262,9
263,0
264,8
265,2
266,2
267,7
268,1
269,3
270,3
271,4
272,8
273,5
274,5
275,3
276,0
277,1
278,8
279,2
280,3
281,2
282,8
283,1
284,8
285,1
286,0
287,4
288,3
289,9
290,4
291,0
292,10
293,6
294,2
295,1
296,3
297,4
298,6
299,2
300,0
301,2
302,0
303,4
304,0
305,2
306,2
307,1
308,3
309,0
310,7
311,1
312,0
313,3
314,0
315,1
316,1
317,9
318,1
319,5
320,9
321,9
322,7
323,10
324,2
325,2
326,1
327,1
328,5
329,9
330,0
331,4
332,6
333,3
334,0
335,0
336,3
337,5
338,0
339,6
340,0
341,0
342,4
343,6
344,4
345,2
346,2
347,9
348,6
349,1
350,9
351,2
352,4
353,1
354,10
355,3
356,5
357,2
358,3
359,6
360,9
361,11
362,3
363,1
364,5
365,1
366,0
367,6
368,4
369,2
370,1
371,3
372,0
373,4
374,4
375,9
376,6
377,3
378,5
379,0
380,5
381,0
382,1
383,4
384,2
385,0
386,1
387,2
388,1
389,0
390,3
391,2
392,11
393,6
394,1
395,3
396,1
397,2
398,3
399,10
400,3
401,5
402,0
403,2
404,2
405,0
406,0
407,1
408,0
409,0
410,1
411,0
412,4
413,7
414,7
415,0
416,2
417,3
418,2
419,0
420,7
421,3
422,0
423,5
424,5
425,3
426,9
427,4
428,10
429,1
430,1
431,2
432,4
433,4
434,9
435,9
436,2
437,4
438,6
439,1
440,2
441,7
442,3
443,5
444,3
445,4
446,5
447,1
448,3
449,1
450,0
451,1
452,0
453,1
454,2
455,0
456,5
457,1
458,3
459,0
460,6
461,2
462,1
463,6
464,6
465,2
466,7
467,0
468,4
469,3
470,3
471,1
472,0
473,1
474,1
475,5
476,5
477,1
478,8
479,4
480,10
481,9
482,4
483,8
484,3
485,7
486,1
487,3
488,0
489,1
490,0
491,1
492,1
493,1
494,5
495,1
496,5
497,1
498,3
499,11
500,1
501,1
502,4
503,3
504,5
505,1
506,0
507,3
508,5
509,0
510,4
511,2
512,6
513,0
514,4
515,3
516,9
517,1
518,2
519,0
520,2
521,2
522,2
523,1
524,4
525,1
526,6
527,6
528,4
529,9
530,9
531,7
532,0
533,2
534,3
535,9
536,2
537,3
538,8
539,6
540,3
541,10
542,7
543,2
544,5
545,5
546,5
547,3
548,0
549,3
550,4
551,3
552,5
553,1
554,5
555,7
556,0
557,2
558,9
559,0
560,2
561,2
562,2
563,4
564,8
565,8
566,0
567,1
568,8
569,3
570,3
571,2
572,1
573,6
574,9
575,10
576,1
577,0
578,3
579,0
580,3
581,0
582,4
583,6
584,0
585,11
586,1
587,3
588,4
589,9
590,1
591,0
592,1
593,2
594,5
595,11
596,0
597,4
598,6
599,0
600,2
601,7
602,0
603,3
604,1
605,4
606,3
607,5
608,1
609,6
610,1
611,8
612,2
613,2
614,1
615,9
616,10
617,1
618,2
619,7
620,2
621,2
622,3
623,0
624,2
625,5
626,4
627,4
628,3
629,8
630,8
631,4
632,2
633,5
634,2
635,1
636,4
637,1
638,2
639,7
640,0
641,0
642,2
643,2
644,5
645,7
646,0
647,0
648,6
649,8
650,1
651,7
652,4
653,1
654,8
655,3
656,7
657,1
658,2
659,5
660,1
661,2
662,6
663,9
664,6
665,7
666,0
667,1
668,4
669,9
670,11
671,6
672,2
673,0
674,5
675,5
676,5
677,2
678,9
679,3
680,6
681,5
682,2
683,7
684,5
685,10
686,2
687,6
688,5
689,0
690,0
691,9
692,8
693,1
694,7
695,4
696,0
697,5
698,1
699,3
700,3
701,3
702,0
703,4
704,4
705,7
706,8
707,0
708,6
709,2
710,5
711,2
712,7
713,8
714,1
715,2
716,9
717,2
718,7
719,0
720,4
721,7
722,6
723,1
724,7
725,3
726,5
727,1
728,0
729,9
730,7
731,5
732,3
733,4
734,1
735,1
736,5
737,6
738,3
739,6
740,3
741,11
742,0
743,0
744,7
745,10
746,7
747,8
748,4
749,3
750,4
751,1
752,2
753,1
754,0
755,6
756,1
757,5
758,1
759,9
760,3
761,1
762,7
763,0
764,0
765,8
766,1
767,6
768,0
769,5
770,4
771,3
772,1
773,0
774,0
775,4
776,0
777,2
778,5
779,2
780,9
781,4
782,7
783,2
784,3
785,4
786,1
787,4
788,8
789,6
790,10
791,1
792,8
793,2
794,4
795,3
796,1
797,8
798,7
799,3
800,0
801,5
802,9
803,0
804,5
805,1
806,3
807,4
808,1
809,7
810,2
811,0
812,7
813,2
814,8
815,2
816,5
817,2
818,1
819,0
820,4
821,6
822,3
823,4
824,0
825,1
826,6
827,7
828,1
829,5
830,4
831,3
832,9
833,1
834,4
835,0
836,7
837,8
838,6
839,4
840,3
841,4
842,10
843,8
844,3
845,1
846,5
847,3
848,7
849,11
850,5
851,1
852,0
853,7
854,2
855,3
856,1
857,0
858,9
859,5
860,8
861,2
862,8
863,5
864,0
865,5
866,3
867,3
868,5
869,9
870,0
871,7
872,1
873,1
874,9
875,5
876,8
877,3
878,0
879,3
880,1
881,0
882,2
883,6
884,6
885,1
886,2
887,0
888,2
889,6
890,1
891,1
892,5
893,9
894,2
895,5
896,6
897,0
898,5
899,8
900,6
901,2
902,9
903,3
904,2
905,8
906,8
907,5
908,7
909,5
910,4
911,9
912,9
913,6
914,1
915,6
916,6
917,9
918,7
919,9
920,5
921,0
922,10
923,10
924,1
925,5
926,10
927,3
928,1
929,5
930,2
931,2
932,6
933,8
934,5
935,6
936,3
937,8
938,1
939,8
940,6
941,7
942,5
943,2
944,4
945,1
946,0
947,8
948,5
949,3
950,6
951,4
952,4
953,4
954,4
955,9
956,1
957,10
958,2
959,1
960,6
961,10
962,1
963,1
964,4
965,8
966,7
967,1
968,2
969,0
970,0
971,9
972,4
973,1
974,5
975,1
976,10
977,5
978,10
979,1
980,3
981,0
982,3
983,6
984,10
985,7
986,0
987,1
988,6
989,1
990,0
991,2
992,2
993,2
994,0
995,5
996,10
997,0
998,1
999,9
1000,6
1001,3
1002,1
1003,4
1004,3
1005,2
1006,3
1007,1
1008,4
1009,4
1010,1
1011,6
1012,8
1013,4
1014,2
1015,0
1016,4
1017,0
1018,6
1019,3
1020,6
1021,6
1022,4
1023,2
1024,7
1025,4
1026,2
1027,9
1028,4
1029,0
1030,1
1031,2
1032,3
1033,0
1034,10
1035,2
1036,3
1037,1
1038,3
1039,0
1040,8
1041,7
1042,2
1043,4
1044,4
1045,7
1046,8
1047,0
1048,11
1049,2
1050,6
1051,1
1052,2
1053,0
1054,3
1055,4
1056,0
1057,2
1058,2
1059,6
1060,0
1061,2
1062,2
1063,6
1064,5
1065,2
1066,1
1067,1
1068,0
1069,0
1070,8
1071,3
1072,2
1073,1
1074,1
1075,2
1076,1
1077,3
1078,2
1079,2
1080,0
1081,3
1082,2
1083,2
1084,0
1085,4
1086,7
1087,7
1088,0
1089,7
1090,4
1091,9
1092,1
1093,1
1094,4
1095,3
1096,3
1097,1
1098,3
1099,1
1100,7
1101,0
1102,10
1103,2
1104,0
1105,4
1106,3
1107,4
1108,6
1109,5
1110,6
1111,6
1112,9
1113,7
1114,5
1115,3
1116,6
1117,5
1118,1
1119,3
1120,0
1121,9
1122,8
1123,5
1124,0
1125,4
1126,1
1127,8
1128,0
1129,9
1130,1
1131,7
1132,4
1133,3
1134,5
1135,0
1136,0
1137,6
1138,8
1139,5
1140,8
1141,4
1142,2
1143,2
1144,4
1145,8
1146,5
1147,6
1148,0
1149,2
1150,0
1151,1
1152,9
1153,3
1154,2
1155,6
1156,5
1157,2
1158,0
1159,2
1160,3
1161,7
1162,1
1163,4
1164,1
1165,3
1166,4
1167,7
1168,3
1169,1
1170,8
1171,2
1172,2
1173,3
1174,5
1175,5
1176,3
1177,5
1178,1
1179,6
1180,1
1181,7
1182,8
1183,4
1184,1
1185,0
1186,1
1187,9
1188,1
1189,0
1190,11
1191,9
1192,4
1193,5
1194,2
1195,2
1196,0
1197,2
1198,3
1199,8
1200,3
1201,2
1202,1
1203,1
1204,8
1205,0
1206,7
1207,4
1208,5
1209,3
1210,8
1211,2
1212,9
1213,3
1214,4
1215,6
1216,0
1217,0
1218,5
1219,1
1220,2
1221,1
1222,6
1223,0
1224,3
1225,0
1226,6
1227,4
1228,1
1229,2
1230,2
1231,5
1232,2
1233,3
1234,8
1235,8
1236,3
1237,2
1238,2
1239,2
1240,2
1241,3
1242,0
1243,1
1244,2
1245,6
1246,7
1247,1
1248,7
1249,1
1250,3
1251,3
1252,6
1253,2
1254,3
1255,0
1256,3
1257,6
1258,7
1259,3
1260,1
1261,1
1262,5
1263,10
1264,9
1265,1
1266,0
1267,0
1268,4
1269,8
1270,6
1271,1
1272,4
1273,6
1274,3
1275,1
1276,0
1277,1
1278,6
1279,10
1280,7
1281,2
1282,3
1283,7
1284,6
1285,2
1286,1
1287,3
1288,2
1289,2
1290,4
1291,2
1292,7
1293,1
1294,5
1295,0
1296,10
1297,7
1298,1
1299,10
1300,6
1301,9
1302,3
1303,0
1304,1
1305,0
1306,8
1307,8
1308,10
1309,0
1310,1
1311,0
1312,2
1313,0
1314,1
1315,0
1316,2
1317,9
1318,1
1319,4
1320,7
1321,3
1322,4
1323,7
1324,9
1325,7
1326,0
1327,6
1328,7
1329,3
1330,0
1331,3
1332,2
1333,6
1334,1
1335,1
1336,2
1337,0
1338,2
1339,7
1340,7
1341,0
1342,9
1343,8
1344,4
1345,2
1346,2
1347,4
1348,4
1349,0
1350,6
1351,9
1352,2
1353,5
1354,3
1355,4
1356,8
1357,8
1358,3
1359,7
1360,2
1361,2
1362,6
1363,3
1364,6
1365,10
1366,3
1367,0
1368,0
1369,5
1370,1
1371,0
1372,9
1373,5
1374,5
1375,0
1376,8
1377,0
1378,0
1379,0
1380,9
1381,8
1382,1
1383,2
1384,5
1385,4
1386,4
1387,7
1388,2
1389,3
1390,5
1391,1
1392,1
1393,8
1394,0
1395,3
1396,10
1397,1
1398,9
1399,0
1400,0
1401,0
1402,7
1403,6
1404,6
1405,4
1406,6
1407,4
1408,0
1409,2
1410,8
1411,2
1412,1
1413,5
1414,11
1415,2
1416,6
1417,7
1418,3
1419,1
1420,6
1421,0
1422,8
1423,2
1424,1
1425,3
1426,11
1427,5
1428,5
1429,2
1430,0
1431,9
1432,2
1433,4
1434,5
1435,6
1436,1
1437,3
1438,2
1439,1
1440,7
1441,5
1442,4
1443,0
1444,1
1445,3
1446,8
1447,8
1448,1
1449,9
1450,3
1451,1
1452,7
1453,6
1454,2
1455,7
1456,9
1457,5
1458,4
1459,8
1460,0
1461,6
1462,2
1463,7
1464,3
1465,4
1466,2
1467,3
1468,3
1469,1
1470,9
1471,4
1472,5
1473,1
1474,4
1475,0
1476,8
1477,9
1478,2
1479,3
1480,4
1481,9
1482,5
1483,6
1484,0
1485,9
1486,4
1487,3
1488,3
1489,3
1490,7
1491,1
1492,2
1493,2
1494,3
1495,3
1496,4
1497,0
1498,0
1499,0
1500,9
1501,5
1502,4
1503,2
1504,10
1505,4
1506,7
1507,3
1508,9
1509,6
1510,5
1511,1
1512,5
1513,4
1514,4
1515,0
1516,8
1517,6
1518,0
1519,3
1520,5
1521,6
1522,0
1523,3
1524,1
1525,8
1526,5
1527,0
1528,10
1529,9
1530,4
1531,1
1532,4
1533,2
1534,5
1535,7
1536,6
1537,2
1538,7
1539,1
1540,7
1541,3
1542,10
1543,7
1544,4
1545,0
1546,0
1547,1
1548,6
1549,9
1550,2
1551,4
1552,9
1553,5
1554,10
1555,0
1556,4
1557,0
1558,7
1559,5
1560,1
1561,3
1562,1
1563,3
1564,3
1565,2
1566,4
1567,4
1568,4
1569,0
1570,3
1571,6
1572,11
1573,8
1574,3
1575,8
1576,3
1577,11
1578,3
1579,3
1580,8
1581,6
1582,2
1583,3
1584,6
1585,3
1586,9
1587,0
1588,8
1589,5
1590,4
1591,7
1592,2
1593,2
1594,1
1595,2
1596,4
1597,9
1598,9
1599,2
1600,5
1601,6
1602,6
1603,4
1604,0
1605,6
1606,5
1607,1
1608,7
1609,5
1610,5
1611,0
1612,5
1613,3
1614,3
1615,5
1616,2
1617,6
1618,3
1619,3
1620,1
1621,2
1622,3
1623,5
1624,4
1625,9
1626,6
1627,0
1628,4
1629,3
1630,5
1631,6
1632,5
1633,1
1634,0
1635,3
1636,1
1637,6
1638,6
1639,0
1640,6
1641,7
1642,1
1643,1
1644,4
1645,3
1646,5
1647,5
1648,7
1649,4
1650,5
1651,1
1652,4
1653,0
1654,3
1655,4
1656,1
1657,1
1658,1
1659,1
1660,0
1661,7
1662,4
1663,1
1664,1
1665,0
1666,5
1667,10
1668,4
1669,1
1670,4
1671,7
1672,0
1673,9
1674,5
1675,4
1676,0
1677,0
1678,4
1679,0
1680,6
1681,2
1682,8
1683,0
1684,9
1685,2
1686,8
1687,6
1688,5
1689,2
1690,1
1691,0
1692,9
1693,5
1694,0
1695,0
1696,3
1697,9
1698,3
1699,9
1700,2
1701,7
1702,3
1703,0
1704,5
1705,1
1706,2
1707,7
1708,8
1709,6
1710,1
1711,6
1712,5
1713,0
1714,0
1715,5
1716,5
1717,1
1718,7
1719,0
1720,1
1721,3
1722,5
1723,3
1724,1
1725,7
1726,2
1727,6
1728,5
1729,9
1730,8
1731,0
1732,2
1733,0
1734,1
1735,2
1736,5
1737,5
1738,2
1739,6
1740,5
1741,7
1742,5
1743,3
1744,6
1745,2
1746,3
1747,4
1748,5
1749,3
1750,0
1751,3
1752,1
1753,10
1754,6
1755,0
1756,1
1757,4
1758,2
1759,1
1760,4
1761,6
1762,6
1763,2
1764,3
1765,4
1766,7
1767,8
1768,6
1769,2
1770,2
1771,9
1772,3
1773,5
1774,1
1775,1
1776,10
1777,0
1778,2
1779,0
1780,3
1781,9
1782,1
1783,3
1784,3
1785,0
1786,0
1787,1
1788,5
1789,5
1790,5
1791,10
1792,4
1793,1
1794,4
1795,0
1796,5
1797,5
1798,4
1799,8
1800,3
1801,9
1802,0
1803,1
1804,0
1805,2
1806,8
1807,0
1808,3
1809,1
1810,7
1811,9
1812,4
1813,1
1814,2
1815,8
1816,1
1817,1
1818,6
1819,0
1820,2
1821,6
1822,3
1823,0
1824,1
1825,7
1826,6
1827,7
1828,4
1829,4
1830,0
1831,5
1832,1
1833,0
1834,2
1835,2
1836,5
1837,5
1838,0
1839,7
1840,1
1841,3
1842,2
1843,0
1844,4
1845,3
1846,2
1847,5
1848,1
1849,2
1850,1
1851,7
1852,6
1853,7
1854,1
1855,3
1856,6
1857,6
1858,1
1859,5
1860,0
1861,9
1862,1
1863,9
1864,4
1865,8
1866,2
1867,3
1868,7
1869,3
1870,0
1871,0
1872,6
1873,2
1874,3
1875,4
1876,1
1877,1
1878,9
1879,0
1880,8
1881,6
1882,9
1883,3
1884,1
1885,1
1886,3
1887,7
1888,0
1889,1
1890,3
1891,2
1892,1
1893,0
1894,8
1895,3
1896,2
1897,8
1898,5
1899,5
1900,8
1901,0
1902,4
1903,0
1904,5
1905,5
1906,0
1907,5
1908,0
1909,2
1910,8
1911,9
1912,0
1913,0
1914,7
1915,9
1916,2
1917,7
1918,7
1919,9
1920,4
1921,7
1922,0
1923,6
1924,4
1925,6
1926,3
1927,1
1928,2
1929,2
1930,1
1931,6
1932,2
1933,4
1934,9
1935,1
1936,1
1937,0
1938,0
1939,1
1940,3
1941,3
1942,7
1943,0
1944,10
1945,1
1946,0
1947,4
1948,5
1949,7
1950,8
1951,2
1952,3
1953,3
1954,2
1955,8
1956,2
1957,3
1958,2
1959,0
1960,0
1961,1
1962,1
1963,2
1964,0
1965,4
1966,6
1967,1
1968,0
1969,7
1970,8
1971,2
1972,2
1973,0
1974,0
1975,4
1976,3
1977,10
1978,5
1979,1
1980,1
1981,3
1982,1
1983,0
1984,5
1985,7
1986,2
1987,4
1988,1
1989,7
1990,3
1991,4
1992,5
1993,3
1994,1
1995,5
1996,0
1997,1
1998,3
1999,0
2000,3
2001,1
2002,9
2003,3
2004,4
2005,0
2006,7
2007,1
2008,0
2009,8
2010,8
2011,6
2012,1
2013,4
2014,4
2015,4
2016,1
2017,1
2018,8
2019,6
2020,0
2021,3
2022,3
2023,0
2024,1
2025,0
2026,0
2027,9
2028,6
2029,0
2030,1
2031,7
2032,6
2033,5
2034,3
2035,0
2036,10
2037,2
2038,8
2039,0
2040,3
2041,4
2042,8
2043,6
2044,7
2045,2
2046,3
2047,4
2048,0
2049,4
2050,5
2051,3
2052,3
2053,5
2054,3
2055,6
2056,1
2057,1
2058,0
2059,0
2060,2
2061,6
2062,0
2063,1
2064,0
2065,2
2066,5
2067,5
2068,2
2069,2
2070,7
2071,4
2072,5
2073,5
2074,8
2075,0
2076,9
2077,8
2078,5
2079,1
2080,3
2081,1
2082,5
2083,4
2084,10
2085,5
2086,2
2087,4
2088,10
2089,1
2090,5
2091,5
2092,3
2093,0
2094,6
2095,8
2096,8
2097,6
2098,9
2099,9
2100,5
2101,4
2102,4
2103,1
2104,3
2105,7
2106,1
2107,5
2108,0
2109,2
2110,5
2111,0
2112,9
2113,0
2114,9
2115,8
2116,8
2117,0
2118,2
2119,9
2120,2
2121,9
2122,5
2123,1
2124,9
2125,3
2126,1
2127,5
2128,2
2129,7
2130,4
2131,7
2132,4
2133,1
2134,1
2135,2
2136,3
2137,7
2138,1
2139,0
2140,4
2141,3
2142,8
2143,6
2144,1
2145,0
2146,4
2147,8
2148,6
2149,6
2150,1
2151,3
2152,0
2153,3
2154,7
2155,3
2156,8
2157,4
2158,9
2159,5
2160,1
2161,0
2162,2
2163,0
2164,4
2165,5
2166,8
2167,2
2168,8
2169,2
2170,8
2171,0
2172,2
2173,3
2174,9
2175,3
2176,2
2177,1
2178,2
2179,5
2180,3
2181,4
2182,7
2183,5
2184,4
2185,2
2186,10
2187,6
2188,8
2189,5
2190,0
2191,1
2192,1
2193,9
2194,0
2195,7
2196,2
2197,1
2198,4
2199,7
2200,4
2201,2
2202,2
2203,4
2204,7
2205,3
2206,0
2207,8
2208,0
2209,3
2210,9
2211,5
2212,3
2213,6
2214,4
2215,7
2216,5
2217,10
2218,0
2219,11
2220,2
2221,5
2222,2
2223,5
2224,0
2225,5
2226,5
2227,6
2228,9
2229,5
2230,6
2231,9
2232,3
2233,2
2234,6
2235,6
2236,1
2237,1
2238,1
2239,2
2240,2
2241,0
2242,3
2243,8
2244,3
2245,1
2246,4
2247,3
2248,0
2249,4
2250,6
2251,8
2252,0
2253,8
2254,5
2255,2
2256,6
2257,3
2258,6
2259,1
2260,4
2261,9
2262,2
2263,3
2264,8
2265,4
2266,0
2267,0
2268,9
2269,5
2270,1
2271,1
2272,3
2273,5
2274,8
2275,0
2276,3
2277,2
2278,3
2279,5
2280,10
2281,10
2282,8
2283,6
2284,4
2285,2
2286,3
2287,3
2288,2
2289,1
2290,2
2291,10
2292,6
2293,8
2294,7
2295,3
2296,0
2297,4
2298,0
2299,5
2300,8
2301,3
2302,7
2303,9
2304,8
2305,1
2306,9
2307,4
2308,1
2309,6
2310,3
2311,1
2312,5
2313,9
2314,8
2315,1
2316,2
2317,1
2318,4
2319,0
2320,4
2321,1
2322,9
2323,5
2324,0
2325,1
2326,3
2327,2
2328,4
2329,2
2330,1
2331,1
2332,2
2333,2
2334,4
2335,2
2336,1
2337,0
2338,6
2339,4
2340,9
2341,0
2342,9
2343,3
2344,6
2345,2
2346,9
2347,1
2348,6
2349,8
2350,6
2351,2
2352,1
2353,6
2354,0
2355,4
2356,3
2357,5
2358,3
2359,4
2360,2
2361,0
2362,0
2363,7
2364,3
2365,7
2366,6
2367,9
2368,2
2369,8
2370,8
2371,0
2372,0
2373,4
2374,0
2375,3
2376,7
2377,7
2378,0
2379,1
2380,3
2381,2
2382,7
2383,3
2384,3
2385,1
2386,5
2387,2
2388,2
2389,7
2390,1
2391,5
2392,6
2393,8
2394,7
2395,7
2396,6
2397,7
2398,0
2399,8
2400,1
2401,2
2402,4
2403,2
2404,5
2405,1
2406,0
2407,3
2408,6
2409,10
2410,1
2411,2
2412,4
2413,0
2414,2
2415,6
2416,3
2417,8
2418,8
2419,2
2420,5
2421,7
2422,4
2423,0
2424,0
2425,4
2426,1
2427,5
2428,3
2429,9
2430,7
2431,10
2432,7
2433,7
2434,0
2435,6
2436,3
2437,1
2438,1
2439,0
2440,6
2441,0
2442,1
2443,4
2444,3
2445,1
2446,8
2447,6
2448,1
2449,1
2450,2
2451,1
2452,1
2453,10
2454,9
2455,8
2456,0
2457,8
2458,9
2459,11
2460,3
2461,10
2462,4
2463,8
2464,8
2465,4
2466,3
2467,3
2468,0
2469,8
2470,0
2471,8
2472,0
2473,5
2474,0
2475,5
2476,6
2477,9
2478,3
2479,5
2480,7
2481,0
2482,0
2483,1
2484,8
2485,6
2486,7
2487,5
2488,3
2489,5
2490,6
2491,10
2492,8
2493,9
2494,2
2495,2
2496,7
2497,5
2498,6
2499,0
2500,3
2501,7
2502,5
2503,2
2504,5
2505,8
2506,5
2507,6
2508,4
2509,8
2510,4
2511,2
2512,2
2513,1
2514,1
2515,9
2516,0
2517,0
2518,5
2519,5
2520,8
2521,9
2522,9
2523,8
2524,1
2525,3
2526,8
2527,9
2528,7
2529,3
2530,2
2531,3
2532,0
2533,0
2534,5
2535,0
2536,5
2537,8
2538,2
2539,0
2540,2
2541,2
2542,2
2543,1
2544,2
2545,0
2546,7
2547,3
2548,7
2549,0
2550,2
2551,1
2552,0
2553,0
2554,8
2555,3
2556,0
2557,0
2558,5
2559,0
2560,3
2561,1
2562,0
2563,5
2564,0
2565,3
2566,3
2567,9
2568,2
2569,0
2570,1
2571,2
2572,2
2573,0
2574,4
2575,2
2576,5
2577,8
2578,3
2579,3
2580,4
2581,5
2582,3
2583,0
2584,4
2585,2
2586,9
2587,6
2588,6
2589,1
2590,2
2591,4
2592,0
2593,0
2594,7
2595,9
2596,6
2597,3
2598,1
2599,9
2600,3
2601,2
2602,4
2603,4
2604,0
2605,5
2606,5
2607,7
2608,5
2609,3
2610,5
2611,0
2612,7
2613,6
2614,6
2615,5
2616,9
2617,4
2618,6
2619,0
2620,6
2621,0
2622,5
2623,6
2624,2
2625,4
2626,2
2627,8
2628,1
2629,5
2630,5
2631,5
2632,4
2633,0
2634,3
2635,1
2636,3
2637,4
2638,1
2639,1
2640,2
2641,3
2642,4
2643,3
2644,3
2645,7
2646,1
2647,3
2648,9
2649,0
2650,1
2651,4
2652,6
2653,0
2654,3
2655,0
2656,3
2657,4
2658,1
2659,2
2660,5
2661,0
2662,5
2663,1
2664,1
2665,3
2666,2
2667,6
2668,2
2669,2
2670,2
2671,2
2672,5
2673,3
2674,0
2675,6
2676,3
2677,5
2678,1
2679,2
2680,9
2681,3
2682,7
2683,0
2684,3
2685,2
2686,0
2687,0
2688,4
2689,2
2690,2
2691,1
2692,0
2693,2
2694,6
2695,8
2696,2
2697,0
2698,3
2699,4
2700,4
2701,5
2702,8
2703,1
2704,9
2705,0
2706,3
2707,9
2708,7
2709,0
2710,5
2711,8
2712,2
2713,4
2714,0
2715,2
2716,3
2717,3
2718,5
2719,4
2720,3
2721,0
2722,7
2723,4
2724,8
2725,1
2726,2
2727,0
2728,2
2729,5
2730,9
2731,1
2732,9
2733,10
2734,6
2735,4
2736,5
2737,4
2738,8
2739,2
2740,3
2741,0
2742,4
2743,7
2744,2
2745,0
2746,6
2747,1
2748,5
2749,3
2750,6
2751,1
2752,5
2753,3
2754,8
2755,6
2756,1
2757,0
2758,2
2759,3
2760,0
2761,4
2762,4
2763,2
2764,4
2765,10
2766,10
2767,3
2768,2
2769,3
2770,5
2771,9
2772,7
2773,0
2774,0
2775,3
2776,8
2777,2
2778,2
2779,8
2780,7
2781,3
2782,0
2783,3
2784,5
2785,8
2786,5
2787,0
2788,3
2789,2
2790,5
2791,2
2792,4
2793,1
2794,4
2795,2
2796,9
2797,3
2798,1
2799,2
2800,0
2801,10
2802,0
2803,10
2804,4
2805,7
2806,3
2807,6
2808,9
2809,0
2810,2
2811,10
2812,5
2813,4
2814,4
2815,2
2816,1
2817,7
2818,4
2819,2
2820,0
2821,1
2822,0
2823,5
2824,7
2825,1
2826,1
2827,4
2828,0
2829,2
2830,4
2831,5
2832,1
2833,7
2834,9
2835,0
2836,3
2837,5
2838,0
2839,0
2840,1
2841,1
2842,10
2843,9
2844,6
2845,1
2846,0
2847,1
2848,2
2849,6
2850,1
2851,2
2852,1
2853,6
2854,5
2855,3
2856,7
2857,7
2858,4
2859,1
2860,4
2861,6
2862,7
2863,0
2864,1
2865,0
2866,6
2867,0
2868,3
2869,7
2870,0
2871,6
2872,0
2873,6
2874,3
2875,0
2876,3
2877,5
2878,3
2879,6
2880,3
2881,8
2882,8
2883,8
2884,4
2885,9
2886,2
2887,5
2888,4
2889,4
2890,0
2891,2
2892,8
2893,2
2894,0
2895,0
2896,1
2897,2
2898,1
2899,5
2900,2
2901,1
2902,1
2903,2
2904,2
2905,2
2906,1
2907,1
2908,5
2909,4
2910,4
2911,10
2912,0
2913,1
2914,0
2915,9
2916,10
2917,1
2918,3
2919,2
2920,3
2921,4
2922,1
2923,0
2924,3
2925,2
2926,9
2927,4
2928,0
2929,8
2930,5
2931,6
2932,0
2933,2
2934,0
2935,7
2936,1
2937,0
2938,4
2939,4
2940,5
2941,0
2942,8
2943,4
2944,9
2945,3
2946,2
2947,3
2948,3
2949,1
2950,3
2951,3
2952,6
2953,7
2954,1
2955,0
2956,5
2957,4
2958,2
2959,0
2960,0
2961,4
2962,1
2963,2
2964,1
2965,0
2966,1
2967,8
2968,1
2969,1
2970,2
2971,9
2972,5
2973,1
2974,2
2975,7
2976,4
2977,1
2978,3
2979,10
2980,2
2981,3
2982,2
2983,0
2984,6
2985,8
2986,5
2987,4
2988,1
2989,0
2990,0
2991,1
2992,3
2993,4
2994,0
2995,4
2996,4
2997,0
2998,1
2999,0
3000,8
3001,1
3002,3
3003,4
3004,7
3005,2
3006,3
3007,0
3008,1
3009,0
3010,3
3011,2
3012,8
3013,9
3014,2
3015,6
3016,5
3017,5
3018,4
3019,4
3020,8
3021,8
3022,9
3023,10
3024,0
3025,7
3026,5
3027,5
3028,10
3029,2
3030,3
3031,1
3032,3
3033,2
3034,0
3035,2
3036,1
3037,1
3038,1
3039,9
3040,0
3041,1
3042,2
3043,8
3044,10
3045,8
3046,6
3047,2
3048,2
3049,6
3050,7
3051,4
3052,0
3053,2
3054,1
3055,2
3056,9
3057,5
3058,3
3059,0
3060,5
3061,3
3062,5
3063,2
3064,9
3065,10
3066,6
3067,4
3068,2
3069,2
3070,7
3071,0
3072,6
3073,6
3074,1
3075,4
3076,1
3077,2
3078,2
3079,3
3080,3
3081,1
3082,1
3083,9
3084,2
3085,4
3086,6
3087,3
3088,2
3089,0
3090,0
3091,6
3092,2
3093,5
3094,4
3095,0
3096,4
3097,4
3098,6
3099,2
3100,0
3101,1
3102,1
3103,9
3104,4
3105,4
3106,0
3107,0
3108,2
3109,6
3110,8
3111,4
3112,8
3113,9
3114,3
3115,1
3116,8
3117,6
3118,1
3119,10
3120,2
3121,4
3122,11
3123,4
3124,4
3125,8
3126,5
3127,4
3128,2
3129,0
3130,7
3131,5
3132,0
3133,9
3134,3
3135,8
3136,3
3137,3
3138,4
3139,2
3140,1
3141,7
3142,6
3143,0
3144,3
3145,4
3146,3
3147,0
3148,0
3149,8
3150,0
3151,8
3152,1
3153,4
3154,2
3155,4
3156,8
3157,2
3158,4
3159,9
3160,3
3161,2
3162,1
3163,5
3164,1
3165,9
3166,3
3167,2
3168,1
3169,9
3170,3
3171,4
3172,2
3173,9
3174,5
3175,9
3176,10
3177,0
3178,7
3179,8
3180,6
3181,4
3182,4
3183,7
3184,6
3185,0
3186,9
3187,6
3188,3
3189,4
3190,2
3191,2
3192,6
3193,4
3194,1
3195,9
3196,1
3197,4
3198,3
3199,5
3200,6
3201,8
3202,4
3203,1
3204,5
3205,2
3206,3
3207,0
3208,6
3209,2
3210,11
3211,4
3212,0
3213,1
3214,3
3215,0
3216,0
3217,2
3218,4
3219,0
3220,5
3221,5
3222,1
3223,9
3224,3
3225,0
3226,2
3227,9
3228,2
3229,6
3230,6
3231,1
3232,0
3233,0
3234,1
3235,6
3236,3
3237,8
3238,0
3239,3
3240,1
3241,3
3242,10
3243,5
3244,7
3245,0
3246,0
3247,7
3248,0
3249,6
3250,8
3251,0
3252,3
3253,5
3254,1
3255,2
3256,8
3257,6
3258,4
3259,8
3260,0
3261,5
3262,1
3263,1
3264,8
3265,1
3266,1
3267,7
3268,0
3269,7
3270,0
3271,1
3272,7
3273,1
3274,9
3275,4
3276,6
3277,3
3278,3
3279,6
3280,3
3281,4
3282,6
3283,2
3284,3
3285,6
3286,3
3287,6
3288,2
3289,2
3290,0
3291,0
3292,3
3293,2
3294,3
3295,8
3296,5
3297,1
3298,3
3299,0
3300,0
3301,3
3302,1
3303,1
3304,3
3305,3
3306,5
3307,3
3308,5
3309,2
3310,9
3311,7
3312,1
3313,3
3314,2
3315,3
3316,0
3317,0
3318,0
3319,2
3320,0
3321,3
3322,10
3323,1
3324,0
3325,8
3326,8
3327,1
3328,4
3329,5
3330,3
3331,9
3332,6
3333,2
3334,2
3335,2
3336,9
3337,1
3338,6
3339,6
3340,7
3341,8
3342,1
3343,3
3344,6
3345,8
3346,2
3347,1
3348,3
3349,8
3350,4
3351,1
3352,0
3353,7
3354,3
3355,4
3356,6
3357,3
3358,8
3359,1
3360,8
3361,9
3362,5
3363,0
3364,3
3365,6
3366,7
3367,8
3368,3
3369,5
3370,0
3371,9
3372,2
3373,6
3374,7
3375,0
3376,1
3377,5
3378,0
3379,9
3380,3
3381,5
3382,2
3383,2
3384,8
3385,9
3386,4
3387,0
3388,3
3389,0
3390,6
3391,1
3392,4
3393,1
3394,1
3395,0
3396,2
3397,6
3398,8
3399,7
3400,4
3401,6
3402,2
3403,0
3404,9
3405,0
3406,1
3407,0
3408,3
3409,3
3410,4
3411,9
3412,9
3413,1
3414,1
3415,5
3416,6
3417,5
3418,7
3419,7
3420,0
3421,2
3422,0
3423,4
3424,3
3425,5
3426,10
3427,4
3428,2
3429,0
3430,2
3431,5
3432,0
3433,1
3434,10
3435,0
3436,0
3437,7
3438,1
3439,2
3440,0
3441,1
3442,1
3443,3
3444,1
3445,9
3446,1
3447,3
3448,11
3449,5
3450,1
3451,2
3452,4
3453,0
3454,1
3455,4
3456,4
3457,8
3458,5
3459,6
3460,9
3461,9
3462,7
3463,4
3464,0
3465,3
3466,8
3467,3
3468,3
3469,3
3470,9
3471,1
3472,5
3473,2
3474,8
3475,4
3476,9
3477,8
3478,8
3479,6
3480,3
3481,4
3482,7
3483,9
3484,1
3485,2
3486,0
3487,1
3488,2
3489,4
3490,2
3491,6
3492,0
3493,5
3494,8
3495,3
3496,3
3497,3
3498,1
3499,5
3500,3
3501,0
3502,2
3503,5
3504,7
3505,6
3506,6
3507,3
3508,1
3509,4
3510,0
3511,6
3512,4
3513,1
3514,5
3515,5
3516,5
3517,4
3518,0
3519,4
3520,3
3521,4
3522,4
3523,3
3524,7
3525,0
3526,5
3527,8
3528,3
3529,6
3530,8
3531,2
3532,2
3533,3
3534,8
3535,5
3536,2
3537,5
3538,9
3539,3
3540,9
3541,1
3542,8
3543,10
3544,7
3545,2
3546,0
3547,4
3548,3
3549,7
3550,2
3551,4
3552,5
3553,1
3554,1
3555,1
3556,8
3557,8
3558,9
3559,4
3560,6
3561,5
3562,1
3563,0
3564,11
3565,2
3566,2
3567,5
3568,2
3569,0
3570,2
3571,5
3572,1
3573,0
3574,0
3575,2
3576,2
3577,10
3578,0
3579,7
3580,1
3581,9
3582,7
3583,9
3584,3
3585,5
3586,0
3587,1
3588,5
3589,6
3590,2
3591,0
3592,7
3593,0
3594,4
3595,3
3596,6
3597,4
3598,3
3599,3
3600,5
3601,1
3602,5
3603,6
3604,0
3605,2
3606,3
3607,1
3608,7
3609,2
3610,6
3611,10
3612,5
3613,2
3614,5
3615,2
3616,6
3617,0
3618,1
3619,0
3620,0
3621,1
3622,8
3623,9
3624,7
3625,2
3626,4
3627,1
3628,4
3629,10
3630,7
3631,2
3632,0
3633,9
3634,7
3635,7
3636,4
3637,0
3638,8
3639,0
3640,9
3641,7
3642,0
3643,9
3644,0
3645,0
3646,1
3647,3
3648,3
3649,3
3650,1
3651,3
3652,2
3653,6
3654,1
3655,6
3656,8
3657,0
3658,3
3659,6
3660,1
3661,1
3662,0
3663,7
3664,1
3665,6
3666,0
3667,7
3668,0
3669,1
3670,2
3671,4
3672,2
3673,4
3674,3
3675,3
3676,0
3677,10
3678,9
3679,6
3680,7
3681,6
3682,2
3683,9
3684,3
3685,0
3686,4
3687,3
3688,7
3689,5
3690,1
3691,10
3692,2
3693,1
3694,2
3695,2
3696,5
3697,3
3698,0
3699,3
3700,7
3701,2
3702,2
3703,7
3704,3
3705,1
3706,0
3707,0
3708,0
3709,2
3710,0
3711,5
3712,5
3713,4
3714,1
3715,0
3716,5
3717,1
3718,3
3719,0
3720,1
3721,0
3722,9
3723,2
3724,4
3725,5
3726,1
3727,5
3728,7
3729,7
3730,5
3731,3
3732,7
3733,8
3734,8
3735,5
3736,6
3737,8
3738,4
3739,6
3740,9
3741,7
3742,2
3743,9
3744,1
3745,3
3746,1
3747,2
3748,6
3749,0
3750,0
3751,3
3752,4
3753,1
3754,10
3755,0
3756,8
3757,2
3758,8
3759,3
3760,1
3761,1
3762,9
3763,2
3764,6
3765,7
3766,9
3767,1
3768,0
3769,3
3770,0
3771,9
3772,0
3773,5
3774,5
3775,9
3776,0
3777,0
3778,1
3779,10
3780,0
3781,4
3782,1
3783,0
3784,10
3785,3
3786,3
3787,2
3788,9
3789,0
3790,11
3791,2
3792,5
3793,6
3794,2
3795,9
3796,5
3797,4
3798,0
3799,1
3800,0
3801,0
3802,1
3803,6
3804,8
3805,1
3806,1
3807,6
3808,5
3809,2
3810,3
3811,9
3812,3
3813,3
3814,0
3815,2
3816,4
3817,0
3818,0
3819,6
3820,5
3821,1
3822,3
3823,3
3824,1
3825,7
3826,8
3827,10
3828,6
3829,1
3830,4
3831,1
3832,0
3833,6
3834,2
3835,4
3836,3
3837,0
3838,3
3839,1
3840,4
3841,9
3842,5
3843,1
3844,1
3845,6
3846,9
3847,2
3848,5
3849,2
3850,4
3851,5
3852,0
3853,6
3854,3
3855,0
3856,10
3857,3
3858,1
3859,7
3860,10
3861,1
3862,1
3863,0
3864,7
3865,10
3866,1
3867,8
3868,0
3869,3
3870,3
3871,10
3872,0
3873,1
3874,2
3875,5
3876,0
3877,9
3878,10
3879,2
3880,8
3881,9
3882,10
3883,2
3884,0
3885,5
3886,8
3887,1
3888,2
3889,8
3890,5
3891,1
3892,3
3893,1
3894,2
3895,1
3896,8
3897,3
3898,3
3899,1
3900,0
3901,6
3902,2
3903,2
3904,7
3905,9
3906,0
3907,6
3908,2
3909,5
3910,2
3911,8
3912,5
3913,5
3914,2
3915,6
3916,5
3917,1
3918,2
3919,2
3920,1
3921,1
3922,2
3923,1
3924,7
3925,4
3926,7
3927,10
3928,9
3929,4
3930,2
3931,1
3932,3
3933,1
3934,8
3935,9
3936,4
3937,2
3938,5
3939,5
3940,0
3941,1
3942,5
3943,3
3944,0
3945,7
3946,5
3947,2
3948,4
3949,2
3950,10
3951,4
3952,3
3953,0
3954,2
3955,0
3956,2
3957,1
3958,9
3959,3
3960,1
3961,11
3962,2
3963,6
3964,3
3965,4
3966,2
3967,2
3968,2
3969,9
3970,2
3971,1
3972,1
3973,5
3974,2
3975,2
3976,6
3977,3
3978,2
3979,1
3980,4
3981,2
3982,2
3983,4
3984,2
3985,6
3986,1
3987,5
3988,10
3989,6
3990,7
3991,9
3992,3
3993,1
3994,8
3995,0
3996,4
3997,7
3998,3
3999,1
4000,2
4001,3
4002,3
4003,6
4004,2
4005,3
4006,9
4007,3
4008,8
4009,7
4010,8
4011,0
4012,3
4013,0
4014,9
4015,8
4016,7
4017,0
4018,6
4019,4
4020,0
4021,0
4022,1
4023,3
4024,2
4025,4
4026,0
4027,8
4028,3
4029,9
4030,3
4031,0
4032,2
4033,1
4034,8
4035,2
4036,3
4037,9
4038,5
4039,8
4040,6
4041,7
4042,0
4043,0
4044,8
4045,0
4046,0
4047,1
4048,2
4049,2
4050,4
4051,4
4052,7
4053,6
4054,3
4055,1
4056,7
4057,9
4058,1
4059,1
4060,2
4061,9
4062,2
4063,9
4064,0
4065,2
4066,4
4067,0
4068,5
4069,0
4070,4
4071,1
4072,3
4073,4
4074,6
4075,8
4076,0
4077,5
4078,2
4079,4
4080,0
4081,4
4082,9
4083,4
4084,5
4085,6
4086,8
4087,8
4088,2
4089,0
4090,2
4091,6
4092,8
4093,4
4094,6
4095,6
