,leiden_1.0
0,0
1,4
2,0
3,1
4,1
5,4
6,6
7,1
8,4
9,5
10,6
11,3
12,1
13,3
14,0
15,3
16,4
17,3
18,3
19,3
20,3
21,4
22,1
23,1
24,2
25,4
26,5
27,0
28,1
29,3
30,1
31,4
32,0
33,1
34,4
35,1
36,1
37,3
38,1
39,3
40,0
41,2
42,0
43,3
44,4
45,1
46,4
47,5
48,2
49,3
50,3
51,0
52,2
53,1
54,0
55,2
56,0
57,0
58,0
59,1
60,1
61,3
62,2
63,0
64,0
65,4
66,3
67,1
68,2
69,0
70,5
71,0
72,2
73,0
74,6
75,1
76,1
77,1
78,0
79,4
80,0
81,0
82,0
83,7
84,0
85,0
86,0
87,3
88,0
89,0
90,0
91,3
92,1
93,4
94,4
95,7
96,1
97,0
98,5
99,1
100,4
101,0
102,4
103,4
104,2
105,6
106,1
107,2
108,3
109,1
110,5
111,4
112,4
113,4
114,4
115,3
116,4
117,2
118,1
119,0
120,6
121,2
122,6
123,1
124,4
125,0
126,4
127,1
128,7
129,2
130,0
131,4
132,1
133,4
134,2
135,0
136,0
137,0
138,0
139,2
140,0
141,1
142,4
143,0
144,0
145,2
146,2
147,1
148,4
149,6
150,3
151,0
152,3
153,0
154,2
155,2
156,3
157,0
158,4
159,2
160,0
161,1
162,0
163,5
164,1
165,1
166,2
167,0
168,1
169,0
170,4
171,2
172,2
173,2
174,5
175,3
176,3
177,6
178,2
179,4
180,3
181,4
182,0
183,3
184,1
185,1
186,2
187,2
188,2
189,0
190,4
191,4
192,3
193,1
194,4
195,1
196,2
197,1
198,1
199,1
200,2
201,3
202,0
203,2
204,4
205,0
206,3
207,5
208,4
209,0
210,0
211,3
212,2
213,0
214,2
215,2
216,1
217,6
218,2
219,0
220,5
221,0
222,3
223,9
224,2
225,7
226,1
227,1
228,4
229,6
230,3
231,0
232,2
233,4
234,0
235,1
236,1
237,2
238,4
239,3
240,4
241,0
242,1
243,4
244,0
245,3
246,3
247,4
248,4
249,1
250,2
251,1
252,4
253,2
254,6
255,3
256,4
257,0
258,4
259,0
260,0
261,0
262,4
263,2
264,5
265,0
266,0
267,1
268,3
269,1
270,1
271,0
272,5
273,4
274,4
275,1
276,2
277,3
278,5
279,0
280,1
281,0
282,5
283,3
284,5
285,3
286,2
287,0
288,1
289,4
290,3
291,2
292,1
293,6
294,0
295,3
296,1
297,0
298,6
299,0
300,2
301,0
302,2
303,5
304,2
305,0
306,0
307,3
308,1
309,2
310,4
311,3
312,2
313,1
314,2
315,3
316,3
317,4
318,3
319,4
320,4
321,4
322,1
323,1
324,0
325,0
326,3
327,3
328,4
329,4
330,2
331,0
332,6
333,1
334,2
335,2
336,1
337,4
338,2
339,6
340,2
341,2
342,0
343,6
344,0
345,0
346,0
347,4
348,6
349,3
350,4
351,0
352,0
353,3
354,1
355,1
356,4
357,0
358,1
359,6
360,4
361,1
362,1
363,3
364,4
365,3
366,2
367,6
368,0
369,0
370,3
371,1
372,2
373,5
374,0
375,4
376,6
377,1
378,4
379,2
380,4
381,2
382,3
383,0
384,0
385,2
386,3
387,0
388,3
389,2
390,0
391,0
392,1
393,6
394,3
395,1
396,3
397,0
398,1
399,1
400,1
401,4
402,2
403,0
404,0
405,2
406,2
407,3
408,2
409,2
410,3
411,2
412,0
413,1
414,1
415,2
416,0
417,1
418,0
419,2
420,1
421,1
422,2
423,4
424,4
425,1
426,4
427,4
428,1
429,3
430,3
431,0
432,0
433,0
434,4
435,4
436,0
437,0
438,6
439,3
440,0
441,1
442,1
443,4
444,1
445,0
446,4
447,3
448,1
449,3
450,2
451,3
452,2
453,3
454,0
455,2
456,4
457,3
458,1
459,2
460,6
461,0
462,3
463,6
464,6
465,0
466,1
467,2
468,0
469,1
470,1
471,3
472,2
473,3
474,3
475,4
476,4
477,3
478,5
479,0
480,1
481,4
482,0
483,5
484,1
485,1
486,3
487,1
488,2
489,3
490,2
491,3
492,3
493,3
494,4
495,3
496,4
497,3
498,1
499,1
500,3
501,3
502,0
503,1
504,4
505,3
506,2
507,1
508,4
509,2
510,0
511,0
512,6
513,2
514,5
515,1
516,4
517,3
518,0
519,2
520,0
521,0
522,0
523,3
524,0
525,3
526,6
527,6
528,0
529,4
530,4
531,1
532,2
533,0
534,1
535,4
536,0
537,1
538,5
539,6
540,1
541,1
542,8
543,0
544,7
545,4
546,4
547,1
548,2
549,1
550,0
551,1
552,4
553,3
554,4
555,8
556,2
557,0
558,4
559,2
560,0
561,0
562,0
563,0
564,5
565,5
566,2
567,3
568,5
569,1
570,1
571,0
572,3
573,6
574,4
575,0
576,3
577,2
578,1
579,3
580,1
581,2
582,0
583,6
584,2
585,1
586,3
587,1
588,5
589,4
590,3
591,2
592,3
593,0
594,7
595,1
596,2
597,0
598,6
599,2
600,0
601,1
602,2
603,1
604,3
605,0
606,1
607,4
608,3
609,6
610,3
611,5
612,0
613,0
614,3
615,4
616,1
617,3
618,0
619,1
620,0
621,0
622,1
623,2
624,0
625,4
626,0
627,0
628,1
629,5
630,5
631,0
632,0
633,4
634,0
635,3
636,5
637,3
638,0
639,1
640,2
641,2
642,0
643,0
644,4
645,1
646,2
647,2
648,6
649,5
650,3
651,1
652,0
653,3
654,5
655,1
656,1
657,3
658,0
659,4
660,3
661,0
662,6
663,4
664,6
665,1
666,2
667,3
668,0
669,4
670,1
671,6
672,0
673,2
674,4
675,4
676,1
677,0
678,4
679,1
680,6
681,4
682,0
683,1
684,4
685,1
686,0
687,6
688,4
689,2
690,2
691,4
692,5
693,3
694,1
695,0
696,2
697,4
698,3
699,1
700,1
701,1
702,2
703,0
704,0
705,4
706,5
707,3
708,6
709,0
710,4
711,0
712,1
713,5
714,3
715,0
716,5
717,3
718,1
719,2
720,0
721,1
722,6
723,3
724,1
725,1
726,4
727,3
728,2
729,4
730,1
731,4
732,1
733,0
734,3
735,3
736,4
737,6
738,2
739,6
740,1
741,1
742,2
743,2
744,1
745,1
746,1
747,5
748,0
749,1
750,3
751,3
752,0
753,3
754,2
755,6
756,3
757,4
758,3
759,4
760,1
761,3
762,1
763,2
764,2
765,5
766,3
767,6
768,2
769,1
770,5
771,5
772,3
773,2
774,2
775,5
776,2
777,0
778,4
779,0
780,4
781,0
782,1
783,0
784,1
785,3
786,3
787,3
788,5
789,6
790,1
791,3
792,5
793,0
794,5
795,1
796,3
797,5
798,8
799,2
800,2
801,9
802,4
803,2
804,9
805,3
806,1
807,0
808,3
809,1
810,0
811,2
812,1
813,0
814,5
815,0
816,4
817,0
818,3
819,2
820,0
821,6
822,1
823,5
824,2
825,3
826,6
827,0
828,3
829,4
830,0
831,1
832,4
833,3
834,0
835,2
836,1
837,5
838,6
839,0
840,1
841,0
842,1
843,5
844,1
845,3
846,4
847,1
848,1
849,1
850,7
851,3
852,2
853,1
854,0
855,1
856,3
857,2
858,4
859,4
860,5
861,0
862,5
863,4
864,2
865,4
866,1
867,1
868,4
869,4
870,2
871,1
872,3
873,3
874,4
875,4
876,5
877,1
878,2
879,1
880,3
881,2
882,0
883,6
884,6
885,3
886,0
887,2
888,0
889,6
890,3
891,3
892,4
893,4
894,0
895,4
896,6
897,2
898,4
899,5
900,6
901,0
902,4
903,1
904,0
905,5
906,4
907,4
908,1
909,4
910,0
911,2
912,4
913,6
914,3
915,6
916,6
917,4
918,1
919,4
920,4
921,2
922,1
923,1
924,3
925,4
926,1
927,1
928,3
929,7
930,0
931,0
932,6
933,1
934,7
935,6
936,1
937,5
938,3
939,5
940,6
941,1
942,4
943,0
944,0
945,3
946,2
947,5
948,4
949,1
950,6
951,0
952,0
953,0
954,0
955,4
956,3
957,1
958,0
959,3
960,6
961,1
962,3
963,3
964,0
965,5
966,1
967,3
968,0
969,2
970,2
971,4
972,0
973,3
974,2
975,3
976,1
977,7
978,1
979,3
980,1
981,2
982,1
983,6
984,1
985,1
986,2
987,3
988,6
989,3
990,2
991,0
992,0
993,0
994,2
995,4
996,1
997,2
998,3
999,4
1000,6
1001,3
1002,3
1003,0
1004,1
1005,0
1006,1
1007,3
1008,0
1009,0
1010,3
1011,6
1012,5
1013,0
1014,0
1015,2
1016,0
1017,2
1018,6
1019,1
1020,6
1021,6
1022,0
1023,0
1024,1
1025,0
1026,0
1027,4
1028,2
1029,2
1030,3
1031,0
1032,1
1033,2
1034,1
1035,0
1036,1
1037,3
1038,4
1039,2
1040,5
1041,1
1042,0
1043,0
1044,0
1045,1
1046,5
1047,2
1048,1
1049,0
1050,6
1051,3
1052,0
1053,2
1054,1
1055,0
1056,2
1057,0
1058,0
1059,6
1060,2
1061,0
1062,0
1063,6
1064,4
1065,0
1066,3
1067,3
1068,3
1069,2
1070,5
1071,1
1072,0
1073,3
1074,3
1075,0
1076,3
1077,1
1078,3
1079,0
1080,2
1081,1
1082,0
1083,0
1084,2
1085,5
1086,1
1087,8
1088,2
1089,1
1090,0
1091,4
1092,3
1093,3
1094,5
1095,5
1096,2
1097,3
1098,0
1099,3
1100,1
1101,3
1102,1
1103,0
1104,2
1105,5
1106,1
1107,0
1108,6
1109,2
1110,6
1111,6
1112,4
1113,1
1114,4
1115,1
1116,6
1117,7
1118,3
1119,1
1120,2
1121,4
1122,5
1123,4
1124,2
1125,0
1126,3
1127,5
1128,2
1129,4
1130,3
1131,1
1132,5
1133,1
1134,4
1135,2
1136,2
1137,6
1138,5
1139,4
1140,5
1141,0
1142,0
1143,0
1144,0
1145,5
1146,4
1147,6
1148,2
1149,0
1150,2
1151,3
1152,4
1153,1
1154,0
1155,6
1156,4
1157,0
1158,2
1159,0
1160,1
1161,1
1162,3
1163,0
1164,3
1165,3
1166,0
1167,1
1168,2
1169,3
1170,5
1171,0
1172,0
1173,1
1174,7
1175,4
1176,1
1177,4
1178,3
1179,6
1180,3
1181,0
1182,3
1183,0
1184,3
1185,2
1186,3
1187,4
1188,3
1189,2
1190,1
1191,4
1192,0
1193,4
1194,0
1195,0
1196,2
1197,0
1198,3
1199,5
1200,1
1201,0
1202,3
1203,3
1204,5
1205,2
1206,1
1207,5
1208,7
1209,2
1210,5
1211,1
1212,4
1213,1
1214,5
1215,6
1216,2
1217,2
1218,4
1219,3
1220,0
1221,3
1222,6
1223,2
1224,1
1225,2
1226,6
1227,0
1228,3
1229,0
1230,0
1231,9
1232,0
1233,3
1234,4
1235,5
1236,3
1237,0
1238,0
1239,0
1240,3
1241,1
1242,2
1243,3
1244,0
1245,6
1246,2
1247,3
1248,1
1249,3
1250,1
1251,1
1252,6
1253,0
1254,1
1255,2
1256,1
1257,6
1258,1
1259,1
1260,3
1261,3
1262,4
1263,1
1264,4
1265,3
1266,2
1267,2
1268,0
1269,5
1270,6
1271,3
1272,0
1273,6
1274,1
1275,3
1276,2
1277,3
1278,6
1279,1
1280,1
1281,0
1282,1
1283,0
1284,6
1285,0
1286,3
1287,1
1288,0
1289,0
1290,0
1291,3
1292,1
1293,3
1294,4
1295,2
1296,1
1297,1
1298,3
1299,1
1300,6
1301,4
1302,1
1303,2
1304,3
1305,2
1306,5
1307,5
1308,1
1309,2
1310,3
1311,2
1312,0
1313,2
1314,3
1315,2
1316,0
1317,4
1318,3
1319,0
1320,1
1321,2
1322,0
1323,1
1324,4
1325,1
1326,2
1327,6
1328,1
1329,1
1330,2
1331,2
1332,0
1333,6
1334,3
1335,3
1336,0
1337,2
1338,0
1339,8
1340,1
1341,2
1342,4
1343,5
1344,0
1345,0
1346,0
1347,0
1348,0
1349,2
1350,6
1351,4
1352,0
1353,7
1354,2
1355,0
1356,5
1357,5
1358,1
1359,8
1360,0
1361,0
1362,6
1363,1
1364,6
1365,1
1366,2
1367,2
1368,2
1369,1
1370,3
1371,2
1372,4
1373,4
1374,4
1375,2
1376,5
1377,2
1378,2
1379,2
1380,4
1381,5
1382,3
1383,0
1384,9
1385,5
1386,0
1387,1
1388,0
1389,1
1390,4
1391,3
1392,3
1393,5
1394,2
1395,1
1396,1
1397,3
1398,4
1399,2
1400,2
1401,2
1402,1
1403,6
1404,6
1405,5
1406,6
1407,0
1408,2
1409,0
1410,5
1411,0
1412,3
1413,7
1414,1
1415,0
1416,6
1417,1
1418,1
1419,3
1420,6
1421,2
1422,5
1423,0
1424,3
1425,2
1426,1
1427,4
1428,4
1429,0
1430,2
1431,4
1432,0
1433,0
1434,4
1435,6
1436,3
1437,1
1438,0
1439,3
1440,1
1441,4
1442,5
1443,2
1444,3
1445,1
1446,5
1447,5
1448,3
1449,4
1450,1
1451,3
1452,1
1453,6
1454,0
1455,1
1456,4
1457,4
1458,5
1459,5
1460,2
1461,6
1462,0
1463,1
1464,1
1465,0
1466,0
1467,1
1468,1
1469,3
1470,4
1471,5
1472,4
1473,3
1474,0
1475,2
1476,5
1477,4
1478,0
1479,1
1480,3
1481,4
1482,4
1483,6
1484,2
1485,4
1486,3
1487,2
1488,1
1489,0
1490,1
1491,3
1492,0
1493,0
1494,2
1495,1
1496,0
1497,2
1498,2
1499,2
1500,4
1501,7
1502,5
1503,0
1504,1
1505,0
1506,1
1507,1
1508,4
1509,6
1510,7
1511,3
1512,7
1513,0
1514,0
1515,2
1516,5
1517,6
1518,2
1519,2
1520,4
1521,6
1522,2
1523,3
1524,3
1525,5
1526,4
1527,2
1528,1
1529,4
1530,0
1531,3
1532,0
1533,0
1534,4
1535,1
1536,6
1537,0
1538,1
1539,3
1540,8
1541,1
1542,1
1543,1
1544,0
1545,2
1546,2
1547,3
1548,6
1549,4
1550,0
1551,0
1552,5
1553,7
1554,1
1555,3
1556,0
1557,2
1558,1
1559,4
1560,3
1561,1
1562,3
1563,1
1564,2
1565,0
1566,0
1567,5
1568,0
1569,2
1570,1
1571,6
1572,1
1573,5
1574,1
1575,5
1576,1
1577,1
1578,1
1579,1
1580,5
1581,6
1582,0
1583,1
1584,6
1585,1
1586,4
1587,2
1588,5
1589,4
1590,5
1591,1
1592,0
1593,0
1594,3
1595,0
1596,0
1597,4
1598,4
1599,0
1600,4
1601,6
1602,6
1603,0
1604,2
1605,6
1606,4
1607,3
1608,1
1609,4
1610,4
1611,2
1612,7
1613,1
1614,1
1615,4
1616,0
1617,6
1618,1
1619,1
1620,3
1621,0
1622,2
1623,4
1624,5
1625,4
1626,6
1627,2
1628,0
1629,1
1630,4
1631,6
1632,4
1633,3
1634,2
1635,1
1636,3
1637,6
1638,6
1639,2
1640,6
1641,1
1642,3
1643,3
1644,3
1645,1
1646,4
1647,4
1648,1
1649,5
1650,4
1651,3
1652,5
1653,2
1654,2
1655,3
1656,3
1657,3
1658,3
1659,3
1660,2
1661,1
1662,0
1663,3
1664,3
1665,2
1666,4
1667,1
1668,0
1669,3
1670,0
1671,0
1672,2
1673,4
1674,4
1675,0
1676,2
1677,2
1678,0
1679,2
1680,6
1681,0
1682,5
1683,2
1684,4
1685,0
1686,5
1687,6
1688,4
1689,0
1690,3
1691,2
1692,5
1693,4
1694,2
1695,2
1696,1
1697,4
1698,1
1699,4
1700,0
1701,8
1702,1
1703,2
1704,4
1705,3
1706,0
1707,1
1708,5
1709,6
1710,3
1711,6
1712,4
1713,2
1714,2
1715,4
1716,4
1717,3
1718,1
1719,2
1720,3
1721,1
1722,4
1723,2
1724,3
1725,1
1726,0
1727,6
1728,4
1729,4
1730,5
1731,2
1732,0
1733,2
1734,3
1735,0
1736,2
1737,7
1738,0
1739,6
1740,4
1741,1
1742,4
1743,1
1744,6
1745,0
1746,1
1747,0
1748,4
1749,5
1750,2
1751,1
1752,3
1753,1
1754,6
1755,2
1756,3
1757,0
1758,0
1759,3
1760,5
1761,6
1762,6
1763,0
1764,1
1765,0
1766,1
1767,5
1768,6
1769,0
1770,0
1771,4
1772,1
1773,1
1774,3
1775,3
1776,1
1777,2
1778,0
1779,2
1780,2
1781,4
1782,3
1783,1
1784,1
1785,2
1786,2
1787,3
1788,4
1789,4
1790,4
1791,1
1792,0
1793,3
1794,5
1795,2
1796,4
1797,4
1798,0
1799,5
1800,2
1801,4
1802,2
1803,3
1804,2
1805,0
1806,5
1807,2
1808,1
1809,3
1810,8
1811,4
1812,5
1813,3
1814,0
1815,5
1816,3
1817,3
1818,6
1819,2
1820,0
1821,6
1822,2
1823,2
1824,3
1825,1
1826,6
1827,4
1828,0
1829,0
1830,2
1831,4
1832,3
1833,2
1834,0
1835,0
1836,4
1837,1
1838,2
1839,1
1840,3
1841,1
1842,0
1843,2
1844,0
1845,1
1846,0
1847,4
1848,3
1849,0
1850,3
1851,1
1852,6
1853,1
1854,3
1855,1
1856,6
1857,6
1858,3
1859,4
1860,2
1861,4
1862,3
1863,4
1864,3
1865,1
1866,0
1867,1
1868,1
1869,1
1870,2
1871,2
1872,6
1873,0
1874,1
1875,0
1876,3
1877,3
1878,4
1879,1
1880,5
1881,6
1882,4
1883,1
1884,3
1885,3
1886,1
1887,1
1888,2
1889,3
1890,1
1891,0
1892,3
1893,2
1894,5
1895,1
1896,0
1897,5
1898,4
1899,4
1900,5
1901,2
1902,0
1903,2
1904,4
1905,7
1906,3
1907,4
1908,2
1909,0
1910,5
1911,4
1912,4
1913,2
1914,1
1915,4
1916,0
1917,1
1918,1
1919,4
1920,0
1921,8
1922,2
1923,6
1924,0
1925,6
1926,1
1927,3
1928,0
1929,0
1930,3
1931,6
1932,0
1933,5
1934,4
1935,3
1936,3
1937,2
1938,2
1939,3
1940,1
1941,1
1942,8
1943,3
1944,1
1945,3
1946,2
1947,0
1948,4
1949,1
1950,5
1951,0
1952,1
1953,1
1954,0
1955,5
1956,0
1957,1
1958,0
1959,2
1960,2
1961,3
1962,3
1963,0
1964,2
1965,0
1966,6
1967,3
1968,1
1969,2
1970,5
1971,0
1972,0
1973,2
1974,2
1975,3
1976,1
1977,4
1978,4
1979,3
1980,3
1981,1
1982,3
1983,2
1984,4
1985,1
1986,0
1987,0
1988,3
1989,1
1990,2
1991,5
1992,4
1993,1
1994,3
1995,4
1996,2
1997,3
1998,1
1999,2
2000,1
2001,3
2002,4
2003,1
2004,0
2005,2
2006,1
2007,3
2008,2
2009,5
2010,5
2011,6
2012,3
2013,0
2014,0
2015,0
2016,3
2017,3
2018,5
2019,6
2020,2
2021,1
2022,1
2023,2
2024,3
2025,2
2026,2
2027,5
2028,6
2029,2
2030,3
2031,1
2032,6
2033,4
2034,1
2035,2
2036,1
2037,0
2038,5
2039,2
2040,1
2041,0
2042,5
2043,6
2044,1
2045,0
2046,2
2047,0
2048,2
2049,0
2050,4
2051,1
2052,1
2053,4
2054,2
2055,6
2056,3
2057,3
2058,2
2059,2
2060,0
2061,6
2062,2
2063,3
2064,2
2065,0
2066,4
2067,4
2068,0
2069,0
2070,8
2071,0
2072,4
2073,4
2074,5
2075,2
2076,4
2077,5
2078,4
2079,3
2080,1
2081,3
2082,4
2083,3
2084,1
2085,4
2086,0
2087,0
2088,1
2089,3
2090,4
2091,4
2092,1
2093,2
2094,6
2095,5
2096,1
2097,6
2098,4
2099,4
2100,4
2101,0
2102,0
2103,3
2104,1
2105,1
2106,3
2107,4
2108,2
2109,3
2110,7
2111,2
2112,4
2113,2
2114,4
2115,5
2116,4
2117,2
2118,0
2119,4
2120,0
2121,4
2122,4
2123,3
2124,4
2125,1
2126,3
2127,4
2128,1
2129,1
2130,0
2131,1
2132,0
2133,3
2134,3
2135,0
2136,1
2137,1
2138,3
2139,2
2140,0
2141,1
2142,5
2143,6
2144,3
2145,2
2146,0
2147,5
2148,6
2149,6
2150,3
2151,1
2152,2
2153,1
2154,1
2155,1
2156,5
2157,0
2158,4
2159,4
2160,3
2161,2
2162,0
2163,2
2164,5
2165,4
2166,5
2167,0
2168,5
2169,0
2170,5
2171,2
2172,0
2173,2
2174,4
2175,1
2176,0
2177,3
2178,0
2179,4
2180,1
2181,0
2182,1
2183,7
2184,0
2185,0
2186,1
2187,6
2188,5
2189,7
2190,2
2191,3
2192,3
2193,4
2194,2
2195,1
2196,0
2197,3
2198,0
2199,1
2200,0
2201,0
2202,0
2203,0
2204,1
2205,1
2206,2
2207,5
2208,2
2209,2
2210,4
2211,4
2212,1
2213,6
2214,0
2215,8
2216,4
2217,1
2218,2
2219,1
2220,0
2221,4
2222,0
2223,4
2224,2
2225,4
2226,4
2227,6
2228,4
2229,4
2230,6
2231,4
2232,1
2233,0
2234,6
2235,6
2236,3
2237,3
2238,3
2239,0
2240,0
2241,2
2242,1
2243,5
2244,1
2245,3
2246,0
2247,1
2248,2
2249,5
2250,6
2251,5
2252,2
2253,5
2254,4
2255,0
2256,6
2257,1
2258,6
2259,3
2260,0
2261,4
2262,0
2263,2
2264,5
2265,0
2266,2
2267,2
2268,4
2269,4
2270,3
2271,3
2272,1
2273,4
2274,5
2275,2
2276,1
2277,0
2278,1
2279,4
2280,4
2281,1
2282,5
2283,6
2284,0
2285,0
2286,2
2287,1
2288,0
2289,3
2290,3
2291,1
2292,6
2293,5
2294,1
2295,1
2296,2
2297,0
2298,2
2299,4
2300,5
2301,2
2302,1
2303,4
2304,5
2305,3
2306,4
2307,0
2308,3
2309,6
2310,1
2311,3
2312,4
2313,4
2314,5
2315,3
2316,0
2317,3
2318,0
2319,2
2320,0
2321,3
2322,4
2323,4
2324,2
2325,3
2326,1
2327,0
2328,0
2329,0
2330,3
2331,3
2332,0
2333,0
2334,0
2335,0
2336,3
2337,2
2338,6
2339,0
2340,4
2341,2
2342,4
2343,1
2344,6
2345,0
2346,4
2347,3
2348,6
2349,5
2350,6
2351,0
2352,3
2353,6
2354,2
2355,5
2356,1
2357,9
2358,1
2359,0
2360,0
2361,2
2362,2
2363,1
2364,1
2365,1
2366,6
2367,4
2368,0
2369,5
2370,5
2371,2
2372,2
2373,0
2374,2
2375,1
2376,1
2377,1
2378,2
2379,3
2380,1
2381,0
2382,1
2383,1
2384,1
2385,3
2386,4
2387,0
2388,0
2389,1
2390,3
2391,4
2392,6
2393,5
2394,1
2395,1
2396,6
2397,1
2398,2
2399,5
2400,3
2401,0
2402,0
2403,0
2404,4
2405,3
2406,2
2407,1
2408,6
2409,1
2410,3
2411,0
2412,5
2413,2
2414,0
2415,6
2416,1
2417,5
2418,5
2419,0
2420,2
2421,1
2422,0
2423,2
2424,2
2425,0
2426,3
2427,4
2428,1
2429,4
2430,1
2431,1
2432,1
2433,1
2434,2
2435,6
2436,1
2437,3
2438,3
2439,2
2440,6
2441,2
2442,3
2443,5
2444,1
2445,3
2446,5
2447,6
2448,3
2449,3
2450,0
2451,3
2452,3
2453,1
2454,4
2455,5
2456,3
2457,5
2458,4
2459,1
2460,2
2461,1
2462,0
2463,5
2464,5
2465,5
2466,1
2467,1
2468,2
2469,5
2470,2
2471,5
2472,2
2473,4
2474,2
2475,4
2476,6
2477,4
2478,1
2479,9
2480,1
2481,2
2482,4
2483,3
2484,5
2485,6
2486,1
2487,4
2488,1
2489,4
2490,6
2491,1
2492,5
2493,4
2494,0
2495,0
2496,1
2497,7
2498,6
2499,2
2500,1
2501,0
2502,4
2503,0
2504,4
2505,5
2506,4
2507,6
2508,0
2509,5
2510,0
2511,0
2512,0
2513,3
2514,0
2515,4
2516,2
2517,2
2518,4
2519,4
2520,5
2521,4
2522,4
2523,4
2524,3
2525,1
2526,5
2527,5
2528,1
2529,1
2530,0
2531,1
2532,2
2533,2
2534,4
2535,2
2536,4
2537,5
2538,0
2539,2
2540,0
2541,0
2542,0
2543,3
2544,0
2545,2
2546,1
2547,1
2548,8
2549,2
2550,0
2551,3
2552,2
2553,2
2554,5
2555,1
2556,2
2557,2
2558,4
2559,2
2560,1
2561,3
2562,2
2563,4
2564,2
2565,1
2566,1
2567,4
2568,0
2569,2
2570,3
2571,0
2572,0
2573,2
2574,0
2575,0
2576,4
2577,5
2578,1
2579,1
2580,0
2581,4
2582,1
2583,2
2584,5
2585,0
2586,4
2587,6
2588,6
2589,3
2590,0
2591,0
2592,2
2593,2
2594,1
2595,4
2596,6
2597,1
2598,3
2599,4
2600,1
2601,0
2602,0
2603,0
2604,2
2605,4
2606,4
2607,1
2608,4
2609,1
2610,4
2611,2
2612,1
2613,6
2614,6
2615,4
2616,4
2617,0
2618,6
2619,2
2620,6
2621,2
2622,4
2623,6
2624,0
2625,0
2626,0
2627,5
2628,3
2629,4
2630,7
2631,4
2632,0
2633,2
2634,1
2635,3
2636,1
2637,0
2638,3
2639,3
2640,0
2641,1
2642,0
2643,1
2644,1
2645,1
2646,3
2647,1
2648,4
2649,2
2650,3
2651,0
2652,6
2653,2
2654,1
2655,2
2656,2
2657,0
2658,3
2659,0
2660,4
2661,2
2662,2
2663,3
2664,3
2665,1
2666,0
2667,6
2668,0
2669,0
2670,0
2671,0
2672,4
2673,1
2674,2
2675,6
2676,1
2677,4
2678,3
2679,0
2680,4
2681,1
2682,8
2683,2
2684,1
2685,0
2686,3
2687,2
2688,0
2689,0
2690,0
2691,3
2692,2
2693,0
2694,6
2695,5
2696,0
2697,2
2698,1
2699,0
2700,1
2701,4
2702,5
2703,3
2704,4
2705,2
2706,2
2707,4
2708,1
2709,3
2710,4
2711,5
2712,0
2713,0
2714,2
2715,0
2716,1
2717,2
2718,7
2719,0
2720,1
2721,2
2722,1
2723,0
2724,5
2725,3
2726,0
2727,2
2728,0
2729,1
2730,4
2731,3
2732,4
2733,1
2734,6
2735,0
2736,4
2737,0
2738,5
2739,0
2740,1
2741,2
2742,0
2743,1
2744,0
2745,2
2746,6
2747,3
2748,4
2749,1
2750,6
2751,3
2752,4
2753,1
2754,5
2755,6
2756,3
2757,2
2758,0
2759,1
2760,2
2761,0
2762,0
2763,0
2764,0
2765,1
2766,1
2767,1
2768,0
2769,1
2770,4
2771,4
2772,1
2773,2
2774,2
2775,1
2776,5
2777,0
2778,0
2779,5
2780,8
2781,1
2782,2
2783,2
2784,7
2785,5
2786,4
2787,3
2788,1
2789,0
2790,4
2791,0
2792,0
2793,3
2794,0
2795,0
2796,4
2797,1
2798,3
2799,0
2800,2
2801,1
2802,2
2803,1
2804,0
2805,1
2806,1
2807,6
2808,4
2809,2
2810,0
2811,1
2812,4
2813,5
2814,0
2815,0
2816,3
2817,1
2818,0
2819,0
2820,2
2821,3
2822,2
2823,4
2824,1
2825,3
2826,3
2827,0
2828,2
2829,0
2830,0
2831,7
2832,3
2833,1
2834,4
2835,2
2836,5
2837,4
2838,2
2839,2
2840,3
2841,3
2842,1
2843,4
2844,6
2845,3
2846,2
2847,3
2848,0
2849,6
2850,3
2851,0
2852,3
2853,6
2854,7
2855,1
2856,1
2857,1
2858,0
2859,3
2860,5
2861,6
2862,8
2863,2
2864,3
2865,2
2866,6
2867,2
2868,1
2869,1
2870,2
2871,6
2872,2
2873,6
2874,1
2875,2
2876,1
2877,7
2878,3
2879,6
2880,1
2881,5
2882,5
2883,5
2884,0
2885,4
2886,0
2887,4
2888,0
2889,0
2890,2
2891,0
2892,5
2893,0
2894,2
2895,2
2896,3
2897,0
2898,3
2899,4
2900,0
2901,3
2902,3
2903,0
2904,0
2905,0
2906,3
2907,3
2908,4
2909,0
2910,0
2911,1
2912,2
2913,3
2914,2
2915,4
2916,1
2917,3
2918,1
2919,0
2920,1
2921,0
2922,3
2923,2
2924,1
2925,0
2926,4
2927,0
2928,3
2929,5
2930,2
2931,6
2932,2
2933,0
2934,2
2935,1
2936,3
2937,1
2938,0
2939,0
2940,4
2941,2
2942,4
2943,0
2944,4
2945,1
2946,0
2947,1
2948,1
2949,3
2950,1
2951,1
2952,6
2953,1
2954,3
2955,2
2956,4
2957,0
2958,0
2959,2
2960,2
2961,0
2962,3
2963,0
2964,3
2965,2
2966,3
2967,5
2968,3
2969,3
2970,0
2971,4
2972,4
2973,3
2974,0
2975,1
2976,3
2977,3
2978,2
2979,1
2980,0
2981,1
2982,0
2983,2
2984,6
2985,5
2986,4
2987,5
2988,3
2989,2
2990,2
2991,3
2992,1
2993,0
2994,3
2995,0
2996,0
2997,2
2998,3
2999,2
3000,5
3001,3
3002,1
3003,0
3004,1
3005,0
3006,1
3007,2
3008,3
3009,1
3010,1
3011,0
3012,5
3013,4
3014,0
3015,6
3016,4
3017,4
3018,0
3019,0
3020,5
3021,5
3022,4
3023,1
3024,2
3025,1
3026,4
3027,4
3028,1
3029,0
3030,1
3031,3
3032,1
3033,0
3034,2
3035,0
3036,3
3037,3
3038,3
3039,4
3040,2
3041,3
3042,0
3043,5
3044,1
3045,5
3046,6
3047,0
3048,3
3049,6
3050,8
3051,0
3052,2
3053,0
3054,3
3055,0
3056,4
3057,4
3058,1
3059,2
3060,4
3061,1
3062,4
3063,0
3064,4
3065,1
3066,6
3067,0
3068,0
3069,0
3070,1
3071,2
3072,6
3073,6
3074,3
3075,0
3076,3
3077,0
3078,0
3079,1
3080,1
3081,3
3082,3
3083,4
3084,0
3085,0
3086,6
3087,1
3088,0
3089,2
3090,2
3091,6
3092,0
3093,7
3094,0
3095,2
3096,0
3097,0
3098,6
3099,0
3100,2
3101,3
3102,3
3103,4
3104,0
3105,0
3106,2
3107,2
3108,0
3109,6
3110,5
3111,0
3112,5
3113,4
3114,3
3115,3
3116,5
3117,6
3118,3
3119,1
3120,0
3121,5
3122,1
3123,0
3124,0
3125,5
3126,4
3127,0
3128,0
3129,2
3130,1
3131,4
3132,2
3133,4
3134,1
3135,5
3136,1
3137,1
3138,5
3139,0
3140,3
3141,1
3142,6
3143,2
3144,3
3145,0
3146,1
3147,2
3148,2
3149,5
3150,2
3151,5
3152,3
3153,5
3154,0
3155,0
3156,5
3157,0
3158,5
3159,4
3160,1
3161,0
3162,3
3163,4
3164,3
3165,4
3166,1
3167,0
3168,3
3169,4
3170,1
3171,0
3172,0
3173,4
3174,4
3175,4
3176,1
3177,2
3178,1
3179,5
3180,6
3181,0
3182,0
3183,1
3184,6
3185,2
3186,4
3187,6
3188,1
3189,0
3190,0
3191,0
3192,6
3193,0
3194,3
3195,4
3196,3
3197,0
3198,1
3199,4
3200,6
3201,5
3202,0
3203,3
3204,4
3205,0
3206,1
3207,2
3208,6
3209,0
3210,1
3211,0
3212,2
3213,3
3214,1
3215,2
3216,2
3217,0
3218,0
3219,2
3220,4
3221,4
3222,3
3223,4
3224,1
3225,2
3226,0
3227,4
3228,0
3229,6
3230,6
3231,3
3232,2
3233,2
3234,3
3235,6
3236,1
3237,5
3238,2
3239,1
3240,3
3241,1
3242,1
3243,4
3244,1
3245,2
3246,2
3247,8
3248,2
3249,6
3250,5
3251,2
3252,1
3253,4
3254,3
3255,0
3256,1
3257,6
3258,0
3259,5
3260,3
3261,4
3262,3
3263,3
3264,5
3265,3
3266,3
3267,1
3268,2
3269,0
3270,2
3271,3
3272,1
3273,3
3274,5
3275,0
3276,6
3277,2
3278,1
3279,6
3280,1
3281,0
3282,6
3283,0
3284,1
3285,6
3286,1
3287,6
3288,0
3289,0
3290,2
3291,2
3292,1
3293,0
3294,1
3295,5
3296,4
3297,3
3298,1
3299,2
3300,2
3301,1
3302,3
3303,3
3304,1
3305,1
3306,4
3307,1
3308,4
3309,0
3310,4
3311,1
3312,3
3313,2
3314,0
3315,1
3316,5
3317,2
3318,2
3319,3
3320,2
3321,2
3322,1
3323,3
3324,2
3325,5
3326,5
3327,3
3328,0
3329,4
3330,1
3331,4
3332,6
3333,0
3334,0
3335,0
3336,4
3337,3
3338,6
3339,6
3340,1
3341,5
3342,3
3343,3
3344,6
3345,5
3346,0
3347,3
3348,4
3349,5
3350,0
3351,3
3352,2
3353,1
3354,1
3355,0
3356,6
3357,1
3358,5
3359,3
3360,5
3361,4
3362,7
3363,2
3364,1
3365,6
3366,1
3367,5
3368,1
3369,4
3370,2
3371,4
3372,0
3373,6
3374,1
3375,2
3376,3
3377,4
3378,2
3379,4
3380,1
3381,7
3382,0
3383,0
3384,5
3385,4
3386,0
3387,2
3388,1
3389,2
3390,6
3391,3
3392,0
3393,3
3394,3
3395,3
3396,0
3397,6
3398,5
3399,1
3400,0
3401,6
3402,0
3403,2
3404,4
3405,2
3406,3
3407,2
3408,1
3409,3
3410,0
3411,4
3412,4
3413,3
3414,3
3415,4
3416,6
3417,4
3418,1
3419,1
3420,2
3421,0
3422,2
3423,5
3424,1
3425,4
3426,1
3427,0
3428,0
3429,2
3430,0
3431,4
3432,2
3433,3
3434,1
3435,2
3436,2
3437,1
3438,3
3439,0
3440,2
3441,3
3442,3
3443,1
3444,3
3445,4
3446,3
3447,4
3448,1
3449,4
3450,3
3451,0
3452,0
3453,2
3454,3
3455,0
3456,0
3457,5
3458,4
3459,6
3460,4
3461,4
3462,8
3463,0
3464,2
3465,1
3466,5
3467,1
3468,1
3469,1
3470,4
3471,3
3472,4
3473,0
3474,5
3475,0
3476,4
3477,5
3478,5
3479,6
3480,1
3481,0
3482,1
3483,1
3484,3
3485,0
3486,2
3487,3
3488,0
3489,0
3490,0
3491,6
3492,2
3493,4
3494,5
3495,1
3496,1
3497,1
3498,3
3499,7
3500,1
3501,2
3502,0
3503,4
3504,1
3505,6
3506,6
3507,1
3508,3
3509,0
3510,2
3511,6
3512,5
3513,3
3514,4
3515,4
3516,4
3517,3
3518,2
3519,0
3520,1
3521,0
3522,0
3523,1
3524,1
3525,2
3526,7
3527,5
3528,1
3529,6
3530,5
3531,0
3532,0
3533,1
3534,5
3535,4
3536,0
3537,4
3538,4
3539,1
3540,4
3541,3
3542,5
3543,1
3544,1
3545,3
3546,2
3547,5
3548,1
3549,1
3550,0
3551,0
3552,4
3553,3
3554,3
3555,3
3556,5
3557,5
3558,4
3559,0
3560,6
3561,4
3562,3
3563,2
3564,1
3565,0
3566,0
3567,4
3568,0
3569,2
3570,0
3571,4
3572,3
3573,2
3574,2
3575,0
3576,0
3577,1
3578,2
3579,1
3580,3
3581,4
3582,1
3583,4
3584,1
3585,4
3586,2
3587,3
3588,4
3589,6
3590,0
3591,2
3592,1
3593,4
3594,0
3595,2
3596,6
3597,0
3598,1
3599,1
3600,4
3601,3
3602,7
3603,6
3604,2
3605,0
3606,1
3607,3
3608,8
3609,0
3610,6
3611,1
3612,4
3613,0
3614,7
3615,0
3616,6
3617,2
3618,3
3619,2
3620,2
3621,3
3622,3
3623,4
3624,1
3625,0
3626,0
3627,0
3628,0
3629,1
3630,8
3631,0
3632,2
3633,4
3634,1
3635,1
3636,0
3637,2
3638,5
3639,2
3640,4
3641,1
3642,2
3643,4
3644,2
3645,2
3646,3
3647,1
3648,2
3649,1
3650,3
3651,1
3652,0
3653,6
3654,3
3655,6
3656,5
3657,2
3658,1
3659,6
3660,3
3661,3
3662,2
3663,1
3664,3
3665,6
3666,2
3667,8
3668,2
3669,3
3670,0
3671,0
3672,0
3673,0
3674,1
3675,2
3676,2
3677,1
3678,4
3679,6
3680,8
3681,6
3682,3
3683,4
3684,1
3685,2
3686,0
3687,2
3688,8
3689,4
3690,3
3691,1
3692,0
3693,3
3694,0
3695,0
3696,4
3697,2
3698,2
3699,1
3700,1
3701,0
3702,0
3703,1
3704,1
3705,3
3706,2
3707,2
3708,2
3709,0
3710,2
3711,4
3712,7
3713,5
3714,3
3715,3
3716,4
3717,3
3718,1
3719,2
3720,3
3721,2
3722,4
3723,0
3724,5
3725,4
3726,3
3727,4
3728,1
3729,1
3730,9
3731,1
3732,1
3733,5
3734,5
3735,4
3736,6
3737,5
3738,0
3739,6
3740,4
3741,1
3742,0
3743,5
3744,3
3745,2
3746,3
3747,0
3748,6
3749,2
3750,2
3751,2
3752,3
3753,3
3754,1
3755,2
3756,5
3757,3
3758,5
3759,1
3760,3
3761,3
3762,4
3763,0
3764,6
3765,1
3766,4
3767,3
3768,2
3769,1
3770,2
3771,4
3772,2
3773,4
3774,4
3775,4
3776,2
3777,2
3778,3
3779,1
3780,2
3781,0
3782,3
3783,2
3784,1
3785,1
3786,2
3787,0
3788,5
3789,2
3790,1
3791,0
3792,4
3793,6
3794,0
3795,4
3796,1
3797,5
3798,2
3799,3
3800,2
3801,2
3802,3
3803,6
3804,5
3805,3
3806,3
3807,6
3808,4
3809,3
3810,1
3811,4
3812,1
3813,1
3814,2
3815,0
3816,0
3817,2
3818,2
3819,6
3820,4
3821,3
3822,1
3823,1
3824,3
3825,1
3826,5
3827,1
3828,6
3829,3
3830,0
3831,3
3832,2
3833,6
3834,0
3835,0
3836,3
3837,2
3838,1
3839,3
3840,0
3841,4
3842,4
3843,3
3844,3
3845,6
3846,4
3847,0
3848,4
3849,0
3850,5
3851,4
3852,2
3853,6
3854,1
3855,2
3856,1
3857,2
3858,3
3859,1
3860,1
3861,3
3862,3
3863,2
3864,1
3865,1
3866,3
3867,5
3868,1
3869,1
3870,1
3871,1
3872,2
3873,3
3874,0
3875,4
3876,2
3877,4
3878,1
3879,0
3880,5
3881,4
3882,1
3883,0
3884,2
3885,4
3886,5
3887,3
3888,0
3889,5
3890,4
3891,3
3892,1
3893,3
3894,0
3895,3
3896,5
3897,1
3898,1
3899,3
3900,2
3901,6
3902,0
3903,0
3904,1
3905,4
3906,2
3907,6
3908,0
3909,4
3910,0
3911,5
3912,4
3913,9
3914,0
3915,6
3916,4
3917,3
3918,0
3919,0
3920,3
3921,3
3922,0
3923,3
3924,0
3925,5
3926,1
3927,1
3928,4
3929,5
3930,0
3931,3
3932,1
3933,3
3934,3
3935,4
3936,1
3937,0
3938,2
3939,4
3940,2
3941,3
3942,4
3943,1
3944,2
3945,0
3946,4
3947,0
3948,0
3949,0
3950,1
3951,0
3952,1
3953,2
3954,0
3955,2
3956,0
3957,3
3958,4
3959,1
3960,3
3961,1
3962,0
3963,6
3964,1
3965,0
3966,0
3967,0
3968,0
3969,4
3970,0
3971,3
3972,3
3973,4
3974,0
3975,0
3976,6
3977,1
3978,0
3979,3
3980,0
3981,0
3982,0
3983,0
3984,0
3985,6
3986,3
3987,4
3988,1
3989,6
3990,1
3991,4
3992,1
3993,3
3994,5
3995,2
3996,0
3997,1
3998,5
3999,3
4000,0
4001,0
4002,1
4003,6
4004,0
4005,1
4006,4
4007,1
4008,5
4009,1
4010,5
4011,2
4012,1
4013,2
4014,4
4015,5
4016,1
4017,2
4018,6
4019,0
4020,2
4021,2
4022,3
4023,1
4024,0
4025,0
4026,2
4027,5
4028,1
4029,4
4030,2
4031,2
4032,0
4033,3
4034,5
4035,0
4036,1
4037,4
4038,4
4039,5
4040,6
4041,1
4042,2
4043,2
4044,5
4045,2
4046,2
4047,3
4048,0
4049,0
4050,0
4051,0
4052,1
4053,6
4054,1
4055,3
4056,1
4057,4
4058,3
4059,3
4060,0
4061,4
4062,0
4063,4
4064,2
4065,0
4066,0
4067,3
4068,4
4069,2
4070,0
4071,3
4072,1
4073,5
4074,6
4075,5
4076,2
4077,4
4078,0
4079,0
4080,2
4081,0
4082,4
4083,0
4084,4
4085,6
4086,5
4087,5
4088,0
4089,3
4090,0
4091,6
4092,5
4093,0
4094,6
4095,6
