,leiden_2.5
0,8
1,1
2,0
3,20
4,12
5,1
6,10
7,9
8,4
9,16
10,16
11,12
12,3
13,13
14,10
15,6
16,18
17,14
18,6
19,6
20,0
21,4
22,3
23,3
24,5
25,1
26,15
27,8
28,20
29,1
30,3
31,4
32,15
33,8
34,7
35,4
36,6
37,6
38,11
39,2
40,13
41,7
42,0
43,2
44,1
45,11
46,1
47,17
48,7
49,2
50,2
51,13
52,7
53,3
54,11
55,21
56,17
57,5
58,12
59,12
60,3
61,6
62,1
63,2
64,3
65,1
66,0
67,8
68,15
69,8
70,9
71,8
72,0
73,11
74,8
75,10
76,6
77,11
78,8
79,1
80,18
81,14
82,8
83,4
84,0
85,2
86,2
87,0
88,6
89,6
90,1
91,6
92,0
93,4
94,5
95,4
96,3
97,6
98,2
99,3
100,1
101,0
102,4
103,1
104,2
105,3
106,3
107,13
108,6
109,8
110,8
111,1
112,4
113,19
114,4
115,0
116,4
117,0
118,11
119,0
120,10
121,5
122,2
123,3
124,4
125,1
126,1
127,19
128,15
129,5
130,2
131,4
132,4
133,1
134,16
135,2
136,0
137,0
138,13
139,6
140,6
141,12
142,18
143,2
144,0
145,0
146,8
147,19
148,4
149,10
150,6
151,9
152,6
153,9
154,16
155,14
156,6
157,0
158,1
159,5
160,0
161,0
162,3
163,18
164,4
165,12
166,2
167,12
168,0
169,8
170,2
171,7
172,0
173,5
174,9
175,6
176,0
177,19
178,12
179,1
180,0
181,1
182,8
183,6
184,3
185,22
186,5
187,1
188,5
189,0
190,2
191,1
192,6
193,0
194,1
195,11
196,14
197,2
198,18
199,19
200,5
201,17
202,8
203,5
204,4
205,4
206,6
207,18
208,4
209,13
210,19
211,2
212,5
213,2
214,0
215,17
216,3
217,10
218,7
219,17
220,1
221,17
222,2
223,8
224,3
225,5
226,0
227,15
228,4
229,10
230,6
231,2
232,13
233,4
234,18
235,3
236,7
237,0
238,1
239,13
240,16
241,17
242,0
243,19
244,4
245,13
246,0
247,4
248,16
249,8
250,14
251,4
252,5
253,13
254,10
255,13
256,1
257,9
258,1
259,0
260,11
261,8
262,1
263,5
264,7
265,13
266,2
267,1
268,5
269,11
270,16
271,9
272,17
273,4
274,4
275,7
276,5
277,2
278,2
279,9
280,12
281,13
282,6
283,0
284,7
285,0
286,11
287,4
288,12
289,4
290,3
291,14
292,9
293,19
294,12
295,0
296,3
297,2
298,10
299,0
300,5
301,11
302,1
303,0
304,5
305,9
306,9
307,17
308,2
309,7
310,4
311,14
312,14
313,0
314,0
315,12
316,13
317,1
318,12
319,1
320,1
321,18
322,18
323,4
324,19
325,0
326,13
327,6
328,2
329,1
330,18
331,2
332,16
333,3
334,2
335,20
336,12
337,3
338,5
339,3
340,17
341,3
342,0
343,10
344,5
345,2
346,9
347,1
348,10
349,6
350,19
351,15
352,12
353,14
354,12
355,12
356,4
357,12
358,8
359,8
360,1
361,3
362,11
363,13
364,3
365,7
366,14
367,8
368,17
369,0
370,0
371,8
372,11
373,3
374,14
375,3
376,7
377,3
378,4
379,0
380,4
381,5
382,6
383,20
384,7
385,16
386,0
387,9
388,12
389,5
390,0
391,9
392,15
393,16
394,6
395,11
396,6
397,0
398,0
399,11
400,12
401,1
402,5
403,16
404,12
405,5
406,12
407,6
408,7
409,0
410,6
411,2
412,16
413,5
414,14
415,7
416,9
417,7
418,9
419,5
420,3
421,3
422,5
423,1
424,9
425,2
426,1
427,1
428,12
429,6
430,6
431,9
432,3
433,2
434,1
435,1
436,9
437,6
438,18
439,13
440,15
441,19
442,3
443,2
444,20
445,19
446,7
447,12
448,3
449,12
450,14
451,6
452,15
453,2
454,0
455,5
456,4
457,13
458,15
459,2
460,20
461,8
462,2
463,10
464,2
465,3
466,8
467,6
468,10
469,0
470,3
471,12
472,14
473,14
474,13
475,16
476,1
477,2
478,13
479,17
480,4
481,1
482,1
483,3
484,3
485,6
486,13
487,6
488,7
489,6
490,7
491,2
492,2
493,2
494,4
495,6
496,19
497,0
498,8
499,7
500,6
501,14
502,15
503,12
504,4
505,13
506,15
507,8
508,4
509,0
510,10
511,16
512,10
513,14
514,9
515,3
516,18
517,14
518,2
519,0
520,9
521,9
522,0
523,2
524,14
525,17
526,18
527,15
528,8
529,1
530,1
531,3
532,2
533,16
534,4
535,1
536,8
537,12
538,16
539,5
540,7
541,0
542,9
543,20
544,4
545,1
546,4
547,11
548,14
549,12
550,0
551,12
552,4
553,2
554,4
555,19
556,14
557,13
558,16
559,13
560,2
561,20
562,9
563,3
564,17
565,4
566,14
567,13
568,6
569,3
570,3
571,9
572,2
573,10
574,1
575,9
576,14
577,2
578,15
579,2
580,0
581,5
582,17
583,11
584,14
585,3
586,6
587,11
588,5
589,1
590,6
591,0
592,6
593,5
594,7
595,3
596,7
597,5
598,10
599,3
600,0
601,1
602,14
603,12
604,2
605,14
606,12
607,4
608,15
609,2
610,12
611,15
612,15
613,9
614,6
615,1
616,9
617,17
618,3
619,0
620,8
621,0
622,7
623,5
624,0
625,4
626,3
627,9
628,8
629,4
630,7
631,3
632,9
633,8
634,3
635,6
636,8
637,17
638,12
639,15
640,14
641,14
642,16
643,3
644,5
645,3
646,16
647,3
648,11
649,2
650,6
651,14
652,18
653,6
654,17
655,11
656,2
657,7
658,12
659,4
660,14
661,14
662,18
663,1
664,8
665,3
666,12
667,8
668,15
669,1
670,5
671,14
672,6
673,5
674,8
675,4
676,6
677,3
678,1
679,7
680,10
681,1
682,7
683,0
684,4
685,3
686,15
687,8
688,2
689,11
690,5
691,1
692,4
693,12
694,8
695,2
696,0
697,5
698,13
699,15
700,0
701,14
702,15
703,3
704,13
705,1
706,13
707,20
708,10
709,6
710,1
711,1
712,10
713,8
714,17
715,7
716,3
717,13
718,9
719,5
720,3
721,8
722,10
723,6
724,3
725,0
726,4
727,13
728,0
729,1
730,20
731,5
732,11
733,9
734,14
735,11
736,1
737,10
738,11
739,10
740,3
741,20
742,14
743,2
744,19
745,3
746,7
747,18
748,2
749,8
750,2
751,17
752,8
753,6
754,3
755,10
756,2
757,4
758,14
759,16
760,16
761,17
762,14
763,0
764,7
765,1
766,6
767,19
768,5
769,2
770,2
771,12
772,6
773,7
774,16
775,11
776,17
777,0
778,4
779,0
780,1
781,2
782,9
783,5
784,7
785,2
786,13
787,2
788,3
789,3
790,3
791,6
792,10
793,0
794,9
795,3
796,17
797,1
798,16
799,0
800,4
801,15
802,1
803,16
804,15
805,12
806,20
807,13
808,12
809,3
810,18
811,5
812,18
813,8
814,7
815,22
816,4
817,11
818,2
819,1
820,2
821,18
822,3
823,1
824,5
825,6
826,10
827,0
828,6
829,4
830,17
831,0
832,1
833,6
834,1
835,7
836,8
837,8
838,11
839,12
840,15
841,0
842,17
843,4
844,0
845,17
846,4
847,12
848,4
849,11
850,5
851,13
852,16
853,7
854,14
855,12
856,13
857,5
858,1
859,1
860,0
861,3
862,6
863,5
864,5
865,4
866,8
867,2
868,4
869,1
870,0
871,3
872,13
873,13
874,2
875,1
876,1
877,12
878,14
879,7
880,6
881,16
882,5
883,10
884,3
885,6
886,3
887,0
888,11
889,3
890,17
891,2
892,19
893,1
894,0
895,4
896,10
897,5
898,4
899,13
900,10
901,7
902,1
903,12
904,10
905,4
906,2
907,4
908,8
909,19
910,9
911,1
912,1
913,8
914,14
915,8
916,1
917,1
918,0
919,1
920,15
921,5
922,4
923,15
924,15
925,4
926,3
927,12
928,6
929,2
930,2
931,1
932,10
933,9
934,4
935,10
936,11
937,20
938,13
939,2
940,1
941,5
942,0
943,6
944,9
945,0
946,5
947,6
948,3
949,11
950,8
951,9
952,9
953,8
954,12
955,1
956,11
957,8
958,1
959,13
960,1
961,2
962,13
963,0
964,7
965,10
966,4
967,2
968,5
969,1
970,14
971,15
972,9
973,13
974,11
975,13
976,1
977,4
978,11
979,6
980,12
981,14
982,3
983,10
984,10
985,2
986,5
987,13
988,10
989,6
990,7
991,9
992,2
993,15
994,11
995,4
996,15
997,16
998,12
999,1
1000,10
1001,12
1002,6
1003,9
1004,11
1005,0
1006,7
1007,6
1008,2
1009,2
1010,0
1011,15
1012,4
1013,13
1014,2
1015,14
1016,16
1017,5
1018,2
1019,5
1020,10
1021,8
1022,9
1023,18
1024,8
1025,12
1026,16
1027,5
1028,8
1029,5
1030,11
1031,0
1032,3
1033,14
1034,9
1035,18
1036,3
1037,6
1038,7
1039,16
1040,0
1041,2
1042,12
1043,19
1044,10
1045,0
1046,16
1047,2
1048,3
1049,0
1050,10
1051,0
1052,12
1053,5
1054,11
1055,7
1056,2
1057,12
1058,20
1059,16
1060,5
1061,11
1062,2
1063,10
1064,15
1065,14
1066,14
1067,12
1068,2
1069,5
1070,1
1071,12
1072,0
1073,7
1074,6
1075,9
1076,6
1077,9
1078,12
1079,12
1080,2
1081,0
1082,0
1083,1
1084,7
1085,17
1086,8
1087,19
1088,12
1089,3
1090,17
1091,3
1092,17
1093,6
1094,10
1095,8
1096,14
1097,13
1098,3
1099,15
1100,3
1101,17
1102,9
1103,9
1104,5
1105,8
1106,8
1107,8
1108,5
1109,4
1110,15
1111,18
1112,1
1113,0
1114,4
1115,7
1116,18
1117,4
1118,17
1119,2
1120,12
1121,1
1122,9
1123,4
1124,6
1125,0
1126,0
1127,3
1128,5
1129,4
1130,13
1131,16
1132,5
1133,8
1134,2
1135,11
1136,17
1137,10
1138,2
1139,15
1140,18
1141,10
1142,11
1143,17
1144,8
1145,5
1146,4
1147,15
1148,5
1149,8
1150,12
1151,18
1152,1
1153,0
1154,13
1155,7
1156,1
1157,11
1158,7
1159,3
1160,1
1161,4
1162,13
1163,2
1164,20
1165,3
1166,14
1167,0
1168,14
1169,6
1170,7
1171,7
1172,18
1173,20
1174,7
1175,4
1176,0
1177,4
1178,5
1179,10
1180,13
1181,15
1182,17
1183,9
1184,13
1185,5
1186,0
1187,1
1188,11
1189,5
1190,3
1191,18
1192,3
1193,7
1194,12
1195,9
1196,5
1197,8
1198,0
1199,10
1200,8
1201,2
1202,2
1203,11
1204,15
1205,7
1206,0
1207,1
1208,4
1209,5
1210,18
1211,15
1212,1
1213,7
1214,16
1215,10
1216,7
1217,5
1218,1
1219,9
1220,9
1221,6
1222,10
1223,1
1224,12
1225,14
1226,10
1227,9
1228,2
1229,11
1230,14
1231,7
1232,14
1233,20
1234,4
1235,13
1236,12
1237,6
1238,0
1239,3
1240,14
1241,12
1242,8
1243,17
1244,0
1245,17
1246,0
1247,6
1248,8
1249,2
1250,3
1251,12
1252,5
1253,6
1254,3
1255,5
1256,15
1257,3
1258,14
1259,15
1260,13
1261,2
1262,4
1263,10
1264,1
1265,13
1266,12
1267,14
1268,9
1269,15
1270,18
1271,13
1272,13
1273,10
1274,7
1275,9
1276,2
1277,20
1278,7
1279,9
1280,9
1281,11
1282,11
1283,3
1284,14
1285,9
1286,6
1287,3
1288,9
1289,2
1290,3
1291,17
1292,0
1293,0
1294,4
1295,0
1296,3
1297,1
1298,3
1299,15
1300,10
1301,1
1302,12
1303,12
1304,7
1305,14
1306,8
1307,15
1308,2
1309,5
1310,6
1311,5
1312,9
1313,5
1314,12
1315,14
1316,6
1317,1
1318,6
1319,9
1320,3
1321,0
1322,6
1323,4
1324,8
1325,9
1326,0
1327,13
1328,11
1329,8
1330,7
1331,5
1332,2
1333,15
1334,6
1335,0
1336,10
1337,0
1338,2
1339,4
1340,9
1341,14
1342,3
1343,16
1344,9
1345,13
1346,9
1347,21
1348,17
1349,14
1350,16
1351,1
1352,5
1353,4
1354,7
1355,2
1356,19
1357,4
1358,3
1359,18
1360,9
1361,0
1362,10
1363,3
1364,10
1365,7
1366,8
1367,1
1368,6
1369,0
1370,17
1371,7
1372,15
1373,1
1374,4
1375,8
1376,9
1377,0
1378,11
1379,5
1380,1
1381,2
1382,0
1383,3
1384,8
1385,8
1386,2
1387,12
1388,10
1389,0
1390,4
1391,14
1392,13
1393,18
1394,5
1395,12
1396,3
1397,6
1398,1
1399,0
1400,7
1401,14
1402,11
1403,7
1404,10
1405,7
1406,10
1407,0
1408,5
1409,11
1410,9
1411,10
1412,13
1413,4
1414,13
1415,12
1416,10
1417,8
1418,7
1419,6
1420,10
1421,2
1422,17
1423,0
1424,6
1425,1
1426,3
1427,4
1428,7
1429,4
1430,11
1431,3
1432,3
1433,16
1434,4
1435,15
1436,0
1437,11
1438,6
1439,6
1440,3
1441,1
1442,16
1443,2
1444,6
1445,3
1446,1
1447,13
1448,17
1449,4
1450,14
1451,0
1452,15
1453,10
1454,10
1455,15
1456,1
1457,4
1458,8
1459,14
1460,8
1461,10
1462,9
1463,19
1464,12
1465,20
1466,14
1467,12
1468,15
1469,6
1470,4
1471,15
1472,4
1473,6
1474,8
1475,5
1476,2
1477,1
1478,2
1479,7
1480,2
1481,1
1482,2
1483,16
1484,7
1485,1
1486,6
1487,21
1488,11
1489,11
1490,7
1491,2
1492,9
1493,3
1494,7
1495,12
1496,20
1497,14
1498,12
1499,5
1500,1
1501,4
1502,16
1503,1
1504,11
1505,8
1506,18
1507,11
1508,8
1509,10
1510,4
1511,0
1512,16
1513,1
1514,8
1515,5
1516,22
1517,10
1518,17
1519,12
1520,4
1521,15
1522,14
1523,2
1524,13
1525,15
1526,1
1527,2
1528,17
1529,1
1530,3
1531,13
1532,8
1533,13
1534,4
1535,13
1536,10
1537,11
1538,4
1539,13
1540,10
1541,8
1542,0
1543,2
1544,3
1545,5
1546,2
1547,15
1548,10
1549,18
1550,11
1551,9
1552,18
1553,20
1554,3
1555,2
1556,9
1557,16
1558,3
1559,4
1560,6
1561,3
1562,6
1563,0
1564,14
1565,14
1566,9
1567,1
1568,10
1569,13
1570,3
1571,19
1572,3
1573,18
1574,7
1575,6
1576,7
1577,3
1578,12
1579,3
1580,12
1581,10
1582,2
1583,0
1584,10
1585,15
1586,10
1587,5
1588,17
1589,4
1590,12
1591,2
1592,6
1593,1
1594,6
1595,0
1596,1
1597,1
1598,1
1599,17
1600,0
1601,11
1602,15
1603,16
1604,12
1605,8
1606,15
1607,12
1608,7
1609,15
1610,4
1611,2
1612,5
1613,11
1614,7
1615,4
1616,13
1617,10
1618,5
1619,7
1620,0
1621,11
1622,6
1623,4
1624,17
1625,1
1626,18
1627,16
1628,9
1629,7
1630,3
1631,5
1632,9
1633,13
1634,16
1635,11
1636,6
1637,14
1638,10
1639,7
1640,10
1641,8
1642,13
1643,6
1644,2
1645,21
1646,4
1647,4
1648,11
1649,7
1650,4
1651,13
1652,13
1653,5
1654,7
1655,15
1656,6
1657,13
1658,6
1659,6
1660,5
1661,0
1662,2
1663,2
1664,6
1665,5
1666,4
1667,11
1668,11
1669,15
1670,17
1671,1
1672,5
1673,17
1674,1
1675,1
1676,5
1677,2
1678,6
1679,6
1680,16
1681,9
1682,8
1683,16
1684,1
1685,9
1686,2
1687,10
1688,4
1689,15
1690,6
1691,0
1692,8
1693,4
1694,5
1695,5
1696,0
1697,1
1698,12
1699,1
1700,3
1701,16
1702,7
1703,16
1704,4
1705,15
1706,9
1707,9
1708,17
1709,5
1710,6
1711,7
1712,4
1713,2
1714,7
1715,4
1716,14
1717,13
1718,19
1719,5
1720,17
1721,3
1722,4
1723,12
1724,6
1725,3
1726,14
1727,10
1728,4
1729,1
1730,13
1731,11
1732,3
1733,11
1734,18
1735,0
1736,2
1737,4
1738,2
1739,11
1740,4
1741,8
1742,5
1743,3
1744,10
1745,16
1746,13
1747,8
1748,4
1749,3
1750,5
1751,0
1752,5
1753,7
1754,10
1755,15
1756,17
1757,2
1758,0
1759,2
1760,9
1761,15
1762,11
1763,10
1764,7
1765,10
1766,11
1767,9
1768,5
1769,3
1770,9
1771,1
1772,18
1773,5
1774,14
1775,17
1776,3
1777,1
1778,6
1779,11
1780,12
1781,1
1782,12
1783,12
1784,7
1785,5
1786,2
1787,20
1788,18
1789,1
1790,4
1791,19
1792,9
1793,17
1794,7
1795,5
1796,4
1797,1
1798,2
1799,3
1800,0
1801,18
1802,5
1803,14
1804,1
1805,7
1806,2
1807,15
1808,3
1809,14
1810,19
1811,18
1812,8
1813,6
1814,3
1815,5
1816,6
1817,14
1818,3
1819,5
1820,11
1821,8
1822,10
1823,0
1824,3
1825,18
1826,15
1827,3
1828,21
1829,9
1830,0
1831,4
1832,13
1833,5
1834,12
1835,6
1836,8
1837,4
1838,14
1839,8
1840,17
1841,5
1842,0
1843,14
1844,15
1845,2
1846,2
1847,4
1848,13
1849,0
1850,6
1851,19
1852,10
1853,13
1854,6
1855,20
1856,11
1857,7
1858,6
1859,4
1860,16
1861,1
1862,17
1863,18
1864,6
1865,18
1866,18
1867,15
1868,15
1869,12
1870,5
1871,5
1872,10
1873,20
1874,7
1875,20
1876,14
1877,6
1878,1
1879,2
1880,9
1881,10
1882,4
1883,3
1884,2
1885,6
1886,8
1887,0
1888,16
1889,14
1890,7
1891,0
1892,6
1893,14
1894,8
1895,0
1896,5
1897,13
1898,4
1899,4
1900,12
1901,18
1902,9
1903,0
1904,15
1905,4
1906,2
1907,4
1908,5
1909,3
1910,18
1911,1
1912,5
1913,14
1914,14
1915,1
1916,6
1917,1
1918,2
1919,1
1920,9
1921,1
1922,1
1923,10
1924,9
1925,3
1926,5
1927,6
1928,2
1929,4
1930,6
1931,8
1932,0
1933,15
1934,18
1935,6
1936,6
1937,5
1938,0
1939,3
1940,8
1941,12
1942,14
1943,0
1944,1
1945,14
1946,8
1947,9
1948,4
1949,13
1950,5
1951,0
1952,11
1953,11
1954,6
1955,8
1956,8
1957,11
1958,2
1959,14
1960,9
1961,6
1962,0
1963,1
1964,20
1965,1
1966,10
1967,16
1968,7
1969,2
1970,7
1971,12
1972,0
1973,7
1974,14
1975,7
1976,2
1977,19
1978,1
1979,12
1980,6
1981,0
1982,17
1983,14
1984,4
1985,0
1986,9
1987,2
1988,0
1989,20
1990,2
1991,7
1992,4
1993,18
1994,0
1995,4
1996,3
1997,6
1998,11
1999,5
2000,11
2001,14
2002,8
2003,11
2004,12
2005,16
2006,20
2007,6
2008,5
2009,16
2010,19
2011,10
2012,17
2013,7
2014,7
2015,17
2016,6
2017,2
2018,17
2019,10
2020,5
2021,8
2022,11
2023,5
2024,12
2025,5
2026,5
2027,18
2028,15
2029,16
2030,6
2031,9
2032,7
2033,8
2034,12
2035,7
2036,7
2037,3
2038,6
2039,12
2040,3
2041,7
2042,13
2043,8
2044,10
2045,12
2046,14
2047,1
2048,0
2049,0
2050,1
2051,3
2052,15
2053,3
2054,14
2055,16
2056,6
2057,0
2058,7
2059,14
2060,2
2061,11
2062,14
2063,6
2064,5
2065,13
2066,4
2067,4
2068,10
2069,11
2070,4
2071,6
2072,4
2073,4
2074,15
2075,5
2076,18
2077,1
2078,1
2079,2
2080,11
2081,17
2082,1
2083,2
2084,7
2085,4
2086,9
2087,8
2088,11
2089,6
2090,15
2091,4
2092,15
2093,11
2094,19
2095,6
2096,2
2097,10
2098,11
2099,1
2100,4
2101,1
2102,4
2103,17
2104,8
2105,4
2106,13
2107,1
2108,7
2109,6
2110,4
2111,16
2112,18
2113,16
2114,3
2115,7
2116,4
2117,14
2118,5
2119,1
2120,18
2121,1
2122,4
2123,6
2124,10
2125,11
2126,14
2127,1
2128,13
2129,0
2130,9
2131,15
2132,5
2133,6
2134,13
2135,22
2136,0
2137,0
2138,8
2139,2
2140,13
2141,3
2142,10
2143,8
2144,13
2145,7
2146,17
2147,1
2148,18
2149,5
2150,0
2151,12
2152,5
2153,15
2154,1
2155,15
2156,14
2157,8
2158,1
2159,4
2160,13
2161,5
2162,19
2163,16
2164,4
2165,4
2166,13
2167,8
2168,13
2169,0
2170,16
2171,0
2172,13
2173,2
2174,1
2175,3
2176,14
2177,13
2178,0
2179,1
2180,12
2181,10
2182,0
2183,3
2184,10
2185,3
2186,4
2187,10
2188,1
2189,4
2190,2
2191,0
2192,0
2193,1
2194,7
2195,20
2196,2
2197,6
2198,8
2199,0
2200,11
2201,3
2202,4
2203,8
2204,12
2205,3
2206,5
2207,13
2208,5
2209,5
2210,1
2211,20
2212,2
2213,8
2214,8
2215,9
2216,2
2217,7
2218,2
2219,4
2220,9
2221,1
2222,0
2223,1
2224,5
2225,4
2226,15
2227,10
2228,0
2229,4
2230,15
2231,1
2232,5
2233,6
2234,10
2235,15
2236,6
2237,9
2238,14
2239,12
2240,5
2241,8
2242,11
2243,18
2244,8
2245,13
2246,4
2247,12
2248,16
2249,21
2250,10
2251,2
2252,5
2253,14
2254,1
2255,12
2256,10
2257,8
2258,12
2259,2
2260,9
2261,1
2262,15
2263,11
2264,4
2265,5
2266,5
2267,14
2268,1
2269,3
2270,0
2271,6
2272,8
2273,4
2274,20
2275,7
2276,7
2277,0
2278,3
2279,3
2280,4
2281,13
2282,9
2283,18
2284,9
2285,0
2286,5
2287,11
2288,13
2289,0
2290,13
2291,8
2292,16
2293,19
2294,9
2295,12
2296,16
2297,17
2298,5
2299,4
2300,1
2301,7
2302,0
2303,1
2304,8
2305,17
2306,18
2307,6
2308,6
2309,15
2310,3
2311,17
2312,1
2313,4
2314,13
2315,6
2316,13
2317,6
2318,17
2319,2
2320,3
2321,6
2322,1
2323,4
2324,5
2325,6
2326,3
2327,0
2328,17
2329,12
2330,13
2331,2
2332,0
2333,14
2334,3
2335,9
2336,5
2337,16
2338,10
2339,1
2340,16
2341,0
2342,7
2343,3
2344,8
2345,1
2346,1
2347,2
2348,11
2349,5
2350,18
2351,0
2352,2
2353,15
2354,5
2355,1
2356,13
2357,3
2358,3
2359,6
2360,6
2361,11
2362,5
2363,5
2364,11
2365,14
2366,8
2367,1
2368,13
2369,13
2370,17
2371,11
2372,16
2373,3
2374,5
2375,0
2376,2
2377,11
2378,0
2379,0
2380,8
2381,13
2382,0
2383,12
2384,8
2385,2
2386,4
2387,20
2388,6
2389,0
2390,6
2391,4
2392,10
2393,3
2394,14
2395,3
2396,10
2397,3
2398,14
2399,21
2400,6
2401,6
2402,0
2403,6
2404,2
2405,6
2406,5
2407,12
2408,7
2409,3
2410,6
2411,19
2412,4
2413,5
2414,20
2415,10
2416,11
2417,16
2418,18
2419,6
2420,18
2421,15
2422,0
2423,7
2424,16
2425,15
2426,12
2427,1
2428,12
2429,1
2430,5
2431,2
2432,2
2433,8
2434,12
2435,10
2436,0
2437,17
2438,0
2439,14
2440,15
2441,6
2442,6
2443,2
2444,11
2445,6
2446,4
2447,18
2448,6
2449,17
2450,9
2451,0
2452,6
2453,3
2454,1
2455,8
2456,2
2457,6
2458,18
2459,16
2460,5
2461,19
2462,9
2463,7
2464,1
2465,9
2466,15
2467,15
2468,14
2469,17
2470,14
2471,0
2472,5
2473,4
2474,5
2475,4
2476,10
2477,1
2478,11
2479,19
2480,3
2481,2
2482,7
2483,6
2484,11
2485,8
2486,2
2487,8
2488,3
2489,4
2490,3
2491,20
2492,15
2493,19
2494,13
2495,0
2496,3
2497,4
2498,11
2499,7
2500,8
2501,3
2502,4
2503,13
2504,4
2505,0
2506,4
2507,16
2508,12
2509,4
2510,20
2511,19
2512,17
2513,6
2514,0
2515,1
2516,2
2517,11
2518,1
2519,4
2520,13
2521,4
2522,1
2523,8
2524,0
2525,2
2526,13
2527,18
2528,15
2529,11
2530,9
2531,0
2532,5
2533,7
2534,7
2535,5
2536,4
2537,6
2538,6
2539,5
2540,8
2541,6
2542,9
2543,6
2544,1
2545,16
2546,3
2547,8
2548,5
2549,5
2550,9
2551,6
2552,11
2553,20
2554,3
2555,8
2556,16
2557,2
2558,1
2559,7
2560,7
2561,2
2562,5
2563,15
2564,2
2565,7
2566,0
2567,1
2568,9
2569,12
2570,6
2571,9
2572,6
2573,5
2574,0
2575,0
2576,3
2577,2
2578,8
2579,11
2580,4
2581,19
2582,11
2583,7
2584,1
2585,11
2586,1
2587,0
2588,15
2589,6
2590,3
2591,9
2592,5
2593,5
2594,3
2595,18
2596,10
2597,6
2598,6
2599,1
2600,6
2601,11
2602,8
2603,2
2604,2
2605,1
2606,4
2607,0
2608,3
2609,0
2610,4
2611,5
2612,4
2613,16
2614,10
2615,4
2616,1
2617,5
2618,10
2619,3
2620,18
2621,7
2622,1
2623,1
2624,2
2625,8
2626,9
2627,2
2628,2
2629,9
2630,9
2631,4
2632,17
2633,3
2634,7
2635,0
2636,19
2637,13
2638,6
2639,14
2640,13
2641,7
2642,9
2643,11
2644,3
2645,3
2646,13
2647,3
2648,1
2649,14
2650,6
2651,7
2652,10
2653,16
2654,0
2655,7
2656,12
2657,7
2658,14
2659,0
2660,4
2661,12
2662,3
2663,6
2664,8
2665,2
2666,4
2667,15
2668,2
2669,15
2670,5
2671,3
2672,4
2673,8
2674,0
2675,11
2676,8
2677,19
2678,6
2679,5
2680,1
2681,11
2682,5
2683,0
2684,3
2685,0
2686,2
2687,7
2688,17
2689,9
2690,15
2691,6
2692,14
2693,9
2694,10
2695,9
2696,0
2697,11
2698,0
2699,12
2700,0
2701,19
2702,17
2703,14
2704,1
2705,2
2706,8
2707,1
2708,5
2709,2
2710,4
2711,8
2712,7
2713,1
2714,1
2715,1
2716,3
2717,5
2718,4
2719,9
2720,11
2721,7
2722,12
2723,15
2724,2
2725,13
2726,7
2727,7
2728,9
2729,0
2730,1
2731,17
2732,1
2733,11
2734,15
2735,2
2736,4
2737,2
2738,20
2739,0
2740,17
2741,3
2742,10
2743,8
2744,3
2745,9
2746,10
2747,13
2748,1
2749,13
2750,11
2751,6
2752,1
2753,8
2754,8
2755,15
2756,6
2757,5
2758,0
2759,3
2760,5
2761,2
2762,8
2763,11
2764,5
2765,19
2766,3
2767,8
2768,3
2769,0
2770,4
2771,1
2772,15
2773,5
2774,3
2775,3
2776,7
2777,0
2778,11
2779,7
2780,16
2781,14
2782,5
2783,14
2784,7
2785,18
2786,4
2787,17
2788,6
2789,0
2790,4
2791,21
2792,1
2793,6
2794,2
2795,3
2796,4
2797,3
2798,4
2799,18
2800,5
2801,0
2802,1
2803,15
2804,7
2805,3
2806,3
2807,5
2808,1
2809,0
2810,14
2811,11
2812,2
2813,17
2814,12
2815,3
2816,12
2817,9
2818,7
2819,17
2820,17
2821,6
2822,5
2823,1
2824,10
2825,6
2826,0
2827,13
2828,2
2829,7
2830,6
2831,4
2832,13
2833,3
2834,1
2835,12
2836,12
2837,4
2838,14
2839,7
2840,6
2841,1
2842,2
2843,1
2844,19
2845,14
2846,3
2847,6
2848,9
2849,10
2850,9
2851,7
2852,6
2853,10
2854,4
2855,0
2856,0
2857,2
2858,2
2859,13
2860,9
2861,10
2862,18
2863,2
2864,12
2865,7
2866,10
2867,5
2868,11
2869,0
2870,5
2871,10
2872,4
2873,10
2874,7
2875,2
2876,3
2877,11
2878,6
2879,20
2880,0
2881,3
2882,7
2883,10
2884,9
2885,1
2886,0
2887,4
2888,18
2889,14
2890,2
2891,0
2892,10
2893,2
2894,0
2895,7
2896,14
2897,6
2898,0
2899,4
2900,15
2901,0
2902,5
2903,0
2904,9
2905,9
2906,0
2907,6
2908,4
2909,2
2910,5
2911,19
2912,5
2913,7
2914,5
2915,1
2916,3
2917,6
2918,12
2919,0
2920,15
2921,17
2922,6
2923,7
2924,15
2925,0
2926,1
2927,2
2928,6
2929,6
2930,11
2931,10
2932,8
2933,1
2934,0
2935,18
2936,17
2937,0
2938,20
2939,9
2940,4
2941,7
2942,6
2943,0
2944,1
2945,3
2946,9
2947,12
2948,11
2949,6
2950,3
2951,0
2952,11
2953,3
2954,16
2955,2
2956,1
2957,9
2958,8
2959,14
2960,7
2961,2
2962,12
2963,9
2964,12
2965,7
2966,2
2967,13
2968,14
2969,7
2970,8
2971,1
2972,1
2973,2
2974,0
2975,1
2976,9
2977,13
2978,2
2979,2
2980,0
2981,15
2982,0
2983,2
2984,10
2985,9
2986,4
2987,7
2988,10
2989,5
2990,7
2991,4
2992,7
2993,13
2994,2
2995,3
2996,9
2997,2
2998,6
2999,3
3000,16
3001,6
3002,3
3003,5
3004,0
3005,2
3006,11
3007,5
3008,0
3009,8
3010,15
3011,3
3012,4
3013,1
3014,12
3015,10
3016,18
3017,3
3018,12
3019,14
3020,4
3021,6
3022,3
3023,7
3024,2
3025,5
3026,4
3027,1
3028,20
3029,5
3030,7
3031,2
3032,11
3033,5
3034,3
3035,12
3036,12
3037,13
3038,6
3039,1
3040,7
3041,2
3042,3
3043,2
3044,19
3045,2
3046,10
3047,8
3048,11
3049,10
3050,3
3051,1
3052,5
3053,5
3054,2
3055,9
3056,1
3057,4
3058,7
3059,14
3060,4
3061,3
3062,4
3063,7
3064,9
3065,3
3066,18
3067,9
3068,3
3069,14
3070,12
3071,2
3072,15
3073,18
3074,6
3075,2
3076,2
3077,9
3078,9
3079,7
3080,12
3081,14
3082,13
3083,1
3084,9
3085,0
3086,10
3087,15
3088,16
3089,5
3090,7
3091,5
3092,9
3093,4
3094,9
3095,14
3096,11
3097,9
3098,8
3099,9
3100,16
3101,0
3102,13
3103,1
3104,9
3105,2
3106,5
3107,17
3108,19
3109,15
3110,15
3111,12
3112,4
3113,1
3114,12
3115,6
3116,10
3117,16
3118,13
3119,9
3120,11
3121,5
3122,3
3123,2
3124,5
3125,1
3126,4
3127,0
3128,9
3129,14
3130,0
3131,4
3132,14
3133,19
3134,12
3135,21
3136,12
3137,0
3138,2
3139,0
3140,13
3141,7
3142,10
3143,5
3144,2
3145,8
3146,11
3147,0
3148,11
3149,13
3150,7
3151,5
3152,6
3153,19
3154,0
3155,1
3156,2
3157,3
3158,7
3159,4
3160,3
3161,0
3162,12
3163,18
3164,2
3165,1
3166,8
3167,9
3168,2
3169,1
3170,13
3171,8
3172,9
3173,16
3174,4
3175,1
3176,4
3177,14
3178,18
3179,22
3180,10
3181,12
3182,4
3183,3
3184,10
3185,7
3186,1
3187,10
3188,15
3189,2
3190,6
3191,3
3192,15
3193,8
3194,6
3195,1
3196,12
3197,3
3198,11
3199,8
3200,19
3201,11
3202,3
3203,6
3204,1
3205,9
3206,9
3207,5
3208,18
3209,2
3210,3
3211,3
3212,3
3213,6
3214,11
3215,5
3216,8
3217,3
3218,1
3219,7
3220,4
3221,4
3222,6
3223,8
3224,15
3225,14
3226,0
3227,1
3228,6
3229,8
3230,10
3231,13
3232,16
3233,18
3234,0
3235,15
3236,3
3237,20
3238,14
3239,11
3240,12
3241,8
3242,10
3243,4
3244,8
3245,5
3246,20
3247,8
3248,5
3249,16
3250,9
3251,0
3252,5
3253,4
3254,17
3255,20
3256,8
3257,5
3258,8
3259,16
3260,14
3261,4
3262,12
3263,14
3264,6
3265,6
3266,13
3267,1
3268,5
3269,3
3270,19
3271,6
3272,13
3273,6
3274,3
3275,6
3276,10
3277,3
3278,3
3279,10
3280,0
3281,9
3282,13
3283,2
3284,11
3285,10
3286,0
3287,10
3288,0
3289,0
3290,14
3291,2
3292,5
3293,8
3294,6
3295,1
3296,5
3297,2
3298,2
3299,13
3300,2
3301,11
3302,0
3303,6
3304,6
3305,7
3306,2
3307,1
3308,4
3309,9
3310,1
3311,3
3312,13
3313,6
3314,14
3315,0
3316,15
3317,7
3318,5
3319,11
3320,3
3321,8
3322,3
3323,4
3324,5
3325,16
3326,5
3327,0
3328,18
3329,4
3330,12
3331,5
3332,18
3333,0
3334,9
3335,0
3336,1
3337,6
3338,10
3339,10
3340,11
3341,16
3342,6
3343,2
3344,10
3345,18
3346,16
3347,13
3348,8
3349,4
3350,3
3351,2
3352,5
3353,3
3354,3
3355,17
3356,15
3357,15
3358,10
3359,0
3360,9
3361,1
3362,8
3363,14
3364,12
3365,10
3366,0
3367,15
3368,7
3369,11
3370,5
3371,8
3372,0
3373,10
3374,9
3375,5
3376,6
3377,20
3378,20
3379,2
3380,12
3381,4
3382,13
3383,2
3384,5
3385,18
3386,18
3387,2
3388,7
3389,16
3390,10
3391,0
3392,2
3393,6
3394,6
3395,11
3396,17
3397,11
3398,18
3399,3
3400,5
3401,19
3402,2
3403,7
3404,16
3405,20
3406,6
3407,14
3408,11
3409,15
3410,11
3411,1
3412,18
3413,14
3414,11
3415,4
3416,10
3417,4
3418,1
3419,3
3420,7
3421,15
3422,16
3423,1
3424,11
3425,4
3426,9
3427,8
3428,11
3429,5
3430,6
3431,4
3432,5
3433,13
3434,15
3435,7
3436,16
3437,3
3438,2
3439,19
3440,2
3441,13
3442,6
3443,11
3444,2
3445,1
3446,6
3447,8
3448,18
3449,14
3450,13
3451,3
3452,9
3453,7
3454,0
3455,4
3456,4
3457,6
3458,4
3459,10
3460,1
3461,1
3462,4
3463,14
3464,2
3465,3
3466,11
3467,20
3468,12
3469,11
3470,1
3471,0
3472,5
3473,0
3474,3
3475,1
3476,1
3477,4
3478,7
3479,7
3480,8
3481,3
3482,5
3483,3
3484,17
3485,3
3486,5
3487,0
3488,8
3489,5
3490,9
3491,15
3492,5
3493,4
3494,7
3495,4
3496,3
3497,3
3498,0
3499,3
3500,11
3501,2
3502,0
3503,1
3504,1
3505,10
3506,2
3507,7
3508,0
3509,12
3510,0
3511,10
3512,2
3513,13
3514,1
3515,4
3516,4
3517,18
3518,5
3519,17
3520,0
3521,17
3522,3
3523,0
3524,2
3525,16
3526,4
3527,8
3528,2
3529,10
3530,7
3531,19
3532,13
3533,3
3534,9
3535,8
3536,6
3537,4
3538,1
3539,20
3540,15
3541,6
3542,15
3543,9
3544,2
3545,0
3546,0
3547,7
3548,3
3549,20
3550,21
3551,3
3552,4
3553,16
3554,13
3555,0
3556,16
3557,0
3558,4
3559,1
3560,16
3561,4
3562,17
3563,5
3564,4
3565,11
3566,12
3567,3
3568,5
3569,2
3570,20
3571,4
3572,2
3573,11
3574,5
3575,8
3576,14
3577,10
3578,6
3579,4
3580,12
3581,18
3582,19
3583,1
3584,11
3585,7
3586,1
3587,6
3588,5
3589,10
3590,9
3591,8
3592,7
3593,2
3594,7
3595,15
3596,10
3597,5
3598,8
3599,13
3600,4
3601,11
3602,16
3603,10
3604,12
3605,12
3606,3
3607,2
3608,0
3609,1
3610,10
3611,11
3612,4
3613,0
3614,4
3615,0
3616,15
3617,7
3618,2
3619,5
3620,5
3621,6
3622,15
3623,1
3624,3
3625,0
3626,9
3627,6
3628,17
3629,9
3630,19
3631,13
3632,5
3633,1
3634,8
3635,1
3636,5
3637,5
3638,16
3639,14
3640,1
3641,3
3642,5
3643,15
3644,14
3645,5
3646,6
3647,7
3648,7
3649,3
3650,2
3651,11
3652,3
3653,10
3654,6
3655,5
3656,6
3657,5
3658,3
3659,10
3660,17
3661,6
3662,2
3663,8
3664,6
3665,7
3666,9
3667,7
3668,5
3669,17
3670,12
3671,1
3672,9
3673,21
3674,3
3675,7
3676,13
3677,3
3678,16
3679,10
3680,1
3681,7
3682,2
3683,18
3684,11
3685,14
3686,8
3687,5
3688,0
3689,1
3690,0
3691,17
3692,6
3693,6
3694,11
3695,0
3696,4
3697,7
3698,0
3699,12
3700,13
3701,8
3702,2
3703,18
3704,3
3705,13
3706,2
3707,6
3708,3
3709,7
3710,5
3711,15
3712,4
3713,18
3714,6
3715,2
3716,4
3717,13
3718,3
3719,5
3720,6
3721,17
3722,1
3723,0
3724,5
3725,4
3726,0
3727,4
3728,3
3729,8
3730,19
3731,0
3732,9
3733,8
3734,4
3735,1
3736,7
3737,12
3738,2
3739,10
3740,18
3741,8
3742,11
3743,20
3744,2
3745,5
3746,0
3747,7
3748,10
3749,5
3750,14
3751,1
3752,17
3753,6
3754,11
3755,3
3756,3
3757,0
3758,3
3759,7
3760,2
3761,2
3762,18
3763,0
3764,9
3765,0
3766,1
3767,6
3768,5
3769,0
3770,14
3771,1
3772,14
3773,4
3774,3
3775,1
3776,5
3777,14
3778,17
3779,9
3780,5
3781,0
3782,14
3783,16
3784,3
3785,15
3786,2
3787,9
3788,8
3789,2
3790,3
3791,0
3792,1
3793,10
3794,3
3795,1
3796,15
3797,8
3798,5
3799,12
3800,5
3801,1
3802,6
3803,5
3804,8
3805,17
3806,14
3807,10
3808,4
3809,6
3810,3
3811,1
3812,15
3813,15
3814,1
3815,0
3816,15
3817,12
3818,16
3819,10
3820,4
3821,6
3822,7
3823,8
3824,16
3825,20
3826,1
3827,19
3828,8
3829,13
3830,8
3831,17
3832,14
3833,10
3834,2
3835,13
3836,0
3837,16
3838,15
3839,13
3840,3
3841,5
3842,7
3843,13
3844,6
3845,10
3846,1
3847,1
3848,3
3849,6
3850,17
3851,18
3852,7
3853,10
3854,12
3855,7
3856,9
3857,5
3858,6
3859,2
3860,18
3861,17
3862,6
3863,17
3864,0
3865,9
3866,0
3867,16
3868,2
3869,3
3870,11
3871,4
3872,5
3873,6
3874,1
3875,4
3876,14
3877,1
3878,2
3879,0
3880,16
3881,18
3882,13
3883,6
3884,0
3885,4
3886,8
3887,13
3888,3
3889,17
3890,4
3891,5
3892,8
3893,0
3894,0
3895,2
3896,12
3897,11
3898,2
3899,2
3900,5
3901,16
3902,9
3903,4
3904,2
3905,1
3906,5
3907,10
3908,16
3909,5
3910,8
3911,8
3912,3
3913,18
3914,14
3915,10
3916,2
3917,6
3918,12
3919,9
3920,12
3921,6
3922,9
3923,14
3924,18
3925,2
3926,0
3927,19
3928,1
3929,1
3930,0
3931,13
3932,0
3933,13
3934,5
3935,1
3936,15
3937,13
3938,8
3939,7
3940,8
3941,6
3942,4
3943,8
3944,5
3945,11
3946,4
3947,0
3948,10
3949,11
3950,9
3951,9
3952,6
3953,14
3954,9
3955,5
3956,11
3957,13
3958,1
3959,11
3960,13
3961,5
3962,3
3963,10
3964,11
3965,8
3966,0
3967,3
3968,3
3969,1
3970,3
3971,2
3972,14
3973,8
3974,5
3975,2
3976,10
3977,12
3978,13
3979,8
3980,9
3981,0
3982,9
3983,17
3984,3
3985,18
3986,6
3987,4
3988,8
3989,10
3990,6
3991,1
3992,8
3993,2
3994,18
3995,3
3996,6
3997,3
3998,12
3999,7
4000,11
4001,1
4002,0
4003,20
4004,0
4005,7
4006,1
4007,11
4008,18
4009,2
4010,5
4011,5
4012,7
4013,17
4014,2
4015,8
4016,4
4017,16
4018,2
4019,2
4020,16
4021,16
4022,6
4023,0
4024,12
4025,9
4026,5
4027,8
4028,15
4029,1
4030,5
4031,7
4032,9
4033,2
4034,1
4035,1
4036,12
4037,1
4038,4
4039,9
4040,10
4041,6
4042,14
4043,5
4044,13
4045,17
4046,5
4047,17
4048,2
4049,2
4050,2
4051,10
4052,9
4053,3
4054,9
4055,13
4056,8
4057,1
4058,0
4059,0
4060,7
4061,1
4062,9
4063,1
4064,5
4065,2
4066,1
4067,2
4068,4
4069,5
4070,15
4071,0
4072,0
4073,2
4074,17
4075,3
4076,13
4077,4
4078,20
4079,11
4080,14
4081,4
4082,7
4083,9
4084,2
4085,7
4086,16
4087,18
4088,9
4089,0
4090,14
4091,10
4092,11
4093,9
4094,10
4095,10
