pairs 12 path52 331 0.11178975120742574
pairs 1 path104 33 0.2815882086421872
pairs 19 path184 893 0.3720123829136965
pairs 19 path76 875 0.3748431476865058
pairs 6 path182 1205 0.39449099533636733
pairs 16 path90 672 0.42059632630837784
pairs 14 path40 546 0.43415827558936343
pairs 13 path110 406 0.45122430030289634
pairs 8 path82 279 0.454866695814655
pairs 8 path106 1436 0.4587865606104165
pairs 1 path80 41 0.5107615341402664
pairs 2 path112 1024 0.5323509044813056
pairs 7 path52 1317 0.5724453483161943
pairs 16 path100 655 0.5755962858897562
pairs 7 path128 1342 0.5869133547811954
pairs 1 path56 47 0.6403276753710138
pairs 8 path110 1452 0.7376558036212989
pairs 6 path146 1197 0.7887336335096145
pairs 9 path86 1543 0.7940424535138245
pairs 7 path30 1298 0.8015427022063616
pairs 13 path76 459 0.8208004204308456
pairs 17 path122 751 0.82152954372821
pairs 12 path86 357 0.8300653125671702
pairs 11 path168 211 0.8372421917817856
pairs 7 path34 1309 0.8434323730491032
pairs 11 path122 220 0.8537758794872337
pairs 3 path162 1045 0.8558386047790637
pairs 17 path202 769 0.855853848166632
pairs 19 path102 953 0.8575444427162981
pairs 5 path40 1594 0.878626414361234
pairs 1 path32 60 0.8820325648331366
pairs 1 path100 36 0.8861928784723895
pairs 17 path190 728 0.8883890246800188
pairs 8 path200 1396 0.8910739001625615
pairs 1 path82 31 0.904419217680505
pairs 11 path74 244 0.9178866320515567
pairs 4 path42 1102 0.9425988782554072
pairs 9 path26 1497 0.9518862852479877
pairs 3 path156 1041 0.9563630832123944
pairs 8 path238 1395 0.9626220819271594
pairs 8 path124 1479 0.9640279575911077
pairs 12 path50 301 0.9888339857592474
pairs 13 path88 449 0.9900408373222465
pairs 6 path192 1196 0.9956854985228873
pairs 18 path150 851 1.0089385668745334
pairs 19 path128 967 1.02021597015678
pairs 14 path158 517 1.0217522952301756
pairs 13 path104 431 1.046599964053348
pairs 7 path58 1319 1.0481063772031651
pairs 14 path154 476 1.0551168918725717
pairs 14 path120 488 1.060417076022076
pairs 3 path158 1044 1.0689259269987625
pairs 18 path68 759 1.0735428271240368
pairs 12 path110 362 1.0768917085598932
pairs 17 path50 700 1.0770653081307344
pairs 4 path34 1132 1.0791215389871005
pairs 11 path100 218 1.0804735067073905
pairs 6 path98 1242 1.0817021048346693
pairs 11 path138 241 1.0890781249590624
pairs 14 path52 527 1.0910994110559085
pairs 7 path230 1316 1.1271989036219319
pairs 3 path72 1066 1.1381065628155955
pairs 13 path124 404 1.139527940059449
pairs 4 path98 1144 1.1480715194450444
pairs 14 path102 552 1.1629860800692562
pairs 2 path106 983 1.1851073759181996
pairs 18 path142 838 1.2041837876113624
pairs 17 path168 710 1.2083101537981165
pairs 13 path210 395 1.2433817961963585
pairs 7 path80 1357 1.25717722218656
pairs 14 path118 482 1.298355029283818
pairs 14 path110 485 1.3073056628388615
pairs 10 path30 98 1.30943171872222
pairs 14 path44 534 1.3122740598791482
pairs 17 path22 687 1.3182177169290166
pairs 6 path50 1223 1.3182237361079305
pairs 3 path74 1067 1.3277613566244821
pairs 2 path36 994 1.329659683324466
pairs 18 path40 818 1.331354414739378
pairs 9 path150 1566 1.3336392328968076
pairs 16 path74 674 1.372432297168506
pairs 10 path74 118 1.375416467733156
pairs 6 path184 1218 1.391308890903827
pairs 3 path108 1104 1.391749282492142
pairs 16 path218 589 1.3979087602055071
pairs 11 path106 217 1.4102928869458813
pairs 4 path84 1138 1.4142563578989729
pairs 16 path212 584 1.4367286738441374
pairs 6 path116 1238 1.4395951106569154
pairs 3 path84 1097 1.4681899202563211
pairs 18 path224 790 1.4746116411589585
pairs 18 path144 837 1.480045693475873
pairs 2 path34 993 1.484837033492333
pairs 8 path186 1426 1.5126892718323188
pairs 6 path34 1226 1.53584293643926
pairs 14 path156 518 1.5368728872514668
pairs 12 path62 342 1.5440026995847287
pairs 11 path214 163 1.5463603785047868
pairs 15 path20 127 1.5476740666180728
pairs 8 path98 1465 1.5516550043234105
pairs 17 path172 712 1.5586039084507397
pairs 16 path132 641 1.5641289481092084
pairs 19 path154 965 1.5660494840448487
pairs 18 path82 865 1.5684570350977116
pairs 0 path24 2 1.5687004475014976
pairs 14 path106 491 1.569490503462969
pairs 18 path204 803 1.5781239944663716
pairs 1 path128 1576 1.5839551913168317
pairs 16 path170 605 1.5839820919420227
pairs 6 path84 256 1.5941401791729686
pairs 6 path132 1263 1.598882743019971
pairs 11 path50 108 1.5996207894306924
pairs 6 path156 1183 1.6020772678428008
pairs 13 path134 448 1.6137529993436823
pairs 6 path188 1217 1.614205992767526
pairs 8 path92 1471 1.620015492389107
pairs 12 path88 358 1.6239077987950725
pairs 16 path54 667 1.6337973405773085
pairs 19 path86 957 1.6360058486586806
pairs 17 path184 767 1.6368922920456899
pairs 2 path144 975 1.642663064738151
pairs 9 path158 1513 1.644780541052787
pairs 4 path106 1121 1.6506209992132457
pairs 5 path28 1169 1.6570274045657691
pairs 2 path38 995 1.6714065056336425
pairs 6 path44 1203 1.6757341667404524
pairs 4 path100 1143 1.68074200929874
pairs 16 path222 586 1.6865792845053746
pairs 7 path112 1355 1.6911924592680645
pairs 11 path220 151 1.695219085960985
pairs 3 path26 1039 1.6956631226056864
pairs 1 path126 22 1.6963972140822234
pairs 4 path120 1118 1.7088100358048914
pairs 17 path110 761 1.718296104882759
pairs 11 path190 169 1.7300581132700814
pairs 8 path164 1438 1.7318300023164896
pairs 6 path58 1246 1.7646465072089554
pairs 2 path30 986 1.783623834551243
pairs 11 path112 200 1.785184634627842
pairs 4 path68 1137 1.7990049198677354
pairs 16 path184 590 1.8046917343115776
pairs 11 path102 229 1.82332757280973
pairs 16 path188 250 1.8262643660777569
pairs 6 path28 1213 1.828575485371112
pairs 18 path126 826 1.8317506248362063
pairs 3 path62 1061 1.8672640806718188
pairs 8 path154 1443 1.89444738871011
pairs 9 path98 1520 1.9022370030416857
pairs 16 path88 645 1.9023301527489092
pairs 9 path134 1517 1.9090615794535066
pairs 19 path54 917 1.9152686123994234
pairs 11 path248 129 1.949156418312111
pairs 18 path138 836 1.9654045982469142
pairs 12 path170 311 1.9875848792878135
pairs 16 path48 647 1.9948361500404574
pairs 19 path152 960 2.0112285507500474
pairs 15 path38 578 2.0179067754385325
pairs 1 path94 30 2.0179067754385325
pairs 11 path154 199 2.02041509331666
pairs 14 path126 497 2.022791668287987
pairs 0 path40 10 2.035910494991968
pairs 3 path102 1077 2.0362852858210703
pairs 8 path144 1448 2.0370778056667462
pairs 1 path86 28 2.066544153194648
pairs 2 path102 988 2.085828836339574
pairs 14 path74 504 2.1066627472013573
pairs 10 path42 101 2.110009094581394
pairs 18 path122 848 2.110221155533791
pairs 7 path32 1308 2.1253299161334778
pairs 4 path72 1148 2.126801321823182
pairs 2 path20 980 2.1311547944906715
pairs 6 path170 1224 2.136538023689208
pairs 6 path20 1199 2.1384507662641963
pairs 19 path28 892 2.1500292626189097
pairs 5 path60 1163 2.162068293871679
pairs 6 path164 1208 2.170036513968223
pairs 19 path148 942 2.171756179392885
pairs 13 path132 421 2.178049676248116
pairs 12 path128 310 2.1875120647983266
pairs 3 path82 1099 2.19658937517018
pairs 9 path166 1549 2.196967014790965
pairs 4 path54 1154 2.20205875137973
pairs 3 path30 1050 2.204764267156394
pairs 17 path182 766 2.2146058590061646
pairs 7 path238 1328 2.2155191595975827
pairs 7 path106 285 2.2364876377903964
pairs 6 path66 1248 2.236529119071443
pairs 7 path156 1302 2.2469701062836687
pairs 0 path50 11 2.2482984668858
pairs 4 path94 1160 2.255030227805325
pairs 7 path74 1346 2.2584986630424857
pairs 12 path56 328 2.2629309522481664
pairs 7 path178 1269 2.263189180929474
pairs 8 path84 1468 2.265651012961911
pairs 18 path72 884 2.2671659630594454
pairs 0 path22 1 2.270949632101305
pairs 14 path132 547 2.274933818264524
pairs 14 path122 490 2.2763961207557033
pairs 9 path22 1507 2.2769282345047164
pairs 1 path40 48 2.2797144341462796
pairs 4 path50 1159 2.301832925012381
pairs 1 path88 26 2.3095569005338845
pairs 18 path190 810 2.313886619802474
pairs 7 path240 1322 2.3166320348593934
pairs 7 path86 1345 2.32397496623892
pairs 18 path230 791 2.3254485087080727
pairs 12 path178 315 2.337751177243693
pairs 7 path244 1307 2.339449152884978
pairs 18 path98 871 2.349723388239513
pairs 7 path72 1350 2.349752220645793
pairs 8 path126 1459 2.3577102573237827
pairs 16 path30 611 2.358672970930454
pairs 17 path192 723 2.378561803000169
pairs 6 path120 1239 2.4074201904481622
pairs 2 path88 1013 2.407739453875577
pairs 17 path92 725 2.427431755393566
pairs 13 path166 416 2.428891931775658
pairs 11 path244 137 2.4339507916040217
pairs 7 path98 138 2.434483755931763
pairs 4 path116 1119 2.4357764840206353
pairs 1 path72 66 2.460897519528618
pairs 14 path142 540 2.4829885479790295
pairs 17 path116 763 2.4859711757143663
pairs 16 path92 659 2.4889349662606075
pairs 13 path152 415 2.493722783563998
pairs 2 path28 1585 2.495133369875294
pairs 2 path136 982 2.495373531692771
pairs 9 path30 1498 2.4977785222928244
pairs 17 path66 691 2.5008409304429637
pairs 6 path90 1252 2.5128709145853407
pairs 11 path64 208 2.5154459175790596
pairs 12 path28 296 2.51734358150803
pairs 3 path146 1081 2.5317857265165156
pairs 9 path52 1533 2.559782524437308
pairs 2 path78 1011 2.569739136473378
pairs 11 path278 265 2.572807119604356
pairs 12 path32 284 2.5762949743248487
pairs 9 path84 1562 2.579920965370762
pairs 18 path184 806 2.5837320797843897
pairs 0 path54 1573 2.588218904942439
pairs 16 path146 624 2.5935725137368126
pairs 3 path118 1071 2.6010362151237456
pairs 13 path158 430 2.603742911511834
pairs 12 path140 297 2.60753957254177
pairs 3 path114 1107 2.6088980666107804
pairs 11 path202 168 2.615408518572139
pairs 7 path184 1277 2.6196343214902518
pairs 18 path102 869 2.628839900070819
pairs 16 path128 663 2.632066650752671
pairs 2 path96 992 2.6346736931509773
pairs 11 path206 165 2.6500128980763558
pairs 7 path40 1311 2.651873559219292
pairs 3 path98 1075 2.6658909415688106
pairs 14 path36 541 2.6715036749055474
pairs 8 path212 1399 2.675556988785424
pairs 14 path124 551 2.679983128986749
pairs 16 path162 617 2.6943126406462623
pairs 3 path144 1086 2.6994887845223277
pairs 6 path176 1220 2.702987668271221
pairs 17 path26 684 2.70557966583602
pairs 2 path140 969 2.7091358939454024
pairs 16 path78 634 2.7140087835086235
pairs 18 path226 789 2.717125724999801
pairs 13 path64 1580 2.7202896144863984
pairs 12 path36 162 2.7476698996289897
pairs 12 path106 355 2.7496338358041843
pairs 18 path90 863 2.7515444705952996
pairs 18 path202 809 2.7536166737201366
pairs 1 path66 69 2.756005179902875
pairs 9 path92 1547 2.782587292618321
pairs 15 path68 572 2.7851594495888694
pairs 16 path150 610 2.7882979257298195
pairs 14 path50 526 2.789265245635468
pairs 2 path24 973 2.7906543973515556
pairs 13 path208 379 2.7932327082837607
pairs 11 path130 203 2.7945496533208867
pairs 13 path238 466 2.812575281148956
pairs 8 path244 1392 2.817542799178903
pairs 16 path200 594 2.8208321349966994
pairs 17 path84 739 2.82114386127116
pairs 11 path210 159 2.8221649475356045
pairs 3 path100 1074 2.831768224932604
pairs 6 path46 1187 2.837826411242089
pairs 3 path170 1083 2.8524134454245162
pairs 1 path96 32 2.856621830368654
pairs 8 path44 1460 2.870012519632447
pairs 7 path126 1336 2.8761244575542753
pairs 9 path118 1522 2.8844367884677693
pairs 13 path84 462 2.88722452022598
pairs 8 path94 1485 2.8894943650345204
pairs 1 path44 68 2.889523742940173
pairs 1 path70 71 2.8917226801444795
pairs 13 path40 376 2.89674219924172
pairs 6 path114 1264 2.8991687506422386
pairs 13 path50 447 2.901212351085084
pairs 18 path198 808 2.908154794158173
pairs 11 path270 261 2.9144534716128523
pairs 1 path114 44 2.91666219496668
pairs 18 path212 799 2.9205883886105255
pairs 7 path130 1334 2.9222818234212324
pairs 2 path114 1025 2.943231729379787
pairs 17 path148 702 2.95717107084476
pairs 13 path20 1579 2.9621946395400665
pairs 18 path120 835 2.9641879421921664
pairs 18 path168 844 2.969187665350143
pairs 13 path96 441 2.9830156427222083
pairs 14 path116 483 2.98918443460141
pairs 17 path160 779 2.9898531283034524
pairs 11 path170 275 2.994830690437186
pairs 5 path34 1172 3.0030993512923514
pairs 9 path102 1554 3.0155663633220238
pairs 2 path142 968 3.0192141308639737
pairs 11 path142 240 3.024921728754007
pairs 11 path284 187 3.0402689925556814
pairs 13 path100 442 3.0405700310583224
pairs 16 path58 675 3.042665158567689
pairs 10 path56 91 3.050104370350407
pairs 8 path64 1425 3.0664707676666585
pairs 4 path36 1133 3.0688670262094915
pairs 19 path160 963 3.0863733158923883
pairs 18 path236 785 3.0890975128275073
pairs 2 path46 998 3.099991697339759
pairs 6 path92 1253 3.10231999763112
pairs 9 path20 1506 3.1126283035575106
pairs 7 path146 1286 3.117136140726818
pairs 7 path176 1283 3.130020839642603
pairs 3 path154 1042 3.1416271217274083
pairs 13 path212 381 3.1440649227330257
pairs 6 path78 1268 3.1440870534025125
pairs 13 path60 457 3.1466568961643904
pairs 5 path24 1591 3.16029191226962
pairs 18 path210 798 3.165543519248983
pairs 2 path54 1019 3.1669427979306075
pairs 2 path126 981 3.1676454020393323
pairs 5 path50 1177 3.1706521966906247
pairs 5 path62 1165 3.1800064950871416
pairs 7 path132 1326 3.195297600844327
pairs 9 path136 530 3.197669515808235
pairs 13 path174 435 3.1978242726315713
pairs 7 path122 1351 3.1995416504190737
pairs 7 path100 1373 3.222319436967949
pairs 9 path66 1541 3.223043897173399
pairs 12 path44 303 3.232223882726789
pairs 19 path168 906 3.2382806129708026
pairs 12 path76 341 3.2396619003990508
pairs 4 path86 1157 3.240088627982437
pairs 0 path64 7 3.241392839378277
pairs 8 path264 1114 3.2422985674034193
pairs 11 path228 148 3.2429862251114745
pairs 12 path168 316 3.2477874229303647
pairs 8 path90 1484 3.250245874187105
pairs 17 path42 716 3.2539362581169917
pairs 7 path70 1335 3.263518305994446
pairs 13 path118 400 3.2802487311663584
pairs 3 path58 1057 3.2867158716852014
pairs 12 path42 302 3.291679881973865
pairs 9 path94 1560 3.310921080470327
pairs 13 path90 452 3.3121310969955364
pairs 6 path144 1190 3.31485078088543
pairs 3 path60 1059 3.3459492769343147
pairs 8 path210 1405 3.3502450025720067
pairs 16 path134 635 3.3575231815341704
pairs 18 path238 783 3.358006311390418
pairs 9 path122 1523 3.358013161480975
pairs 12 path130 318 3.3580937673035547
pairs 3 path54 1091 3.3629025702730164
pairs 14 path78 507 3.3648724858148817
pairs 7 path48 1306 3.366917125933571
pairs 9 path154 1510 3.396049024250319
pairs 9 path44 1499 3.4091726996635128
pairs 3 path150 1080 3.416892091148188
pairs 16 path42 615 3.43109799799801
pairs 8 path104 1446 3.432280287753299
pairs 6 path172 1215 3.4358193548081846
pairs 17 path72 772 3.4481564828219953
pairs 11 path162 191 3.470028276716687
pairs 14 path28 533 3.471961685321914
pairs 12 path92 339 3.4793104589489836
pairs 12 path82 348 3.4797179851183677
pairs 11 path36 270 3.4851867573221007
pairs 8 path250 1404 3.4929149130648467
pairs 2 path66 1002 3.4969156332783
pairs 16 path112 676 3.5029703913701447
pairs 1 path90 27 3.510213011570948
pairs 10 path98 81 3.5133650653989656
pairs 7 path172 1272 3.524237655157875
pairs 16 path116 677 3.528929450600876
pairs 16 path60 669 3.5300376375744755
pairs 1 path116 43 3.530905566070054
pairs 3 path76 1062 3.5398748241341202
pairs 19 path170 905 3.551871920670217
pairs 9 path68 1546 3.5839758251826197
pairs 11 path182 274 3.5871113683428537
pairs 6 path140 72 3.59012242528064
pairs 19 path144 945 3.600324828196562
pairs 8 path174 1440 3.6022311405027994
pairs 11 path238 134 3.606679705918636
pairs 10 path60 92 3.6106641028957673
pairs 7 path64 1331 3.620950061247577
pairs 9 path48 1529 3.623517005421566
pairs 19 path36 919 3.627150108251412
pairs 10 path36 107 3.6453436092303395
pairs 10 path38 110 3.6608493641278663
pairs 2 path94 1027 3.66225331138033
pairs 6 path160 1194 3.6629720592365858
pairs 16 path220 585 3.670762452827365
pairs 11 path46 273 3.6740786472652713
pairs 11 path60 224 3.6795424633488234
pairs 11 path212 173 3.6801602370976627
pairs 10 path106 73 3.6840878802661337
pairs 3 path28 1047 3.684190059794489
pairs 7 path50 1318 3.684374436794202
pairs 7 path62 1332 3.7071064649285876
pairs 2 path92 1028 3.7084346823915877
pairs 17 path64 689 3.7106401394613435
pairs 17 path170 713 3.733930072954258
pairs 6 path56 1234 3.734498007277993
pairs 16 path192 249 3.7390978634005267
pairs 18 path232 786 3.739735705172848
pairs 11 path242 131 3.7400493630848044
pairs 9 path112 1568 3.744602182879655
pairs 5 path22 1173 3.747243789356337
pairs 10 path40 111 3.749269313579599
pairs 3 path24 1040 3.7535414511354057
pairs 16 path72 679 3.7549123002669096
pairs 8 path20 1385 3.759591286544961
pairs 8 path134 1480 3.779252119563253
pairs 14 path128 489 3.7884622206507172
pairs 7 path194 1340 3.797568795998802
pairs 4 path60 1136 3.814206438149796
pairs 3 path48 1049 3.8165982583911444
pairs 12 path60 332 3.8327356386438236
pairs 2 path76 1020 3.8491009439852912
pairs 18 path58 847 3.8510743828346987
pairs 13 path236 470 3.8571036079547363
pairs 7 path84 1356 3.8616165049586693
pairs 14 path164 522 3.864634552737379
pairs 12 path66 351 3.876411694812076
pairs 2 path56 1023 3.8777046383274447
pairs 13 path216 378 3.881563863306458
pairs 11 path188 170 3.88309760649201
pairs 18 path188 820 3.886310393121113
pairs 6 path136 1228 3.8914449343159085
pairs 3 path122 1070 3.892186433691662
pairs 4 path118 1586 3.8923693849539776
pairs 17 path112 750 3.910054912573504
pairs 12 path120 333 3.9194557528631546
pairs 17 path52 699 3.9204602465777385
pairs 11 path246 139 3.9208550248884015
pairs 13 path66 454 3.925871500833016
pairs 16 path136 625 3.9277016478530866
pairs 14 path138 549 3.93085784635824
pairs 9 path56 1534 3.932427474201991
pairs 18 path26 780 3.938149643370586
pairs 3 path132 1063 3.938242751441355
pairs 17 path108 762 3.950632539371405
pairs 2 path58 1018 3.967953881815893
pairs 18 path76 879 3.974167562223146
pairs 1 path20 1577 3.983777647470628
pairs 18 path170 822 3.9878158397025714
pairs 2 path32 987 3.9907950650921133
pairs 4 path90 1140 3.9971012447007492
pairs 13 path228 472 4.01139064812623
pairs 6 path102 1243 4.014610426404315
pairs 6 path30 1210 4.021891171323578
pairs 10 path82 121 4.029339797049757
pairs 1 path106 35 4.030215619511089
pairs 8 path188 1422 4.059353243470897
pairs 19 path116 932 4.0616338379611765
pairs 4 path30 1093 4.065323972663399
pairs 2 path40 996 4.097197606081032
pairs 14 path92 502 4.099101952513217
pairs 11 path250 132 4.121667030650179
pairs 11 path82 246 4.123134995191509
pairs 11 path28 254 4.13357812792541
pairs 18 path36 830 4.140104536868807
pairs 13 path42 410 4.150332479742815
pairs 19 path138 949 4.157111494511818
pairs 9 path62 1540 4.178250006897926
pairs 2 path104 985 4.1807285211196765
pairs 10 path44 100 4.204747015111196
pairs 19 path56 920 4.21456824004118
pairs 2 path62 1003 4.215597363749718
pairs 19 path92 958 4.226074769688333
pairs 19 path134 962 4.226488233061869
pairs 18 path158 856 4.22966931795046
pairs 16 path94 654 4.244988140920451
pairs 11 path222 141 4.249831187774479
pairs 8 path232 1381 4.258371463454366
pairs 16 path76 643 4.264992810306996
pairs 11 path110 216 4.2652689755508275
pairs 16 path106 658 4.26753353601901
pairs 3 path142 1087 4.270091960591506
pairs 7 path96 1370 4.272863641234367
pairs 14 path98 513 4.27604819147059
pairs 16 path166 612 4.276873669965044
pairs 3 path110 1069 4.279470889493895
pairs 2 path84 1015 4.279691715819868
pairs 9 path126 391 4.282885190477737
pairs 16 path108 670 4.291326707755249
pairs 7 path20 1290 4.292607106309834
pairs 11 path72 234 4.298025932520362
pairs 7 path92 1374 4.303069960467962
pairs 10 path110 74 4.303322418538563
pairs 5 path38 1181 4.304026378551892
pairs 6 path40 1209 4.30999755859375
pairs 19 path132 900 4.325608787423734
pairs 7 path28 1289 4.3284359009701365
pairs 6 path112 1265 4.33141371562418
pairs 8 path162 1418 4.334547891121808
pairs 8 path206 1393 4.334712138236574
pairs 1 path60 55 4.346267537100686
pairs 16 path104 657 4.35034016729528
pairs 10 path84 122 4.360771673709961
pairs 15 path82 554 4.361475737128392
pairs 3 path38 1032 4.3623253681144405
pairs 16 path120 680 4.384649514782855
pairs 14 path32 535 4.400691464279768
pairs 8 path180 1433 4.405582717747944
pairs 7 path164 1278 4.412382611777332
pairs 7 path174 1282 4.4137173841866835
pairs 11 path44 272 4.427734605221948
pairs 1 path118 42 4.4409416231654735
pairs 16 path40 632 4.445468623742691
pairs 18 path88 866 4.4522143641680385
pairs 11 path218 152 4.455395446423828
pairs 2 path50 1031 4.465215491979179
pairs 7 path26 1288 4.494937588914825
pairs 11 path180 180 4.503564208087367
pairs 8 path240 1382 4.516244206313002
pairs 11 path126 214 4.532673300220177
pairs 18 path80 877 4.532835956304539
pairs 17 path176 777 4.539283960835909
pairs 7 path66 1330 4.541898367846177
pairs 17 path104 681 4.556453343933863
pairs 9 path42 1501 4.55757985726589
pairs 19 path146 944 4.567430640739563
pairs 19 path140 948 4.570754423131541
pairs 12 path152 287 4.573905558786468
pairs 4 path48 1161 4.576293362281129
pairs 14 path70 498 4.587608083178847
pairs 9 path186 1526 4.623880731884087
pairs 8 path136 1476 4.627049229333538
pairs 9 path40 1535 4.627576364870933
pairs 15 path26 565 4.62900315167709
pairs 6 path22 1211 4.629224047636391
pairs 18 path242 841 4.641565982065042
pairs 19 path182 894 4.644568847094214
pairs 18 path186 819 4.647107540837328
pairs 16 path180 602 4.6488063509640885
pairs 8 path208 1400 4.649975050358083
pairs 7 path116 1353 4.650682312522433
pairs 16 path28 614 4.661352700299385
pairs 7 path138 1320 4.66226717965907
pairs 10 path58 86 4.670021279931118
pairs 5 path32 1171 4.673601661516779
pairs 16 path34 621 4.673884543780965
pairs 7 path120 1352 4.735243092948835
pairs 14 path136 550 4.740461176765741
pairs 11 path266 259 4.750779644085585
pairs 3 path152 1043 4.7567290433284795
pairs 3 path138 1084 4.765998343496645
pairs 12 path184 313 4.7732719386431794
pairs 11 path164 181 4.787545171583238
pairs 18 path52 812 4.7900865544678055
pairs 6 path162 1207 4.79521637398694
pairs 13 path140 438 4.800754848901151
pairs 16 path38 636 4.804867748145871
pairs 8 path228 1117 4.8199766596957625
pairs 3 path148 1078 4.822110019898989
pairs 18 path100 881 4.824990932735265
pairs 3 path104 1111 4.826703730045459
pairs 12 path104 327 4.842679836509428
pairs 7 path196 1347 4.8500362535601385
pairs 8 path184 1407 4.857712999615036
pairs 13 path120 390 4.865443231796475
pairs 12 path22 143 4.870498167406038
pairs 17 path178 778 4.878777801802904
pairs 4 path26 1127 4.879976273787348
pairs 17 path36 720 4.889761285563416
pairs 13 path94 443 4.891999652113775
pairs 14 path162 521 4.893989150984427
pairs 11 path80 236 4.901235766248824
pairs 8 path166 1419 4.903069729642392
pairs 4 path22 1126 4.912367030400476
pairs 19 path94 947 4.913010337993299
pairs 6 path148 1191 4.916299917910801
pairs 19 path48 927 4.918620977942279
pairs 8 path146 1450 4.928564328348113
pairs 11 path176 176 4.934666740525432
pairs 11 path134 201 4.935153319016916
pairs 19 path58 922 4.941359016603584
pairs 19 path180 896 4.941716566349933
pairs 4 path46 1106 4.946404095561375
pairs 19 path150 959 4.956171549278998
pairs 11 path184 177 4.974584977989146
pairs 17 path138 758 4.980020707864872
pairs 5 path46 1178 4.9835697405708155
pairs 6 path186 1216 4.988452803967139
pairs 11 path254 135 4.992886657575124
pairs 8 path252 1410 4.997383871318041
pairs 0 path26 14 5.00025615799654
pairs 14 path160 523 5.003080519585042
pairs 9 path74 1559 5.004658630560561
pairs 17 path54 701 5.0122406928209084
pairs 18 path116 849 5.019413313333651
pairs 18 path128 829 5.0269853724276015
pairs 3 path50 1053 5.0272514366093795
pairs 11 path70 206 5.028109748901405
pairs 17 path40 718 5.038420942777119
pairs 17 path152 695 5.0405656576063125
pairs 8 path138 1478 5.055402750826245
pairs 3 path120 1072 5.063170113849923
pairs 13 path206 383 5.067794489848968
pairs 16 path158 616 5.0799224559988705
pairs 2 path52 1022 5.094602464141022
pairs 3 path166 1088 5.095506464806567
pairs 18 path130 827 5.095526386966852
pairs 13 path142 440 5.105455197974463
pairs 9 path76 1564 5.107681380238272
pairs 10 path116 115 5.109971973996469
pairs 10 path24 88 5.1116637290835385
pairs 19 path156 966 5.120625114475983
pairs 16 path52 651 5.122998489706945
pairs 1 path64 56 5.127370455150817
pairs 11 path196 185 5.130430240640513
pairs 19 path68 931 5.1447062304210025
pairs 2 path100 989 5.1523095976454645
pairs 5 path56 1166 5.154523289281007
pairs 12 path150 278 5.156943750762458
pairs 13 path176 408 5.159096747314224
pairs 0 path46 12 5.160456191708407
pairs 7 path56 1329 5.169746200869281
pairs 6 path52 1229 5.171162056709504
pairs 7 path36 1315 5.173566892470872
pairs 11 path24 264 5.182979165361882
pairs 18 path206 792 5.1831310338967915
pairs 6 path36 1180 5.18591041628626
pairs 4 path44 1156 5.191195302342333
pairs 8 path140 1453 5.191397575790242
pairs 18 path148 855 5.1920938667914465
pairs 17 path188 727 5.207691872593451
pairs 9 path130 1570 5.218558735272857
pairs 6 path154 1184 5.220928445814006
pairs 16 path44 627 5.2290889400194045
pairs 4 path126 1130 5.248438067509296
pairs 17 path142 744 5.264920130904566
pairs 14 path42 537 5.268405223932461
pairs 17 path132 741 5.271607525105359
pairs 3 path140 1085 5.275226931400579
pairs 17 path146 708 5.283927298464799
pairs 15 path22 566 5.293066068072231
pairs 2 path110 1026 5.293437698395107
pairs 2 path60 1009 5.310459028908505
pairs 8 path56 1411 5.313671141624891
pairs 11 path128 196 5.316499863766662
pairs 1 path76 51 5.319320405909745
pairs 12 path218 292 5.320091903012621
pairs 17 path106 757 5.322448096078385
pairs 2 path68 1001 5.329786352081308
pairs 8 path62 1430 5.334854817962874
pairs 19 path108 961 5.343324937492638
pairs 6 path76 1260 5.344402865911683
pairs 8 path266 1387 5.3469391342688795
pairs 1 path28 21 5.353232386608026
pairs 17 path70 774 5.35732812361369
pairs 16 path138 623 5.371656856929418
pairs 3 path160 1089 5.37340474609582
pairs 2 path138 970 5.378649260858947
pairs 18 path182 814 5.384769244775673
pairs 8 path176 1432 5.385404664406846
pairs 17 path194 730 5.404457651000177
pairs 15 path30 1581 5.405789754169639
pairs 13 path52 444 5.418656643480223
pairs 19 path158 899 5.420637913929875
pairs 8 path248 1408 5.422273355328312
pairs 12 path138 299 5.424972134159581
pairs 2 path98 990 5.434595870568842
pairs 7 path150 1297 5.440067035062284
pairs 7 path94 136 5.44517687243135
pairs 7 path220 1379 5.454836456936128
pairs 13 path102 433 5.470847142566613
pairs 13 path98 432 5.479507834127139
pairs 8 path74 1469 5.483857302943033
pairs 7 path24 1292 5.484717696514462
pairs 3 path128 1030 5.490239955230233
pairs 12 path202 364 5.492430041142059
pairs 19 path104 955 5.494537868371018
pairs 12 path68 356 5.503488963510862
pairs 7 path162 1304 5.504666049412251
pairs 18 path96 872 5.505314570980502
pairs 7 path102 1368 5.515129607771451
pairs 11 path204 167 5.515540710705485
pairs 2 path130 971 5.516968843021282
pairs 11 path84 238 5.53175315514847
pairs 0 path42 8 5.5396211834868465
pairs 6 path106 1267 5.544769353875132
pairs 1 path108 34 5.553413773637949
pairs 1 path78 49 5.555615582642678
pairs 12 path134 309 5.583943033365557
pairs 16 path64 648 5.584125798873894
pairs 9 path28 1508 5.58581955077032
pairs 6 path124 1237 5.586300709393544
pairs 19 path124 921 5.59022829086309
pairs 12 path126 322 5.60419027024094
pairs 3 path66 1054 5.618058325248091
pairs 17 path100 749 5.618494845299819
pairs 19 path174 903 5.621605692478769
pairs 10 path64 102 5.624688316028094
pairs 5 path54 1167 5.630003211147578
pairs 8 path132 1481 5.632896306648542
pairs 6 path126 1231 5.652698332470849
pairs 17 path94 726 5.658474997309175
pairs 17 path90 719 5.664064228534435
pairs 7 path22 1291 5.6761991049796805
pairs 7 path82 1363 5.680416425081759
pairs 17 path38 717 5.682289392857369
pairs 8 path160 1434 5.682551723666277
pairs 19 path40 854 5.682644250627979
pairs 1 path22 62 5.703505070825463
pairs 11 path20 262 5.7119667019991
pairs 7 path206 1377 5.715608294367688
pairs 18 path178 800 5.7319433302536265
pairs 16 path50 646 5.7332584063167635
pairs 9 path72 1558 5.737866746033562
pairs 9 path120 1518 5.740058682804166
pairs 18 path74 883 5.748100871005224
pairs 19 path164 897 5.74835435010586
pairs 11 path156 190 5.749469468595281
pairs 13 path148 422 5.750138975943998
pairs 8 path116 1472 5.753137081618939
pairs 8 path256 1403 5.753790772348181
pairs 13 path62 456 5.766856398026887
pairs 17 path124 752 5.766936804565921
pairs 8 path226 1116 5.775301965585129
pairs 13 path130 413 5.779165037932633
pairs 3 path168 1092 5.78413082368155
pairs 17 path102 756 5.794686084433518
pairs 7 path232 1313 5.8110763860704235
pairs 2 path90 1029 5.821824157828651
pairs 11 path66 209 5.822629553488651
pairs 4 path40 1151 5.830638407457598
pairs 16 path84 639 5.832917068956477
pairs 11 path150 193 5.845442615073942
pairs 1 path30 61 5.84739689014495
pairs 19 path82 938 5.8485508605851155
pairs 13 path112 409 5.852377071204278
pairs 19 path20 888 5.856760977849529
pairs 14 path46 519 5.866217827245166
pairs 7 path202 1375 5.87881871820472
pairs 13 path180 407 5.895572563818603
pairs 8 path80 280 5.896499564767102
pairs 5 path26 1168 5.90895477502679
pairs 11 path94 231 5.92294072699672
pairs 8 path32 1416 5.925822958925371
pairs 13 path48 411 5.930835375611332
pairs 6 path150 1189 5.939445972281518
pairs 16 path32 622 5.947042154571174
pairs 11 path108 205 5.94931335085961
pairs 6 path108 1266 5.961418976406101
pairs 7 path224 1280 5.9680607504676875
pairs 7 path190 1285 5.9751093372682185
pairs 9 path80 1550 5.993206073827566
pairs 4 path108 1122 6.000338374491313
pairs 8 path30 1406 6.001888588286391
pairs 16 path102 656 6.003759011304146
pairs 12 path186 320 6.007019746225876
pairs 6 path166 1202 6.007050463722252
pairs 11 path208 164 6.010870759396143
pairs 15 path34 577 6.012064981513541
pairs 19 path90 940 6.0133254533576315
pairs 12 path48 304 6.023007361444917
pairs 8 path172 1437 6.033672602853342
pairs 5 path42 1593 6.034631520517808
pairs 1 path36 64 6.051607400036194
pairs 7 path218 1361 6.055976435456281
pairs 11 path268 146 6.060822182505089
pairs 14 path140 544 6.062393986682026
pairs 11 path54 222 6.063221707228027
pairs 9 path70 1548 6.074955315104239
pairs 13 path144 437 6.0758083471415265
pairs 12 path70 360 6.079993005065439
pairs 3 path96 1073 6.09123799590823
pairs 10 path62 103 6.096757511058938
pairs 19 path50 925 6.100195709639859
pairs 19 path120 911 6.101235886805901
pairs 14 path48 528 6.102649693078421
pairs 16 path210 591 6.103970967588328
pairs 9 path176 1511 6.107378090380367
pairs 18 path84 882 6.115827451025091
pairs 19 path100 941 6.126076336423201
pairs 12 path74 345 6.130127614461394
pairs 11 path152 184 6.131169270305741
pairs 9 path128 387 6.143530069889147
pairs 7 path186 1279 6.143778144447084
pairs 6 path24 1212 6.149186938124422
pairs 11 path200 166 6.150141472916831
pairs 10 path104 76 6.150610838817114
pairs 13 path230 471 6.173006106800062
pairs 16 path202 600 6.184425376474998
pairs 11 path216 157 6.1926187988564445
pairs 12 path84 349 6.19493061562731
pairs 19 path122 918 6.194966214319765
pairs 11 path42 271 6.205749589400881
pairs 11 path78 243 6.221793248776745
pairs 1 path112 39 6.244921604774375
pairs 15 path86 555 6.245995714332722
pairs 0 path48 13 6.247721967688998
pairs 19 path118 914 6.248670452382411
pairs 12 path54 330 6.260739066767
pairs 18 path124 828 6.273285361641748
pairs 18 path78 878 6.273820781415481
pairs 6 path196 1221 6.298044100988944
pairs 8 path66 1431 6.301311646564245
pairs 9 path88 1536 6.307956413249156
pairs 7 path76 1358 6.328220986964495
pairs 16 path98 642 6.3298535293899425
pairs 8 path24 1389 6.330128217848255
pairs 4 path20 1128 6.344766197859494
pairs 2 path132 972 6.371263440446263
pairs 18 path38 831 6.380155405294152
pairs 8 path54 1427 6.381691125118411
pairs 1 path120 45 6.3821476551562855
pairs 17 path32 686 6.386234662465623
pairs 14 path86 512 6.406464394319751
pairs 8 path202 1402 6.415786965605279
pairs 11 path276 258 6.415807645042707
pairs 0 path62 1571 6.421476473172682
pairs 4 path56 1152 6.426165552735008
pairs 9 path194 1491 6.430179046003179
pairs 17 path34 729 6.431837540640668
pairs 1 path102 37 6.433271645022912
pairs 17 path96 737 6.445573256159713
pairs 11 path32 252 6.446284354286666
pairs 6 path88 1257 6.4472035370650795
pairs 13 path126 465 6.45001524270321
pairs 18 path86 880 6.462999028818169
pairs 11 path240 130 6.466360922842706
pairs 16 path196 593 6.47174034713343
pairs 8 path156 1435 6.47806681871625
pairs 8 path58 1441 6.480636328142383
pairs 3 path124 1065 6.481245929929753
pairs 19 path114 933 6.485341866923539
pairs 2 path74 1021 6.485857530101788
pairs 6 path48 1192 6.497818592420537
pairs 12 path24 161 6.498311205926388
pairs 11 path262 153 6.501536761515323
pairs 8 path130 1482 6.504028855849265
pairs 3 path42 1034 6.505779572569758
pairs 8 path112 1462 6.5068101906757265
pairs 8 path128 380 6.506974023152147
pairs 11 path224 142 6.507387992607639
pairs 16 path124 664 6.510370880760682
pairs 9 path64 1544 6.518044926859955
pairs 4 path102 1589 6.531501789407226
pairs 8 path222 1380 6.541555087971405
pairs 2 path82 1010 6.546416697928218
pairs 19 path62 929 6.5468155874848835
pairs 10 path92 83 6.552193485046393
pairs 3 path86 1100 6.561241866036037
pairs 9 path132 1516 6.562466406168557
pairs 13 path82 463 6.573606579884052
pairs 10 path100 77 6.575947888476927
pairs 11 path62 223 6.583773814220504
pairs 6 path62 1247 6.589757844413608
pairs 12 path122 324 6.59591148669768
pairs 4 path24 1129 6.605194387417885
pairs 17 path80 740 6.614840193921313
pairs 5 path48 1592 6.620699936694772
pairs 19 path142 943 6.6277055796613
pairs 3 path130 1052 6.631564053594449
pairs 17 path196 731 6.6368106619008955
pairs 7 path204 1376 6.643598055077676
pairs 14 path114 484 6.650869781328807
pairs 11 path256 147 6.656827764319598
pairs 16 path24 598 6.656981142911824
pairs 7 path242 1321 6.660907459473726
pairs 16 path20 557 6.661964684372409
pairs 18 path152 853 6.664822428889094
pairs 1 path92 29 6.666284365522158
pairs 9 path124 392 6.678277333789442
pairs 19 path66 930 6.6824709332605865
pairs 3 path56 1058 6.689450714013438
pairs 9 path32 1495 6.698566079725092
pairs 13 path164 417 6.705861613653839
pairs 3 path164 1046 6.710623128233919
pairs 2 path118 1008 6.736303874766012
pairs 16 path26 1584 6.738973830124735
pairs 14 path146 539 6.740712680899076
pairs 14 path94 503 6.742492642354434
pairs 0 path20 3 6.752549523943033
pairs 8 path246 1397 6.753977043813378
pairs 7 path168 1275 6.758490152091959
pairs 19 path34 915 6.759091979675993
pairs 7 path118 1344 6.780967100635256
pairs 8 path34 1417 6.79324729743206
pairs 3 path44 1048 6.796595813235122
pairs 16 path160 608 6.803065280987317
pairs 13 path162 419 6.815390893246628
pairs 19 path44 845 6.825917327647435
pairs 8 path214 1108 6.861282302636358
pairs 12 path72 359 6.871565191386123
pairs 13 path46 412 6.872905622041254
pairs 9 path46 1530 6.876754555954287
pairs 1 path50 57 6.876824182744112
pairs 16 path46 650 6.88841398240467
pairs 7 path44 1305 6.891808385841548
pairs 9 path170 1505 6.897119724849319
pairs 11 path178 175 6.897475667316923
pairs 18 path172 887 6.901624670781252
pairs 8 path260 1415 6.91151008860422
pairs 7 path144 1294 6.912737231749508
pairs 14 path108 486 6.920243000349899
pairs 2 path48 1017 6.928098361862104
pairs 17 path46 704 6.931411285037933
pairs 8 path68 1445 6.94564973878132
pairs 13 path196 388 6.950882664249275
pairs 14 path96 514 6.9571509974785375
pairs 11 path52 114 6.965035005575847
pairs 7 path134 1323 6.9720942386292855
pairs 1 path122 24 6.975395059103506
pairs 18 path156 861 6.979987646087873
pairs 14 path20 468 7.007037304271725
pairs 8 path268 1162 7.007869347725335
pairs 9 path148 1565 7.011667250866496
pairs 18 path214 515 7.012928208727242
pairs 18 path42 816 7.016017660229687
pairs 13 path24 397 7.0207971590887395
pairs 11 path132 194 7.0242009318175285
pairs 19 path70 876 7.036935910644826
pairs 9 path50 1492 7.0604545399424135
pairs 2 path116 997 7.070157363675441
pairs 18 path146 860 7.071412811492456
pairs 12 path38 298 7.091024006448959
pairs 18 path174 885 7.104424306538663
pairs 11 path264 140 7.123628294515193
pairs 4 path32 1095 7.128842842198918
pairs 16 path148 629 7.150881406054934
pairs 18 path192 796 7.186696991494618
pairs 12 path94 344 7.191125777060025
pairs 11 path48 198 7.197739387820007
pairs 8 path192 1412 7.2004564878306025
pairs 10 path120 117 7.201572677098584
pairs 12 path204 363 7.202172103459059
pairs 9 path38 1496 7.204088480347246
pairs 11 path58 225 7.223784570826191
pairs 3 path92 1101 7.236114531748283
pairs 9 path140 520 7.2394193435466985
pairs 18 path200 807 7.24459542292898
pairs 8 path194 1423 7.2548179455397825
pairs 4 path114 1125 7.257405956064418
pairs 4 path124 1131 7.26990618828128
pairs 3 path64 1056 7.274929777821187
pairs 18 path160 846 7.281819143532483
pairs 7 path198 1348 7.292124500915944
pairs 10 path34 106 7.301527558510361
pairs 8 path142 1454 7.302806365450757
pairs 8 path218 1109 7.305958370396617
pairs 8 path230 1115 7.305989362609271
pairs 18 path92 862 7.311665150066562
pairs 5 path58 1164 7.315479344342161
pairs 13 path38 325 7.329115138336762
pairs 17 path126 754 7.333461190164825
pairs 0 path52 1574 7.334283053618623
pairs 1 path26 20 7.342202912177154
pairs 11 path234 156 7.349244394105051
pairs 19 path98 946 7.354451703844197
pairs 19 path126 964 7.360780145520093
pairs 15 path62 558 7.362542686810231
pairs 1 path110 38 7.373599747903521
pairs 11 path192 171 7.377788277261138
pairs 4 path104 1588 7.394326487860894
pairs 18 path154 852 7.4049812897145415
pairs 16 path154 628 7.411261094848327
pairs 8 path22 1384 7.42406953082015
pairs 16 path122 665 7.425913966817481
pairs 6 path110 1255 7.431712099350686
pairs 1 path52 50 7.435477969957831
pairs 17 path118 764 7.443036529097864
pairs 2 path124 1007 7.4478320337313155
pairs 3 path80 1096 7.45303276942625
pairs 14 path90 500 7.4686331450526415
pairs 2 path122 1006 7.470019916883852
pairs 18 path70 890 7.47705778961324
pairs 18 path218 797 7.491375159651144
pairs 12 path78 338 7.500148517471801
pairs 11 path30 263 7.505997723891475
pairs 9 path104 1551 7.526308248058836
pairs 12 path40 174 7.530476765947936
pairs 8 path42 1458 7.532460123894907
pairs 11 path40 268 7.541107664646371
pairs 17 path150 690 7.549261771635343
pairs 17 path30 683 7.552468489551948
pairs 11 path86 235 7.555416263662394
pairs 1 path58 59 7.568262593358107
pairs 11 path124 215 7.570569287463342
pairs 15 path78 248 7.582390944514291
pairs 6 path54 1235 7.598152840487632
pairs 10 path26 95 7.618304488679158
pairs 7 path78 1371 7.6239111839569
pairs 19 path172 904 7.62813870627476
pairs 2 path80 1012 7.639641392521838
pairs 19 path24 891 7.647118701740429
pairs 9 path178 1502 7.669440884889355
pairs 8 path70 1489 7.679692300385598
pairs 11 path272 260 7.682585281909154
pairs 6 path130 1232 7.689689151047369
pairs 11 path118 212 7.691034496200328
pairs 19 path42 928 7.691878589804185
pairs 3 path88 1098 7.700923030914601
pairs 12 path64 353 7.709220458572323
pairs 14 path82 508 7.72240960505617
pairs 15 path74 568 7.7414003616497
pairs 9 path192 1525 7.74758268004831
pairs 6 path68 1251 7.749363554405284
pairs 1 path74 67 7.756693987248106
pairs 7 path200 1349 7.757835627528096
pairs 4 path110 1145 7.7655875614177905
pairs 7 path60 1337 7.776928120589625
pairs 6 path64 1249 7.8048659420353745
pairs 2 path64 1004 7.818964060228556
pairs 7 path68 1333 7.84082295989898
pairs 15 path52 563 7.84509112046318
pairs 17 path156 688 7.847616118021819
pairs 1 path98 25 7.853298822319142
pairs 16 path140 619 7.864176971813965
pairs 3 path94 1076 7.866580422862186
pairs 18 path44 825 7.8696514683638075
pairs 15 path24 570 7.883551702835816
pairs 2 path44 1000 7.885186060983207
pairs 15 path58 560 7.893616249338062
pairs 13 path54 446 7.899815497091064
pairs 9 path164 1556 7.912554983549507
pairs 2 path70 991 7.920734567255752
pairs 5 path44 1179 7.923952952685896
pairs 8 path100 1461 7.944059820130451
pairs 16 path178 596 7.947438140561388
pairs 9 path152 1597 7.949656776947456
pairs 12 path188 374 7.955847377576541
pairs 8 path26 1401 7.966114175749413
pairs 18 path180 815 7.9917988282374735
pairs 18 path94 864 7.995691839319478
pairs 16 path82 626 7.999825559633704
pairs 7 path142 1300 8.021603125266068
pairs 9 path34 1493 8.023221031495051
pairs 17 path204 771 8.027308605838941
pairs 10 path86 124 8.048870835657247
pairs 19 path112 935 8.07412993576486
pairs 11 path120 227 8.080890665377755
pairs 9 path100 1555 8.095855279431374
pairs 9 path82 1561 8.108884522777771
pairs 4 path78 1123 8.10949022678877
pairs 13 path74 460 8.117387485518869
pairs 9 path172 1531 8.118995169895994
pairs 14 path88 501 8.145615858590066
pairs 15 path70 571 8.16181990432395
pairs 8 path220 1112 8.209813618002546
pairs 7 path160 1295 8.215707252231901
pairs 16 path68 673 8.216399393562124
pairs 19 path162 898 8.217159764787096
pairs 8 path36 1429 8.21955456086154
pairs 10 path112 75 8.228325117034526
pairs 11 path172 179 8.237207887066065
pairs 8 path224 1388 8.239783679396066
pairs 2 path120 1005 8.24645285076337
pairs 11 path252 133 8.251977615771546
pairs 19 path130 912 8.255457844884475
pairs 3 path106 1068 8.27025783890522
pairs 9 path54 1538 8.271386874062255
pairs 9 path196 1569 8.298269415598913
pairs 1 path48 52 8.301936991622112
pairs 13 path226 473 8.306642532124178
pairs 12 path198 366 8.309192815346302
pairs 11 path140 242 8.319383630706533
pairs 18 path104 870 8.362244311890674
pairs 12 path216 293 8.366803994481405
pairs 7 path154 1281 8.382197892935434
pairs 2 path128 976 8.38803471714531
pairs 6 path86 1254 8.395958064271301
pairs 6 path128 1262 8.422879784135946
pairs 13 path56 445 8.429971873106648
pairs 18 path134 817 8.43001637450326
pairs 19 path176 902 8.470054398951323
pairs 12 path136 305 8.475778571204547
pairs 8 path76 1467 8.49016947334253
pairs 16 path62 652 8.504831014543994
pairs 18 path110 867 8.514003827921453
pairs 7 path180 1270 8.522752232449163
pairs 11 path56 221 8.53463203339241
pairs 12 path142 294 8.535629892464895
pairs 19 path26 895 8.537589731040944
pairs 12 path98 335 8.54003675541484
pairs 2 path26 974 8.553975562568597
pairs 5 path52 1176 8.563989047109745
pairs 17 path162 703 8.56752674643242
pairs 8 path216 1110 8.584984996791992
pairs 11 path98 219 8.598683467458006
pairs 12 path26 160 8.605775057674636
pairs 18 path196 802 8.630678030812179
pairs 10 path90 80 8.639078663376571
pairs 10 path46 96 8.6404554741584
pairs 16 path190 251 8.645758971527416
pairs 8 path262 1113 8.67873010127506
pairs 10 path78 126 8.68334404869072
pairs 13 path182 386 8.686464566392594
pairs 8 path38 1455 8.728246500641667
pairs 11 path90 237 8.735985095920107
pairs 8 path258 1414 8.747701354090227
pairs 6 path26 1198 8.749142297529678
pairs 16 path56 668 8.751708242867714
pairs 12 path146 291 8.756047073452505
pairs 13 path168 429 8.778548790806626
pairs 7 path54 1327 8.81105495692708
pairs 19 path186 910 8.818429197201848
pairs 2 path22 979 8.825918385731631
pairs 6 path60 1245 8.844806290463879
pairs 1 path24 19 8.846799924075286
pairs 12 path20 144 8.881227141125812
pairs 3 path136 1082 8.88198065726356
pairs 1 path62 53 8.884747953181408
pairs 13 path86 451 8.889577980981759
pairs 14 path72 506 8.91324653639626
pairs 4 path76 1146 8.95140994836593
pairs 9 path24 1494 8.963226409461187
pairs 13 path186 385 8.96804973859371
pairs 12 path172 314 8.974566333208863
pairs 4 path88 1153 8.992774497625046
pairs 11 path114 202 9.00994143861302
pairs 7 path108 1366 9.02233420744515
pairs 7 path158 1299 9.02500219119072
pairs 6 path42 1204 9.03131606810404
pairs 10 path50 89 9.042143470766717
pairs 9 path144 1567 9.063814492507825
pairs 4 path66 1135 9.081814850926051
pairs 17 path58 775 9.081948046662049
pairs 12 path196 367 9.092679108982681
pairs 16 path172 607 9.104523308653825
pairs 6 path100 1244 9.105921311425782
pairs 8 path234 1386 9.115574700734154
pairs 18 path46 833 9.138740087477968
pairs 19 path110 934 9.151875789627711
pairs 15 path84 556 9.15263762070446
pairs 8 path102 1464 9.160828121704867
pairs 13 path116 401 9.165952330719676
pairs 8 path50 1487 9.17475690723918
pairs 9 path174 1512 9.17981377575644
pairs 18 path112 873 9.183814343659234
pairs 8 path40 1456 9.194096406315534
pairs 14 path56 480 9.20214138124162
pairs 3 path40 1035 9.231563819670187
pairs 9 path58 1539 9.24866274909856
pairs 16 path22 597 9.279067238596534
pairs 15 path48 581 9.289255937867374
pairs 12 path144 295 9.29312771906344
pairs 8 path150 1444 9.30572278038969
pairs 7 path140 1303 9.33657984324424
pairs 7 path38 1312 9.338663298471333
pairs 19 path46 924 9.344261526428312
pairs 17 path74 722 9.34616851803838
pairs 14 path150 479 9.370832406995657
pairs 2 path86 1014 9.372098741232868
pairs 11 path232 155 9.402808927313593
pairs 11 path96 233 9.408446509555278
pairs 11 path260 154 9.42324171010739
pairs 7 path46 1310 9.424725455023307
pairs 4 path112 1124 9.428472107361978
pairs 10 path102 78 9.46492773771315
pairs 14 path60 481 9.47201784962925
pairs 7 path152 1296 9.47514121663107
pairs 8 path170 1439 9.47840751057279
pairs 6 path174 1219 9.480407640429561
pairs 14 path30 529 9.4827995551155
pairs 12 path112 352 9.48759917912895
pairs 4 path70 1149 9.506333985324478
pairs 9 path138 531 9.511920692211406
pairs 16 path156 618 9.518092691137367
pairs 7 path214 1354 9.531277402658624
pairs 12 path132 317 9.539726909216842
pairs 8 path96 1466 9.553594520481097
pairs 11 path280 172 9.560678231045136
pairs 16 path164 604 9.561223831066528
pairs 3 path134 1033 9.572231397549226
pairs 3 path36 1036 9.574892008917272
pairs 13 path218 377 9.590721387096734
pairs 6 path152 1185 9.60580317321452
pairs 16 path70 649 9.606921015419777
pairs 8 path52 1428 9.611459287426467
pairs 4 path64 1134 9.625611822329844
pairs 4 path62 1141 9.629325032751083
pairs 6 path178 1200 9.630718826633053
pairs 4 path38 1150 9.647963011530658
pairs 0 path44 1572 9.655623629579663
pairs 16 path214 582 9.656568652187143
pairs 8 path236 1383 9.66980556922957
pairs 11 path26 253 9.684461460848595
pairs 8 path190 1413 9.690642591342533
pairs 13 path34 384 9.716552257921226
pairs 13 path242 399 9.73033987520673
pairs 7 path226 1271 9.737397898559022
pairs 11 path34 267 9.740767864689072
pairs 14 path68 499 9.743636838393561
pairs 2 path134 978 9.758573876921773
pairs 13 path136 453 9.766197720708991
pairs 8 path158 1449 9.780246885990206
pairs 10 path76 125 9.791928099653372
pairs 16 path126 660 9.796894943674829
pairs 6 path190 1201 9.859990432471776
pairs 7 path234 1324 9.86341305729638
pairs 6 path122 1236 9.876916821001773
pairs 11 path88 239 9.885689414538339
pairs 8 path108 1447 9.888300855013929
pairs 6 path38 1227 9.948579882318768
pairs 17 path20 698 9.960587540727492
pairs 13 path114 403 9.968255534883703
pairs 13 path172 434 9.974644637545044
pairs 17 path158 692 9.985421123308983
pairs 14 path84 511 9.989740776264952
pairs 11 path116 213 9.996048823975306
pairs 13 path178 402 9.998264162134053
pairs 3 path34 1037 10.004489094949479
pairs 1 path46 58 10.018307005497123
pairs 8 path148 1477 10.018798185974513
pairs 15 path76 247 10.027417945654655
pairs 1 path124 23 10.056122587874922
pairs 1 path84 40 10.080492360061829
pairs 3 path90 1103 10.095898421736727
pairs 16 path186 595 10.096979961642308
pairs 8 path72 1470 10.101005342825596
pairs 12 path162 308 10.146233143279973
pairs 13 path128 420 10.163211013540767
pairs 0 path36 18 10.163502674826871
pairs 4 path58 1142 10.19727863704755
pairs 8 path178 1421 10.207270483725507
pairs 7 path114 1362 10.20951816122328
pairs 14 path62 492 10.211026379213774
pairs 7 path210 1364 10.212356878257406
pairs 18 path240 795 10.229382881955315
pairs 7 path170 1276 10.235659348091513
pairs 11 path274 255 10.267955388553732
pairs 11 path286 226 10.278175553097553
pairs 19 path38 916 10.278606485408886
pairs 8 path48 1488 10.28445758051102
pairs 14 path66 496 10.34248101166187
pairs 12 path116 343 10.343317324795892
pairs 7 path110 1360 10.344087518129507
pairs 8 path242 1391 10.3449780827831
pairs 16 path110 671 10.345147481634115
pairs 13 path156 426 10.378181063564647
pairs 3 path32 1038 10.388068345009964
pairs 9 path110 1545 10.39679886132485
pairs 6 path104 1233 10.41675634234293
pairs 15 path32 576 10.431785409335436
pairs 10 path22 87 10.43669144510462
pairs 11 path92 232 10.453695649627864
pairs 11 path136 230 10.4610294128964
pairs 18 path194 793 10.51137795981435
pairs 13 path138 439 10.544990891896498
pairs 12 path58 329 10.596536059755733
pairs 6 path180 1206 10.604691669278655
pairs 12 path200 365 10.608306448758514
pairs 16 path174 606 10.623636196943087
pairs 16 path144 630 10.62682431719076
pairs 17 path200 733 10.65306807336623
pairs 13 path122 389 10.663662149089586
pairs 12 path192 372 10.687852849663875
pairs 6 path82 257 10.714117815151122
pairs 13 path70 455 10.773717250746538
pairs 9 path114 1519 10.789711697550182
pairs 9 path60 1542 10.827184029741984
pairs 10 path96 82 10.845460131723092
pairs 17 path114 760 10.847234107997938
pairs 9 path146 1557 10.862824811746004
pairs 8 path46 1457 10.865446785020241
pairs 2 path108 977 10.865626597555217
pairs 4 path92 1158 10.865638537675512
pairs 5 path30 1170 10.883182982302246
pairs 7 path42 1301 10.896506374615212
pairs 11 path174 178 10.914286168980233
pairs 8 path168 1442 10.948547808844244
pairs 16 path182 603 10.959946502788888
pairs 10 path118 119 10.964319566877284
pairs 14 path104 495 10.966826233565522
pairs 18 path140 850 10.99004889691518
pairs 14 path152 477 10.996075138767408
pairs 13 path224 469 11.001908201862058
pairs 19 path88 951 11.041813355965713
pairs 18 path108 868 11.053156475258788
pairs 17 path28 682 11.088433744350878
pairs 17 path86 715 11.108131173785816
pairs 16 path36 631 11.125777784419236
pairs 10 path32 97 11.13007772769873
pairs 17 path82 735 11.159526258731818
pairs 1 path54 54 11.201441790846523
pairs 13 path30 394 11.20737154742483
pairs 8 path86 281 11.208533518435202
pairs 17 path154 694 11.22953482965696
pairs 17 path136 755 11.230482868517418
pairs 11 path198 188 11.230882302174894
pairs 11 path230 149 11.236362383994305
pairs 7 path136 1314 11.287217520101493
pairs 8 path60 1424 11.291977729134894
pairs 12 path34 283 11.293453470226902
pairs 16 path206 587 11.31540308269607
pairs 13 path26 396 11.331416199710178
pairs 13 path92 450 11.332433637531587
pairs 16 path204 601 11.335105515241432
pairs 14 path112 487 11.33711469810201
pairs 16 path118 678 11.35696919376313
pairs 3 path52 1090 11.379602067426154
pairs 18 path162 843 11.381770473931839
pairs 15 path60 559 11.395025268905012
pairs 9 path142 1524 11.479076201099161
pairs 17 path68 768 11.509253465453638
pairs 9 path162 1515 11.517140716079401
pairs 3 path68 1055 11.530417236870141
pairs 17 path174 776 11.537770429554566
pairs 16 path96 653 11.542479087558078
pairs 18 path118 858 11.549906697745639
pairs 10 path80 123 11.574589243806303
pairs 14 path148 478 11.575493628127894
pairs 15 path44 1582 11.59231056177495
pairs 13 path240 398 11.608091180701088
pairs 14 path80 509 11.608494233918462
pairs 17 path48 706 11.637736954029933
pairs 16 path114 661 11.66057020312005
pairs 12 path80 337 11.67216133771989
pairs 9 path182 1504 11.674601520156987
pairs 6 path142 1186 11.67604086911531
pairs 9 path78 1563 11.690492571042702
pairs 14 path130 548 11.69278402654893
pairs 17 path88 714 11.74005840645127
pairs 7 path228 1274 11.778974226409028
pairs 10 path72 112 11.801160976420915
pairs 5 path20 1174 11.86303312425962
pairs 19 path52 913 11.882939682307478
pairs 7 path88 1369 11.905884931285271
pairs 11 path158 183 11.913472290741236
pairs 9 path180 1503 11.962364300924621
pairs 12 path154 286 11.965852285686587
pairs 1 path42 46 11.97883222949304
pairs 7 path216 1343 11.985414414702202
pairs 7 path222 1338 11.986393001561705
pairs 18 path164 834 11.992069014078858
pairs 14 path24 525 12.007833050874762
pairs 12 path30 289 12.021916252146223
pairs 12 path96 336 12.02476581764423
pairs 12 path220 350 12.053385619139164
pairs 6 path32 1222 12.083719602978215
pairs 12 path156 288 12.1093649707645
pairs 9 path188 1527 12.13044538999361
pairs 0 path34 17 12.166493780005819
pairs 2 path42 999 12.200099365336124
pairs 18 path24 794 12.208084042602323
pairs 18 path234 787 12.210758521966218
pairs 3 path46 1051 12.21444974081749
pairs 17 path62 697 12.274239319804794
pairs 4 path82 1139 12.31130092115211
pairs 16 path168 613 12.317176325838151
pairs 8 path122 1474 12.337292753338208
pairs 18 path132 824 12.355646258216371
pairs 19 path80 939 12.366921946181613
pairs 16 path216 583 12.370310440078137
pairs 4 path80 1147 12.370437920758683
pairs 10 path66 109 12.373121927812019
pairs 6 path80 1256 12.40787236328105
pairs 19 path166 907 12.40799610272822
pairs 10 path52 94 12.42455954483387
pairs 10 path108 79 12.499263240498298
pairs 18 path50 813 12.515366312870604
pairs 6 path134 1250 12.532464615421652
pairs 13 path150 414 12.53271028356075
pairs 3 path70 1064 12.5488074632764
pairs 12 path180 312 12.61888787309171
pairs 9 path116 1483 12.6503906250023
pairs 8 path182 1420 12.654348896583235
pairs 8 path204 1394 12.657233853542602
pairs 11 path68 207 12.675100583647295
pairs 11 path76 245 12.687332446750442
pairs 19 path188 937 12.690149795458968
pairs 13 path28 393 12.736615095344584
pairs 12 path90 347 12.754374876547907
pairs 12 path194 368 12.761722808597659
pairs 19 path74 874 12.78999134534533
pairs 17 path166 711 12.799773049259063
pairs 18 path114 840 12.803451325539768
pairs 16 path130 662 12.840241385123731
pairs 13 path78 458 12.85319372248485
pairs 18 path30 781 12.893451373388741
pairs 17 path44 705 12.91262274566769
pairs 4 path122 1120 12.920144507017444
pairs 19 path136 950 12.980796242737446
pairs 14 path76 510 12.98169388687672
pairs 18 path176 886 12.982211562965842
pairs 9 path168 1532 12.988516376668839
pairs 19 path60 923 13.003319300953713
pairs 14 path144 536 13.029344719393436
pairs 18 path34 782 13.029997787657988
pairs 14 path100 516 13.089028090287975
pairs 11 path160 192 13.089283649623086
pairs 10 path20 1578 13.099047801583458
pairs 8 path78 1486 13.101576486584964
pairs 15 path80 553 13.110395249528395
pairs 14 path54 524 13.149455133790449
pairs 13 path154 418 13.175965236467201
pairs 15 path54 562 13.179113185887676
pairs 13 path80 461 13.206111442953413
pairs 15 path28 567 13.252823696307939
pairs 9 path36 1500 13.318596640769982
pairs 18 path166 842 13.337851546919186
pairs 6 path168 1214 13.341730841092248
pairs 11 path186 182 13.34726790939714
pairs 16 path194 599 13.348228944957437
pairs 19 path32 908 13.351220323660044
pairs 13 path232 424 13.367340026893231
pairs 17 path180 765 13.36785053023687
pairs 7 path188 1284 13.376604325254295
pairs 12 path166 369 13.383774502066785
pairs 11 path282 189 13.419867930597427
pairs 8 path114 1473 13.426701509597795
pairs 7 path236 1325 13.533905934338994
pairs 9 path106 1552 13.536721256049143
pairs 11 path258 145 13.556229350808696
pairs 7 path212 1359 13.587817419572408
pairs 12 path182 321 13.591688358413906
pairs 14 path58 494 13.617846184746769
pairs 15 path72 569 13.622780728135226
pairs 18 path208 804 13.671840582131592
pairs 19 path22 889 13.68876706464244
pairs 8 path88 282 13.712465530954644
pairs 1 path34 63 13.716738253880584
pairs 19 path96 954 13.720520233890229
pairs 6 path96 1241 13.745035661011803
pairs 8 path118 1490 13.774687930700596
pairs 8 path198 1390 13.804585165158304
pairs 18 path54 811 13.84156637513225
pairs 8 path196 1398 13.865141918693853
pairs 12 path100 326 13.926235792919597
pairs 15 path42 1583 13.975589630413547
pairs 13 path72 464 13.987135467778755
pairs 17 path60 696 14.03416585228916
pairs 16 path198 588 14.100829308351276
pairs 17 path76 734 14.178403212346842
pairs 10 path70 116 14.218890751414513
pairs 8 path152 1451 14.259061003590052
pairs 13 path146 428 14.268908641150146
pairs 15 path64 573 14.416729368825749
pairs 17 path56 707 14.477960694591818
pairs 6 path138 1230 14.488959394532595
pairs 19 path78 936 14.513477803898763
pairs 14 path34 538 14.522110212015814
pairs 9 path90 1537 14.61568368550923
pairs 3 path78 1060 14.649116104302019
pairs 9 path184 1528 14.654550636094513
pairs 18 path136 832 14.685153595830327
pairs 0 path56 1575 14.833063590789795
pairs 16 path66 666 14.865418585650982
pairs 18 path228 788 14.941902806291376
pairs 17 path128 745 14.948365082948657
pairs 7 path104 1367 14.958316771146997
pairs 9 path160 1514 14.964236565936329
pairs 4 path52 1155 15.05292940608156
pairs 6 path72 1259 15.071257772334718
pairs 2 path72 1016 15.088071282302097
pairs 12 path164 307 15.155707205191332
pairs 16 path142 620 15.15666454008819
pairs 10 path54 90 15.215842464830704
pairs 17 path120 753 15.222302277315869
pairs 7 path124 1341 15.245796370898592
pairs 17 path206 724 15.258930347398882
pairs 13 path234 423 15.334484166841115
pairs 14 path38 545 15.361169630665033
pairs 16 path80 638 15.368036278700465
pairs 7 path182 1273 15.38899928616453
pairs 5 path36 1182 15.494453989858698
pairs 16 path176 609 15.49633158140544
pairs 16 path86 637 15.626123336972602
pairs 14 path64 493 15.659399397481527
pairs 18 path48 805 15.804575329405859
pairs 19 path106 952 15.904919342078326
pairs 6 path74 1261 15.911199392676835
pairs 11 path104 228 15.977522847055628
pairs 17 path144 738 15.998189449111605
pairs 6 path194 1195 16.055907715187132
pairs 12 path102 340 16.139539215079314
pairs 4 path28 1094 16.165690452592166
pairs 7 path166 1287 16.17249480847312
pairs 12 path46 186 16.290012043484154
pairs 17 path98 748 16.321791147414576
pairs 17 path186 773 16.392496111702904
pairs 18 path106 857 16.474785842470478
pairs 18 path28 784 16.48056539954521
pairs 10 path28 99 16.48838548445453
pairs 12 path190 373 16.538933587714986
pairs 12 path148 290 16.688549601241963
pairs 11 path226 150 16.68924214850277
pairs 3 path112 1105 16.82405408994454
pairs 9 path190 1596 16.950059388729116
pairs 11 path38 269 17.00039859582849
pairs 17 path78 736 17.069171578014117
pairs 1 path38 65 17.09046299592446
pairs 14 path134 542 17.11933458550767
pairs 11 path166 210 17.2354243196144
pairs 19 path64 926 17.336522465774575
pairs 10 path114 120 17.38651854034061
pairs 11 path22 266 17.50708437206107
pairs 15 path50 564 17.53993612802619
pairs 11 path146 197 17.611842077095297
pairs 12 path174 370 17.656525488725524
pairs 12 path158 371 17.678889462239127
pairs 17 path130 746 17.699351236145983
pairs 12 path124 323 17.754354220845748
pairs 7 path208 1365 17.763502401809127
pairs 11 path144 204 17.85188937065316
pairs 6 path158 1188 17.9407087735938
pairs 14 path22 532 18.10562196402345
pairs 17 path24 685 18.13320251997349
pairs 8 path120 1475 18.16141024319842
pairs 7 path148 1293 18.266292672526955
pairs 19 path84 956 18.3388178626873
pairs 15 path66 574 18.506489430096842
pairs 8 path254 1409 18.771664617985095
pairs 6 path70 1258 18.786370439945582
pairs 3 path172 1079 18.820680795947517
pairs 18 path220 801 18.839667284846175
pairs 7 path192 1339 18.873871034133302
pairs 15 path36 575 18.97295189058806
pairs 11 path194 158 19.11647283735191
pairs 10 path94 84 19.13201300296454
pairs 15 path46 580 19.50412679190759
pairs 7 path90 1372 19.543574739830806
pairs 19 path178 901 20.038107681323037
pairs 12 path118 334 20.11981161770822
pairs 13 path214 382 20.296509595741476
pairs 10 path68 128 20.34633743148409
pairs 16 path208 592 20.43160899783138
pairs 0 path30 15 20.53677169970693
pairs 17 path140 743 20.69778372962605
pairs 17 path134 747 21.072718446957495
pairs 13 path108 405 21.889650382033974
pairs 6 path118 1240 22.008056696822436
pairs 9 path96 1521 22.038428719486262
pairs 15 path56 561 22.1481666319631
pairs 9 path108 1553 22.277695812488215
pairs 13 path106 425 22.43006786841399
pairs 16 path152 633 22.7177426799144
pairs 6 path94 1595 22.720245888701253
pairs 4 path96 1590 23.110456431779784
pairs 13 path160 427 23.73650057549611
pairs 10 path88 85 23.88487228912823
pairs 0 path28 6 24.00331490245015
pairs 11 path148 195 24.64370001025781
pairs 13 path68 475 24.68776118830318
pairs 9 path156 1509 25.708015347848278
pairs 10 path48 93 29.493908670803034
pairs 12 path108 361 29.79084180285886
pairs 0 path58 4 29.96781963331527
pairs 13 path170 436 30.28354537466621
pairs 12 path114 346 31.830208055765066
pairs 4 path74 1587 33.37882606229977
pairs 17 path198 742 33.70900979569625
