1	5
2	5
3	5
4	5
5	5
6	5
7	5
8	5
9	5
10	5
11	5
12	5
13	5
14	5
15	5
16	5
17	5
18	5
19	4
20	8
21	8
22	2
23	2
24	2
25	2
26	6
27	6
28	4
29	6
30	2
31	2
32	2
33	2
34	2
35	2
36	2
37	2
38	2
39	2
40	2
41	4
42	2
43	6
44	6
45	2
46	6
47	6
48	6
49	8
50	6
51	2
52	6
53	2
54	4
55	4
56	2
57	6
58	6
59	2
60	2
61	2
62	2
63	2
64	4
65	6
66	4
67	7
68	6
69	2
70	2
71	8
72	9
73	1
74	1
75	1
76	5
77	5
78	5
79	5
80	1
81	1
82	3
83	1
84	1
85	3
86	3
87	3
88	3
89	1
90	1
91	8
92	3
93	3
94	8
95	5
96	5
97	3
98	5
99	8
100	1
101	8
102	8
103	1
104	5
105	8
106	8
107	8
108	6
109	5
110	5
111	3
112	1
113	1
114	2
115	1
116	1
117	1
118	1
119	1
120	1
121	1
122	8
123	1
124	1
125	5
126	1
127	5
128	1
129	9
130	9
131	9
132	9
133	4
134	7
135	6
136	6
137	9
138	6
139	9
140	2
141	7
142	7
143	8
144	9
145	6
146	4
147	6
148	7
149	7
150	7
151	6
152	6
153	4
154	6
155	7
156	7
157	6
158	6
159	6
160	6
161	6
162	6
163	6
164	6
165	6
166	6
167	6
168	6
169	6
170	6
171	6
172	6
173	6
174	6
175	2
176	2
177	2
178	2
179	2
180	2
181	2
182	2
183	2
184	6
185	6
186	6
187	6
188	6
189	6
190	4
191	2
192	2
193	6
194	6
195	6
196	6
197	6
198	2
199	4
200	2
201	6
202	6
203	6
204	6
205	4
206	2
207	2
208	2
209	2
210	2
211	2
212	6
213	6
214	6
215	6
216	2
217	2
218	2
219	2
220	6
221	2
222	2
223	4
224	4
225	4
226	4
227	4
228	4
229	4
230	6
231	2
232	2
233	2
234	4
235	4
236	2
237	2
238	2
239	2
240	6
241	2
242	4
243	2
244	7
245	4
246	2
247	5
248	5
249	7
250	7
251	7
252	4
253	9
254	9
255	4
256	6
257	6
258	4
259	4
260	4
261	4
262	1
263	9
264	4
265	2
266	1
267	4
268	4
269	4
270	4
271	2
272	4
273	4
274	4
275	2
276	2
277	9
278	7
279	7
280	4
281	9
282	7
283	9
284	9
285	2
286	7
287	7
288	7
289	8
290	7
291	7
292	7
293	7
294	7
295	7
296	9
297	7
298	6
299	7
300	7
301	4
302	6
303	6
304	4
305	7
306	7
307	7
308	7
309	7
310	7
311	2
312	2
313	2
314	7
315	2
316	2
317	7
318	7
319	7
320	2
321	2
322	7
323	7
324	7
325	3
326	7
327	7
328	7
329	7
330	7
331	7
332	7
333	7
334	7
335	7
336	7
337	6
338	6
339	6
340	7
341	9
342	9
343	7
344	6
345	9
346	2
347	6
348	6
349	6
350	6
351	6
352	2
353	9
354	6
355	2
356	6
357	6
358	6
359	9
360	7
361	2
362	2
363	7
364	7
365	7
366	7
367	7
368	7
369	7
370	7
371	7
372	7
373	7
374	7
375	7
376	3
377	9
378	9
379	9
380	6
381	9
382	3
383	3
384	9
385	7
386	9
387	7
388	7
389	7
390	7
391	3
392	1
393	3
394	3
395	7
396	3
397	9
398	7
399	3
400	7
401	7
402	7
403	7
404	7
405	7
406	7
407	7
408	4
409	7
410	3
411	3
412	3
413	6
414	6
415	6
416	6
417	6
418	6
419	6
420	6
421	6
422	6
423	7
424	7
425	7
426	6
427	7
428	7
429	7
430	7
431	7
432	7
433	7
434	7
435	7
436	7
437	7
438	7
439	7
440	9
441	7
442	7
443	7
444	7
445	7
446	7
447	7
448	9
449	7
450	7
451	7
452	7
453	9
454	7
455	7
456	9
457	7
458	7
459	7
460	7
461	7
462	7
463	7
464	7
465	7
466	7
467	7
468	8
469	3
470	7
471	7
472	7
473	7
474	3
475	7
476	8
477	4
478	3
479	3
480	1
481	1
482	8
483	8
484	8
485	8
486	8
487	8
488	8
489	8
490	3
491	8
492	8
493	8
494	8
495	8
496	1
497	3
498	1
499	8
500	8
501	8
502	8
503	8
504	1
505	1
506	8
507	8
508	8
509	8
510	1
511	8
512	3
513	6
514	3
515	7
516	3
517	5
518	1
519	8
520	8
521	2
522	3
523	4
524	8
525	8
526	8
527	8
528	8
529	8
530	8
531	8
532	8
533	8
534	8
535	8
536	3
537	8
538	8
539	4
540	3
541	8
542	3
543	3
544	1
545	8
546	3
547	1
548	1
549	1
550	3
551	3
552	3
553	1
554	5
555	5
556	5
557	4
558	1
559	1
560	5
561	5
562	5
563	5
564	5
565	5
566	8
567	5
568	1
569	3
570	5
571	5
572	1
573	1
574	5
575	3
576	3
577	3
578	3
579	3
580	5
581	5
582	7
583	7
584	7
585	7
586	7
587	7
588	7
589	7
590	7
591	7
592	7
593	7
594	7
595	9
596	7
597	7
598	4
599	7
600	7
601	7
602	7
603	7
604	7
605	7
606	7
607	7
608	6
609	7
610	6
611	2
612	6
613	7
614	2
615	2
616	6
617	6
618	6
619	6
620	6
621	2
622	2
623	6
624	6
625	6
626	2
627	2
628	6
629	6
630	6
631	2
632	2
633	6
634	2
635	6
636	7
637	2
638	2
639	2
640	2
641	6
642	6
643	2
644	2
645	2
646	2
647	2
648	2
649	2
650	2
651	2
652	7
653	6
654	6
655	6
656	6
657	6
658	6
659	6
660	6
661	6
662	6
663	6
664	6
665	6
666	2
667	2
668	2
669	2
670	6
671	6
672	6
673	2
674	2
675	2
676	6
677	6
678	6
679	2
680	6
681	9
682	9
683	4
684	6
685	3
686	9
687	9
688	6
689	6
690	6
691	6
692	7
693	6
694	6
695	6
696	7
697	6
698	4
699	4
700	6
701	6
702	6
703	6
704	6
705	3
706	6
707	4
708	6
709	6
710	6
711	6
712	6
713	6
714	6
715	6
716	6
717	6
718	4
719	4
720	6
721	6
722	6
723	6
724	4
725	4
726	9
727	6
728	6
729	1
730	6
731	7
732	7
733	6
734	6
735	6
736	6
737	9
738	2
739	6
740	6
741	7
742	7
743	4
744	2
745	7
746	7
747	7
748	7
749	9
750	9
751	7
752	7
753	7
754	7
755	8
756	9
757	9
758	6
759	9
760	4
761	6
762	4
763	2
764	2
765	7
766	7
767	7
768	7
769	7
770	3
771	7
772	7
773	7
774	7
775	7
776	7
777	7
778	7
779	7
780	9
781	3
782	4
783	4
784	9
785	4
786	7
787	3
788	7
789	7
790	7
791	7
792	7
793	7
794	3
795	7
796	7
797	9
798	7
799	7
800	3
801	7
802	7
803	7
804	7
805	7
806	7
807	7
808	7
809	7
810	7
811	9
812	9
813	9
814	9
815	9
816	9
817	7
818	9
819	7
820	7
821	7
822	7
823	7
824	7
825	9
826	9
827	7
828	7
829	7
830	9
831	9
832	6
833	9
834	7
835	6
836	6
837	6
838	6
839	9
840	4
841	6
842	9
843	6
844	6
845	8
846	6
847	6
848	6
849	6
850	6
851	6
852	6
853	6
854	8
855	6
856	6
857	6
858	6
859	6
860	6
861	6
862	6
863	6
864	6
865	6
866	6
867	6
868	6
869	6
870	6
871	6
872	6
873	6
874	1
875	1
876	1
877	6
878	6
879	6
880	6
881	6
882	6
883	3
884	7
885	8
886	8
887	1
888	1
889	1
890	9
891	3
892	1
893	1
894	1
895	8
896	8
897	3
898	3
899	3
900	3
901	8
902	8
903	8
904	8
905	8
906	8
907	8
908	3
909	8
910	8
911	3
912	3
913	8
914	3
915	8
916	1
917	8
918	3
919	1
920	8
921	3
922	5
923	8
924	1
925	8
926	8
927	5
928	1
929	8
930	8
931	1
932	8
933	8
934	8
935	8
936	1
937	8
938	1
939	1
940	8
941	8
942	8
943	8
944	3
945	8
946	8
947	8
948	8
949	8
950	3
951	8
952	8
953	8
954	8
955	8
956	1
957	1
958	1
959	8
960	8
961	8
962	3
963	3
964	3
965	3
966	3
967	3
968	6
969	3
970	6
971	4
972	4
973	7
974	2
975	9
976	9
977	2
978	8
979	3
980	3
981	8
982	3
983	4
984	6
985	6
986	9
987	9
988	6
989	6
990	6
991	6
992	6
993	9
994	6
995	1
996	9
997	6
998	2
999	9
1000	9
1001	6
1002	2
1003	6
1004	2
1005	4
1006	2
1007	4
1008	6
1009	2
1010	6
1011	6
1012	6
1013	6
1014	6
1015	6
1016	6
1017	9
1018	2
1019	2
1020	6
1021	6
1022	3
1023	8
1024	3
1025	4
1026	4
1027	6
1028	6
1029	6
1030	9
1031	1
1032	7
1033	7
1034	7
1035	7
1036	7
1037	9
1038	9
1039	6
1040	3
1041	6
1042	6
1043	6
1044	6
1045	6
1046	6
1047	3
1048	6
1049	6
1050	3
1051	9
1052	9
1053	6
1054	2
1055	6
1056	6
1057	5
1058	6
1059	6
1060	3
1061	6
1062	6
1063	3
1064	6
1065	3
1066	6
1067	6
1068	6
1069	6
1070	8
1071	1
1072	8
1073	6
1074	6
1075	6
1076	6
1077	6
1078	6
1079	6
1080	6
1081	6
1082	6
1083	6
1084	4
1085	6
1086	6
1087	6
1088	6
1089	6
1090	6
1091	6
1092	4
1093	1
1094	1
1095	1
1096	6
1097	6
1098	6
1099	6
1100	6
1101	6
1102	1
1103	6
1104	6
1105	6
1106	1
1107	6
1108	9
1109	9
1110	9
1111	2
1112	4
1113	1
1114	9
1115	6
1116	6
1117	6
1118	8
1119	8
1120	8
1121	8
1122	8
1123	8
1124	8
1125	8
1126	1
1127	1
1128	1
1129	1
1130	1
1131	1
1132	8
1133	1
1134	8
1135	8
1136	8
1137	8
1138	8
1139	8
1140	8
1141	8
1142	8
1143	8
1144	8
1145	8
1146	8
1147	8
1148	8
1149	8
1150	1
1151	1
1152	1
1153	3
1154	1
1155	1
1156	1
1157	8
1158	3
1159	1
1160	5
1161	1
1162	6
1163	5
1164	5
1165	5
1166	5
1167	5
1168	5
1169	5
1170	5
1171	5
1172	5
1173	5
1174	5
1175	5
1176	5
1177	5
1178	5
1179	5
1180	1
1181	5
1182	5
1183	1
1184	9
1185	9
1186	9
1187	1
1188	9
1189	9
1190	9
1191	9
1192	9
1193	7
1194	4
1195	7
1196	4
1197	4
1198	1
1199	1
1200	4
1201	2
1202	4
1203	4
1204	9
1205	3
1206	3
1207	4
1208	2
1209	3
1210	3
1211	9
1212	4
1213	3
1214	4
1215	4
1216	2
1217	2
1218	4
1219	4
1220	4
1221	4
1222	6
1223	9
1224	2
1225	4
1226	3
1227	1
1228	4
1229	9
1230	2
1231	2
1232	7
1233	2
1234	1
1235	9
1236	8
1237	3
1238	2
1239	2
1240	2
1241	4
1242	2
1243	2
1244	3
1245	7
1246	8
1247	2
1248	2
1249	8
1250	2
1251	7
1252	8
1253	1
1254	8
1255	2
1256	1
1257	4
1258	7
1259	7
1260	2
1261	6
1262	4
1263	2
1264	2
1265	2
1266	2
1267	2
1268	2
1269	9
1270	9
1271	9
1272	9
1273	9
1274	9
1275	9
1276	9
1277	9
1278	9
1279	7
1280	7
1281	7
1282	9
1283	6
1284	7
1285	7
1286	7
1287	4
1288	9
1289	6
1290	9
1291	9
1292	6
1293	7
1294	7
1295	4
1296	2
1297	7
1298	2
1299	4
1300	2
1301	6
1302	4
1303	2
1304	4
1305	6
1306	4
1307	6
1308	9
1309	9
1310	6
1311	6
1312	1
1313	4
1314	4
1315	1
1316	9
1317	9
1318	9
1319	9
1320	6
1321	6
1322	9
1323	6
1324	9
1325	9
1326	2
1327	9
1328	6
1329	9
1330	9
1331	9
1332	9
1333	9
1334	6
1335	6
1336	6
1337	6
1338	7
1339	7
1340	7
1341	6
1342	6
1343	7
1344	6
1345	6
1346	6
1347	7
1348	7
1349	7
1350	6
1351	6
1352	6
1353	6
1354	7
1355	7
1356	6
1357	6
1358	6
1359	7
1360	7
1361	7
1362	7
1363	6
1364	7
1365	7
1366	7
1367	7
1368	7
1369	6
1370	6
1371	6
1372	6
1373	7
1374	6
1375	7
1376	7
1377	7
1378	7
1379	7
1380	9
1381	6
1382	7
1383	6
1384	9
1385	6
1386	6
1387	9
1388	9
1389	4
1390	2
1391	7
1392	7
1393	9
1394	9
1395	6
1396	9
1397	7
1398	6
1399	4
1400	6
1401	4
1402	9
1403	2
1404	2
1405	4
1406	7
1407	6
1408	4
1409	2
1410	2
1411	6
1412	9
1413	9
1414	4
1415	4
1416	7
1417	7
1418	6
1419	6
1420	6
1421	6
1422	9
1423	6
1424	6
1425	6
1426	6
1427	2
1428	7
1429	4
1430	6
1431	6
1432	6
1433	6
1434	6
1435	6
1436	6
1437	6
1438	6
1439	6
1440	6
1441	6
1442	6
1443	6
1444	6
1445	6
1446	6
1447	6
1448	6
1449	6
1450	6
1451	6
1452	6
1453	6
1454	6
1455	7
1456	7
1457	4
1458	7
1459	6
1460	7
1461	6
1462	6
1463	6
1464	6
1465	6
1466	6
1467	6
1468	6
1469	6
1470	6
1471	6
1472	6
1473	6
1474	6
1475	6
1476	6
1477	6
1478	6
1479	6
1480	6
1481	6
1482	6
1483	1
1484	6
1485	6
1486	6
1487	2
1488	3
1489	6
1490	6
1491	8
1492	3
1493	5
1494	1
1495	1
1496	3
1497	8
1498	8
1499	3
1500	8
1501	8
1502	3
1503	3
1504	8
1505	3
1506	1
1507	1
1508	1
1509	8
1510	3
1511	8
1512	8
1513	8
1514	8
1515	3
1516	8
1517	8
1518	3
1519	3
1520	1
1521	1
1522	7
1523	1
1524	8
1525	1
1526	8
1527	3
1528	8
1529	8
1530	8
1531	3
1532	3
1533	8
1534	8
1535	1
1536	1
1537	1
1538	8
1539	8
1540	8
1541	8
1542	8
1543	8
1544	8
1545	8
1546	8
1547	1
1548	8
1549	8
1550	8
1551	8
1552	1
1553	8
1554	1
1555	1
1556	3
1557	3
1558	8
1559	8
1560	1
1561	8
1562	8
1563	8
1564	8
1565	3
1566	3
1567	3
1568	8
1569	1
1570	8
1571	5
1572	3
1573	5
1574	5
1575	5
1576	4
1577	2
1578	5
1579	9
1580	3
1581	3
1582	3
1583	3
1584	9
1585	3
1586	5
1587	8
1588	8
1589	1
1590	4
1591	5
1592	5
1593	5
1594	5
1595	4
1596	3
1597	8
